id,company_name,company_address,company_contact_no
1,"AC Energy and Infra Group",Address,123456789
2,"Ayala Theaters Management, Inc.",Address,123456789
3,"Ayala Land Sales, Inc",Address,123456789
4,"Aprisa Business Process Solutions, Inc.",Address,123456789
5,"GLOBE TELECOM",Address,123456
6,"AYALA FOUNDATION, INC",Address,123456
7,"AYALA CORPORATION",Address,123456
8,"AC AUTOMOTIVE BUSINESS SERVICES",Address,123456789
9,ACEI-VOLKSWAGEN,Address,123456
10,"AYALA LAND HOTELS AND RESORTS CORP",Address,123456
11,"AMAIA LAND CORP",Address,123456
12,"AYALA PROPERTY MANAGEMENT CORPORATION",Address,123456
13,"AVIDA LAND",Address,123456
14,"CEBU HOLDINGS, INC.",Address,123456
15,"HONDA CARS",Address,123456
16,"Philippine Integrated Energy Solutions, Inc.",Address,123456
17,"Isuzu Cebu Inc",Address,123456
18,"Makati Development Corporation",Address,123456
19,"MDC Buildplus, Inc.",Address,123456
20,"MDC Conqrete Inc",Address,123456
21,"MDC Equipment Solutions Inc",Address,123456
22,"Ayala Land International Sales, Inc.",Address,123456
23,"Amicassa Process Solutions, Inc.",Address,123456
24,"EL NIDO RESORTS",Address,123456
25,"SEDA Hotels",Address,123456
26,"Yondu Inc.","34th St Corner Lane A, BGC, Taguig",123456
