id,company_name,company_address,company_contact_no
1,"AC Energy and Infra Group",Address,111111111
2,"Ayala Theaters Management, Inc.",Address,111111111
3,"Ayala Land Sales, Inc",Address,111111111
4,"Aprisa Business Process Solutions, Inc.",Address,111111111
5,"GLOBE TELECOM",Address,111111111
6,"AYALA FOUNDATION, INC",Address,111111111
7,"AYALA CORPORATION",Address,111111111
8,"AC AUTOMOTIVE BUSINESS SERVICES",Address,111111111
9,ACEI-VOLKSWAGEN,Address,111111111
10,"AYALA LAND HOTELS AND RESORTS CORP",Address,111111111
11,"AMAIA LAND CORP",Address,111111111
12,"AYALA PROPERTY MANAGEMENT CORPORATION",Address,111111111
13,"AVIDA LAND",Address,111111111
14,"CEBU HOLDINGS, INC.",Address,111111111
15,"HONDA CARS",Address,111111111
16,"Philippine Integrated Energy Solutions, Inc.",Address,111111111
17,"Isuzu Cebu",Address,111111111
18,"Makati Development Corporation",Address,111111111
19,"MDC Buildplus, Inc.",Address,111111111
20,"MDC Conqrete Inc",Address,111111111
21,"MDC Equipment Solutions Inc",Address,111111111
22,"Ayala Land International Sales, Inc.",Address,111111111
23,"Amicassa Process Solutions, Inc.",Address,111111111
24,"EL NIDO RESORTS",Address,111111111
25,"SEDA Hotels",Address,111111111
26,"Yondu Inc.","34th St Corner Lane A, BGC, Taguig",111111111
27,"AYALA LAND, INC.",Makati,1234567
28,"Isuzu Alabang",Address,123456
29,"Isuzu Cavite",Address,123456
30,"Isuzu Pasig",Address,123456
31,"Isuzu Rizal",Address,123456
32,"AyalaLand Malls, Inc.",Address,123456
33,"ACCENDO COMMERCIAL CORP.",Address,123456
35,"LiveIt Investments Ltd.",Address,123456
36,CDOGC,Address,123456
37,AEI,Address,123456
38,IMI,Address,123456
39,BPI,Address,123456
40,BanKO,Address,123456
41,Aviation,Address,123456
42,APEC,Address,123456
43,SONOMA,Address,123456
44,"BPI FAMILY SAVINGS BANK",Address,111111
45,"BPI/MS INSURANCE CORP.",Address,111111
46,"BPI CENTURY TOKYO LEASE & FINA",Address,111111
47,"AYALA PLANS INC.",Address,111111
48,"BPI CAPITAL CORP.",Address,111111
49,"BPI SECURITIES CORP.",Address,111111
50,"BPI DIRECT SAVINGS BANK INC.",Address,111111
51,"BPI FOREX CORP.",Address,111111
52,ARC,Address,123456
53,"Ayala Group Legal",Address,123456
54,"Alveo Land Corp.",Address,123456
55,"BellaVita Land Corp.",Address,123456
56,"MANILA WATER",Address,111111
58,"AGC Team",Address,123456
59,"AGC 2nd Team",Address,123456
60,"Cebu City Marriott Hotel",Address,111111
61,"Ayala Healthcare Holdings, Inc. and Zapfam, Inc.",Address,123456
62,ASSiST,"Ayala Ave, Makati",9083000
