id,first_name,last_name,middle_initial,gender,mobile_no,email,position,employee_no,blood_type,company,department,site,address_street,address_line_2,address_city,address_state,address_country,address_zip_code,is_supervisor,is_rescuer,supervisor_id,date_registered
25158,AARON,TIGAS,R,,9175201090,artigas@bpi.com.ph,"MARKETING MANAGER",,,"BPI FOREX CORP.","BPI FOREX CORP",Main,,,,,,,0,0,0,"2015-07-23 16:59:35"
20189,ARIANNE,ENCILA,I,,9178133486,aiencila@bpi.com.ph,"SALES MANAGER",,,"BPI FOREX CORP.","BPI FOREX CORP",Main,,,,,,,0,0,0,"0000-00-00 00:00:00"
23735,DIANNE,QUILATAN,M,,9052700301,diannequilatan@yahoo.com,"SERVICE STAFF",,,"BPI FOREX CORP.","BPI FOREX CORP",Main,,,,,,,0,0,0,"0000-00-00 00:00:00"
18396,GINA,BRAGANCIA,C,,9325094963,gna2_18@yahoo.com,"OPERATIONS STAFF",,,"BPI FOREX CORP.","BPI FOREX CORP",Main,,,,,,,0,0,0,"0000-00-00 00:00:00"
24583,"JESUSA JOHANNA",SANTOS,R,,9228100273,jjrsantos@bpi.com.ph,"SENIOR SUPPORT ASSOCIATE",,,"BPI FOREX CORP.","BPI FOREX CORP",Main,,,,,,,0,0,0,"0000-00-00 00:00:00"
24637,JOAN,SAREN,G,,9253003630,joan_saren@yahoo.com,"SERVICE ASSOCIATE",,,"BPI FOREX CORP.","BPI FOREX CORP",Main,,,,,,,0,0,0,"0000-00-00 00:00:00"
19931,LAARNI,DIAZ,R,,9228374551,lrdiaz@bpi.com.ph,"OPERATIONS OFFICER",,,"BPI FOREX CORP.","BPI FOREX CORP",Main,,,,,,,0,0,0,"0000-00-00 00:00:00"
20613,"MA MICHELLE",FUENTES,S,,9464821139,mm_fuentes01@yahoo.com,"OPERATIONS ASSOCIATE",,,"BPI FOREX CORP.","BPI FOREX CORP",Main,,,,,,,0,0,0,"0000-00-00 00:00:00"
21103,"MA ROSARIO",GUTIERREZ,L,,9175383058,mrlgutierrez@bpi.com.ph,"MARKETING MANAGER",,,"BPI FOREX CORP.","BPI FOREX CORP",Main,,,,,,,0,0,0,"0000-00-00 00:00:00"
24486,MANUEL,SANCHEZ,C,,9176251312,mcsanchez@bpi.com.ph,"DEPARTMENT HEAD",,,"BPI FOREX CORP.","BPI FOREX CORP",Main,,,,,,,0,0,0,"2015-07-23 23:05:20"
25667,MICHELLE,VILLENAS,S,,9175553375,msvillenas@gmail.com,"COMPLIANCE OFFICER",,,"BPI FOREX CORP.","BPI FOREX CORP",Main,,,,,,,0,0,0,"0000-00-00 00:00:00"
19353,RAUL,CRUZ,B,,9228620324,cruzrb@bpi.com.ph,"SECTION HEAD",,0,"BPI FOREX CORP.","BPI FOREX CORP",Main,,,,,,,0,0,0,"0000-00-00 00:00:00"
24103,REENA,RIVERA,L,,9466142100,rlrivera@bpi.com.ph,DEALER,,,"BPI FOREX CORP.","BPI FOREX CORP",Main,,,,,,,0,0,0,"0000-00-00 00:00:00"
