id,first_name,last_name,middle_initial,gender,mobile_no,email,position,employee_no,blood_type,company,department,address_street,address_line_2,address_city,address_state,address_country,address_zip_code,is_supervisor,is_rescuer,supervisor_id
6394,"ALEBETH LIBRA","DE LA CALZADA",L,M,9175918110,delacalzadaall@volkswagen.com.ph,"FINANCE ANALYST",,0,ACEI-VOLKSWAGEN,Finance,"25 Adler St., Filinvest II homes, Brgy. Batasan, Quezon City 1126",,,,Philippines,,0,0,0
6424,ALFREDO,PELONIO,S,M,9497831086,alfredo.pelonio@idi.ph,"Senior Technician",,0,ACEI-VOLKSWAGEN,"After Sales","5090 Blk 19 Lot 5 Simon S., Exodus Floodway Brgy. San Juan Cainta Rizal 1900",,,,Philippines,,0,0,0
6451,"ALLAN CHRISTOPHER",CARAMIHAN,N,M,9156320289,ace.caramihan@idi.ph,"Sales Consultant",,0,ACEI-VOLKSWAGEN,Sales,"102 Tinad Pass, Ph7 Blk7 Lot18 Pacita Complex I, San Pedro, Laguna City 4023",,,,Philippines,,0,0,0
6472,ALVIN,TONILON,C,M,9176229615,al.tonilon@idi.ph,"Sales Consultant",,0,ACEI-VOLKSWAGEN,"Vehicle Sales","115-B LOREGA STREET, CEBU CITY, CEBU 6000",,,,Philippines,,0,0,0
6406,"ALWIN ANTHONY",MORENO,A,M,9176232839,alwin.moreno@volkswagen.com.ph,"LOGISTICS OFFICER",,0,ACEI-VOLKSWAGEN,"PRODUCT STRATEGY & PLANNING","19 Tuesday St., Ph7-A Pacita Complex, San Pedro, Laguna 4023",,,,Philippines,,0,0,0
6429,"AMIRA NICKOLE",DOLENDO,A,M,9278961492,customerrelations.bgc@idi.ph,"Customer Relations Assistant/Exe",,0,ACEI-VOLKSWAGEN,"Customer Relations","9151-B Catmon St. San Antonio Village, Makati City 1203",,,,Philippines,,0,0,0
6414,"ANDROS ALONZO",VILLARAZA,F,M,9178047541,andros.villaraza@volkswagen.com.ph,"FLEET/SPECIAL SALES MANAGER",,0,ACEI-VOLKSWAGEN,"SALES/NETWORK DEVELOPMENT","183 Apitong St., Ayala Alabang Village, Muntinlupa City 1780",,,,Philippines,,0,0,0
6410,"ANGELINE JAZ",ARCE,B,M,9266230375,jaz.arce@volkswagen.com.ph,"SALES ADMIN ASSISTANT",,0,ACEI-VOLKSWAGEN,"PRODUCT STRATEGY & PLANNING","188A General Luna St., Caloocan City 1400",,,,Philippines,,0,0,0
6389,ANGELO,CAFÉ,L,M,9173126408,angel.cafe@volkswagen.com.ph,"WAREHOUSE OFFICER",,0,ACEI-VOLKSWAGEN,AFTERSALES,"Purok 2, Recahuerta St., Blk 53 Lot 9, Upper Bicutan, Taguig City 1633",,,,Philippines,,0,0,0
6470,"ARGEL LORENCE",TOLENTINO," ",M,9173124135,argel.tolentino@idi.ph,"Sales Consultant",,0,ACEI-VOLKSWAGEN,Sales,"921 Vicente Cruz, Sampaloc, Manila 1008",,,,Philippines,,0,0,0
6447,ARMANDO,BAUTISTA," ",M,9157110344,ltoadmin.bgc@idi.ph,"LTO Admin Assistant",,0,ACEI-VOLKSWAGEN,Sales,"42-B Pelaez St. Project 4, Quezon City 1109",,,,Philippines,,0,0,0
6397,ARNELIO,DORIA,D,M,9178389079,arnel.doria@volkswagen.com.ph,"CORPORATE AFFAIRS DIRECTOR",,0,ACEI-VOLKSWAGEN,"CORPORATE AFFAIRS","201 Valle Verde Terraces Meralco Ave., Pasig City 1605",,,,Philippines,,0,0,0
6411,ARTURO,BRIONES,C,M,9178694904,arturo.briones@volkswagen.com.ph,"LOGISTICS MANAGER",,0,ACEI-VOLKSWAGEN,"PRODUCT STRATEGY & PLANNING","#287 Bigaa Cabuyao Laguna 4025",,,,Philippines,,0,0,0
6443,"BEVY JOANNE",WEE,G,M,9178742088,bevy.wee@idi.ph,"HR Assistant",,0,ACEI-VOLKSWAGEN,"Human Resources","Goldhill Tower, #5 Annapolis St. Greenhills San Juan City 1504",,,,Philippines,,0,0,0
6479,BOGART,MAHILUM,O,M,9423532688,warrantyadmin.cebu@idi.ph,"Warranty Processor",,0,ACEI-VOLKSWAGEN,AFTERSALES,"Sitio Son Oc, Lower Nivel Hills, Lahug, Cebu City 6000",,,,Philippines,,0,0,0
6477,BRICALYN,ROSELL,R,M,9255015342,salesadmin.cebu@idi.ph,"Sales Admin Assistant",,0,ACEI-VOLKSWAGEN,"Vehicle Sales","M. Ceniza St., Calderohan, Maguikay, Mandaue City 6014",,,,Philippines,,0,0,0
6439,"BRIDGETTE LYN",MOLINA,R,M,9175688585,bridgette.molina@idi.ph,"Finance Manager",,0,ACEI-VOLKSWAGEN,Finance,"Carlton 4, Unit 1H California Garden Square, DM Guevarra St., Mandaluyong City 1550",,,,Philippines,,0,0,0
6386,"CAMILLE IDA",CORTEZ,R,M,9278614263,ida.cortez@volkswagen.com.ph,"PARTS ADMIN ASSISTANT",,0,ACEI-VOLKSWAGEN,AFTERSALES,"64 Esteban Abada St., Loyola Heights, Quezon City 1108",,,,Philippines,,0,0,0
6404,CAROLYN,ABEDANIA,A,M,9178548626,carol.abedania@volkswagen.com.ph,"DIGITAL MARKETING SPECIALIST",,0,ACEI-VOLKSWAGEN,Marketing,"Blk. 3 Lot 8 Denmark St., La Brezza Subdivision Pantoc, Meycauayan City, Bulacan 3020",,,,Philippines,,0,0,0
6422,CARRIE,JAO,B,M,9054170698,carrie.jao@idi.ph,"Body Repair Assistant",,0,ACEI-VOLKSWAGEN,"After Sales","D-14 Lot Dama De Noche St. Zone 9, Pembo, Makati City 1218",,,,Philippines,,0,0,0
6466,CATHERINE,REGIDOR," ",M,9163887178,cath.regidor@idi.ph,"Sales Consultant",,0,ACEI-VOLKSWAGEN,Sales,"25 Narra St. Veraville Homes 2 Sucat, Parañaque City 1700",,,,Philippines,,0,0,0
6475,"CHENNE ROSE",PESIAO,A,M,9227698687,customerrelations.cebu@idi.ph,"MARKETING SERVICES & CUSTOMER RE",,0,ACEI-VOLKSWAGEN,"Marketing Services & Customer Relations","Sitio Kawayan, R. Duterte St., Banawa, Guadalupe, Cebu City 6000",,,,Philippines,,0,0,0
6431,"CHERRY MAY",MORENO,S,M,9266443131,may.moreno@idi.ph,"Marketing Services/Customer Rela",,0,ACEI-VOLKSWAGEN,"Customer Relations","13A JP Rizal Ext., Comembo, Makati City 1217",,,,Philippines,,0,0,0
6444,CHRISTINE,DONATO,D,M,9178514704,tin.donato@idi.ph,"Branch Manager",,0,ACEI-VOLKSWAGEN,OBM,"161 4th St., Riverside Village, Ortigas Extension, Pasig City 1605",,,,Philippines,,0,0,0
6442,CRISANTO,SANTOS," ",M,9328633070,bfavehgen.qa@idi.ph,"Branch Finance Assistant (C&C)",,0,ACEI-VOLKSWAGEN,Finance,"Blk 1-B Lot 6 Moses St. Cielito Homes, Brgy. Camarin, Caloocan City 1400",,,,Philippines,,0,0,0
6446,CRYSTALLINE,AMBROCIO,O,M,9436168280,crystalline.ambrocio@idi.ph,"Sales Consultant",,0,ACEI-VOLKSWAGEN,Sales,"Type C NBP Reservation, Poblacion Muntinlupa City 1776",,,,Philippines,,0,0,0
6433,"DOLLY ANN",VALENZUELA,A,M,9175111804,dolly.valenzuela@idi.ph,"Marketing Services Assistant",,0,ACEI-VOLKSWAGEN,"Customer Relations","#30 Rev. Garcia St., Project 4, Quezon City 1109",,,,Philippines,,0,0,0
6417,EMIL,BOLANTE,L,M,9435211852,emil.bolante@idi.ph,Technician,,0,ACEI-VOLKSWAGEN,"After Sales","58 Harvard St. Greenview Executive Village, West Fairview, Quezon City 1118",,,,Philippines,,0,0,0
6457,ERUBEN,JUNIO,C,M,9162273351,erubz.junio@idi.ph,"Sales Consultant",,0,ACEI-VOLKSWAGEN,Sales,"P-55-15-15th St. Villamor Air Base, Pasay City 1309",,,,Philippines,,0,0,0
6481,"FARRAH JEAN",CALUMBA,A,M,9094904817,bfacash.cebu@idi.ph,"BRANCH FINANCE ASSISTANT - CASHI",,0,ACEI-VOLKSWAGEN,"Finance and Admin","Sitio Kahuyan, Alaska, Mambaling, Cebu City 6000",,,,Philippines,,0,0,0
6435,FRANKLIN,AGULTO,E,M,9273010759,franklin.agulto@idi.ph,"Finance Manager",,0,ACEI-VOLKSWAGEN,Finance,"54 Chico St. Project 2, Quezon City 1102",,,,Philippines,,0,0,0
6405,"FRANZ HENRI",DECLOEDT,L,M,9175457322,franz.decloedt@volkswagen.com.ph,"MARKETING DIRECTOR",,0,ACEI-VOLKSWAGEN,Marketing,"AB 110 Galeria de Magallanes, Lapu-Lapu St., Makati City 1232",,,,Philippines,,0,0,0
6419,GENER,CLEOFE,L,M,9436857287,parts.bgc@idi.ph,"Tools and Materials Controller",,0,ACEI-VOLKSWAGEN,"After Sales","1471 Lolo Ambo St., Villa Alfonso CMPD, Brgy. Bambang, Pasig City 1600",,,,Philippines,,0,0,0
6398,GERALDINE,GILERA,A,M,9178066021,gie.gilera@volkswagen.com.ph,"COMMUNICATIONS AND CRM MANAGER",,0,ACEI-VOLKSWAGEN,Marketing,"29 Narra Road, Pilar Village, Las Piñas City 1740",,,,Philippines,,0,0,0
6420,GERWIN,CORPUZ,B,M,9232557245,gerwin.corpuz@idi.ph,Technician,,0,ACEI-VOLKSWAGEN,"After Sales","Blk 8 Lot 8 Sitio Tanza 11, Brgy. San Jose, Antipolo City 1870",,,,Philippines,,0,0,0
6450,GODFREY,CADAY,P,M,9269788314,frey.caday@idi.ph,"Sales Assistant",,0,ACEI-VOLKSWAGEN,Sales,"3264 Kagalakan Rd. Karangalan Village, Manggahan, Pasig City 1611",,,,Philippines,,0,0,0
6484,"JAN MARC",POLO,R,M,9437075395,jan.polo@idi.ph,"SERVICE ADVISOR",,0,ACEI-VOLKSWAGEN,AFTERSALES,"Villa Gonzalo 2, Mj Cuenco, Cebu City 6000",,,,Philippines,,0,0,0
6469,"JAY VINCENT",SEBIAL," ",M,9175190723,jv.sebial@idi.ph,"Sales Consultant",,0,ACEI-VOLKSWAGEN,Sales,"#36 Sampaguita St., RGV Homes, Sucat, Parañaque City 1700",,,,Philippines,,0,0,0
6452,JENELYN,CO," ",M,9174643867,salesadmin.qa@idi.ph,"Sales Admin Assistant",,0,ACEI-VOLKSWAGEN,Sales,"170 C. Cordero St. 10th Avenue, Grace Park West, Caloocan City 1406",,,,Philippines,,0,0,0
6486,JIEFEBOY,ALASAAS,S,M,9053873690,jay.alasaas@idi.ph,"SALES CONSULTANT",,0,ACEI-VOLKSWAGEN,"Vehicle Sales","#1 St. John Road, Sacred Heart Village, Banawa, Cebu City  6000",,,,Philippines,,0,0,0
6409,JOANNA,MORALDE,G,M,9324856346,joan.moralde@volkswagen.com.ph,"IMPORTATION SPECIALIST",,0,ACEI-VOLKSWAGEN,"PRODUCT STRATEGY & PLANNING","138 AR. Cruz St., Navotas City 1485",,,,Philippines,,0,0,0
6423,"JOANNA APRILLE",OBESO,A,M,9067493380,serviceadmin.gdsc@idi.ph,"Service Admin Assistant",,0,ACEI-VOLKSWAGEN,"After Sales","Blk 25 Lot 16 Sampaguita St., TS Cruz Subd., Las Piñas City 1751",,,,Philippines,,0,0,0
6415,"JOHN JEFFREY",DAHLEN,S,M,9178344896,john.dahlen@volkswagen.com.ph,"SALES TRAINING MANAGER",,0,ACEI-VOLKSWAGEN,"SALES/NETWORK DEVELOPMENT","U-905 Emar Suites, Shaw Blvd., Mandaluyong City 1552",,,,Philippines,,0,0,0
6468,JOJO,RONQUILLO,M,M,9177797787,salesadmin.bgc@idi.ph,"Sales Admin Assistant",,0,ACEI-VOLKSWAGEN,Sales,"184 Kalantian St. Project 4, Quezon City 1109",,,,Philippines,,0,0,0
6473,JONALYN,LUMAYAG,L,M,9321952208,bfavehgen.cebu@idi.ph,"BRANCH FINANCE ASSISTANT - GENER",,0,ACEI-VOLKSWAGEN,"Finance and Admin","154 Gabuya St., Cogon, Pardo, Cebu City 6000",,,,Philippines,,0,0,0
6388,"JONATHAN MANFRED",JOSE,C,M,9178176068,nathan.jose@volkswagen.com.ph,"FIELD SERVICE REPRESENTATIVE",,0,ACEI-VOLKSWAGEN,AFTERSALES,"205 Miguelin St., Sampaloc, Manila 1008",,,,Philippines,,0,0,0
6454,"JOSE IV",EUSTAQUIO," ",M,9175283230,jojo.eustaquio@idi.ph,"General Sales Manager",,0,ACEI-VOLKSWAGEN,Sales,"234 Calatagan St., Ayala Alabang Village, Muntinlupa City 1780",,,,Philippines,,0,0,0
6462,"JOSEMARIA RAFAEL",MONTEMAYOR,C,M,9178263923,jr.montemayor@idi.ph,"Sales Consultant",,0,ACEI-VOLKSWAGEN,Sales,"#33 Canberra BF Homes, Parañaque City 1740",,,,Philippines,,0,0,0
6478,JOSEPH,GODINEZ,A,M,9231670554,parts.cebu@idi.ph,"Parts Admin Assistant",,0,ACEI-VOLKSWAGEN,AFTERSALES,"647 Osmeña St., Lapu-lapu City, Cebu 6015",,,,Philippines,,0,0,0
6437,JOSETTE,FACTORA," ",M,9328630625,bfacash.qa@idi.ph,"Branch Finance Assistant (Treasu",,0,ACEI-VOLKSWAGEN,Finance,"Blk 49 Lot 1, Bryant St., Fairmont Subd., Fairview, Quezon City 1118",,,,Philippines,,0,0,0
6408,"JOSHUA BENJAMIN",ALTAREJOS,R,M,9173046573,josh.altarejos@volkswagen.com.ph,"MARKET AND PRODUCT PLANNING HEAD",,0,ACEI-VOLKSWAGEN,"PRODUCT STRATEGY & PLANNING","4028 Magnolia St. Sun Valley Subd., Parañaque City 1700",,,,Philippines,,0,0,0
6427,"JOSHUA JOHN",NAGASAO," ",M,9163246943,warrantyadmin.gdsc@idi.ph,"Warranty Processor / Production ",,0,ACEI-VOLKSWAGEN,"After Sales","10 President Quirino St. Zone 6 Signal Village, Taguig City 1632",,,,Philippines,,0,0,0
6426,"JULIANO JR.",RELOJ," ",M,9176396791,jhay.reloj@idi.ph,"Workshop Supervisor",,0,ACEI-VOLKSWAGEN,"After Sales","AFP-E.P Housing Phase 2 Blk 7 Lot 41 Barangay Pinagsama Taguig City 1630",,,,Philippines,,0,0,0
6471,"KAREN FRIDA",TUMANDAO,B,M,9178581462,karen.tumandao@idi.ph,"Sales Manager",,0,ACEI-VOLKSWAGEN,Sales,"L1 Zamia St. Brgy. San Juan Greenland, Cainta, Rizal 1900",,,,Philippines,,0,0,0
6487,KAULAYAW,CASIO,C,M,9175095155,yaw.casio@idi.ph,"FINANCE MANAGER",,0,ACEI-VOLKSWAGEN,"Finance and Admin","City Homes, Espina Village, B. Rodriquez St., Cebu City 6000",,,,Philippines,,0,0,0
6396,"KAYLA MARIE",CARAGAN,D,M,9162190009,recruitment@volkswagen.com.ph,"HR ASSISTANT",,0,ACEI-VOLKSWAGEN,HR,"1862 S.H. Loyola St. Sampaloc, Manila 1008",,,,Philippines,,0,0,0
6455,"KEVIN LESTER",GOROSPE," ",M,9163047392,kevin.gorospe@idi.ph,"Sales Consultant",,0,ACEI-VOLKSWAGEN,Sales,"BF Resort Village, Las Piñas City 1740",,,,Philippines,,0,0,0
6438,"KRISMA REMEDIOS",MAGNAYE,P,M,9165874614,bfaservice.bgc@idi.ph,"Branch Finance Assistant (Billin",,0,ACEI-VOLKSWAGEN,Finance,"1718 Diamante St., San Andres Bukid, Manila 1017",,,,Philippines,,0,0,0
6467,"KRISTIN MARIE",REYES," ",M,9178011113,kristin.reyes@idi.ph,"Sales Manager",,0,ACEI-VOLKSWAGEN,Sales,"14 Kalipayan Homes, Don Jesus Blvd, Alabang Hills, Muntinlupa City 1770",,,,Philippines,,0,0,0
6476,"KRISTOFFER ACE",CAPUNO,V,M,9179005745,kris.capuno@idi.ph,"Sales Consultant",,0,ACEI-VOLKSWAGEN,"Vehicle Sales","258 - I Jones Ave., Cebu City 6000",,,,Philippines,,0,0,0
6441,LORENA,RESURRECCION," ",M,9175771123,lorena.resurreccion@idi.ph,"Finance Officer",,0,ACEI-VOLKSWAGEN,Finance,"171 Buck Estate Alfonso Cavite 4123",,,,Philippines,,0,0,0
6393,"MA. CHARISMA",ALVENDIA,D,M,9325233672,finance@volkswagen.com.ph,ACCOUNTANT,,0,ACEI-VOLKSWAGEN,Finance,"B4 L26 Tiosejo Subd., Tunasan Muntinlupa City 1773",,,,Philippines,,0,0,0
6395,"MA. CHRISTINA JOY",RONCAL,L,M,9178050377,cj.roncal@volkswagen.com.ph,"HR MANAGER",,0,ACEI-VOLKSWAGEN,HR,"Congressional Avenue, Project 8, Quezon City 1106",,,,Philippines,,0,0,0
6428,"MA. ROCHELLE",ARIAS,A,M,9175050266,rochelle.arias@idi.ph,"Marketing Services/Customer Rela",,0,ACEI-VOLKSWAGEN,"Customer Relations","45 Ave Maria St. Silangan II Rosario, Cavite 4106",,,,Philippines,,0,0,0
6382,MANOLO,HONTIVEROS,C,M,9051374079,noli.hontiveros@volkswagen.com.ph,"PARTS OPERATIONS MANAGER",,0,ACEI-VOLKSWAGEN,AFTERSALES,"83 R Hernandez St., San Joaquin, Pasig City 1602",,,,Philippines,,0,0,0
6392,"MARIA BELEN",CLEOFAS,M,M,9177932616,maribe.cleofas@volkswagen.com.ph,"FINANCE MANAGER",,0,ACEI-VOLKSWAGEN,Finance,"B5 L21 Citiplaza 3, Brgy. Talipapa, Tandang Sora Ave., Quezon City 1116",,,,Philippines,,0,0,0
6391,"MARIA BELINDA",RAMOS,U,M,9178534913,bel.ramos@volkswagen.com.ph,"FINANCE DIRECTOR",,0,ACEI-VOLKSWAGEN,Finance,"8 Iba St. Ayala Westgrove Heights, Silang Cavite 4118",,,,Philippines,,0,0,0
6403,"MARIA FATIMA","DE LEON",N,M,9175542973,timmy.deleon@volkswagen.com.ph,"PR AND EVENTS HEAD",,0,ACEI-VOLKSWAGEN,Marketing,"Block 11 Lot 20, Alberto St., Mondo Bambini, Mamplasan Binan Laguna 4024",,,,Philippines,,0,0,0
6413,"MARIA VICTORIA",SOLIS,C,M,9178246284,mavic.solis@volkswagen.com.ph,"SALES ADMIN ASSISTANT",,0,ACEI-VOLKSWAGEN,"SALES/NETWORK DEVELOPMENT","27 CRM Aurora St., BF Homes, Almanza, Las Piñas City 1750",,,,Philippines,,0,0,0
6402,MARICRIS,BRAVANTE,M,M,9175481228,macro.bravante@volkswagen.com.ph,"CRM SPECIALIST",,0,ACEI-VOLKSWAGEN,Marketing,"B3 L15 Aberdeen St. Phase IV-D Vermont Park Exec. Village, Marcos Highway, Antipolo City 1870",,,,Philippines,,0,0,0
6399,"MARIE JEWELA",BORROMEO,B,M,9178047354,je.borromeo@volkswagen.com.ph,"CSR AND SPECIAL PROJECTS MANAGER",,0,ACEI-VOLKSWAGEN,Marketing,"Fennel 417, Cedar Crest, Acacia Estates, Taguig City 1634",,,,Philippines,,0,0,0
6482,MARIJON,CASTILLO,P,M,9177146553,marijon.castillo@idi.ph,"Sales Consultant",,0,ACEI-VOLKSWAGEN,"Vehicle Sales","616 Mother of Perpetual Help, Hipodromo, Cebu City 6000",,,,Philippines,,0,0,0
6480,"MARIO JR.",MACAIRAN,V,M,9333769616,control.cebu@idi.ph,"Production Control Assistant",,0,ACEI-VOLKSWAGEN,AFTERSALES,"Arcenas St., Sitio Culo, Labangon, Cebu City 6000",,,,Philippines,,0,0,0
6418,"MARK ANTHONY",CAMPOS,R,M,9065138472,mark.campos@idi.ph,"Service Advisor",,0,ACEI-VOLKSWAGEN,"After Sales","Blk 1 Lot 9 San Sebastian St. San Dionisio Village, United Village, Parañque City 1713",,,,Philippines,,0,0,0
6436,"MARY GRACE",ASCAÑO,V,M,9198688326,bfacash.bgc@idi.ph,"Branch Finance Assistant (Treasu",,0,ACEI-VOLKSWAGEN,Finance,"323 Valencia St., Sta Mesa, Manila 1016",,,,Philippines,,0,0,0
6461,"MAURICE MIGUEL",MANUEL,P,M,9177336972,miguel.manuel@idi.ph,"Sales Consultant",,0,ACEI-VOLKSWAGEN,Sales,"20B Wisdom St. Carmel 1 Project 6, Quezon City 1100",,,,Philippines,,0,0,0
6485,MAXILO,GUINITA,M,M,9212604171,maxilo.guinita@idi.ph,"SENIOR TECHNICIAN",,0,ACEI-VOLKSWAGEN,AFTERSALES,"Sitio Baas San Vicente Yati, Liloan, Cebu City, Cebu 6000",,,,Philippines,,0,0,0
6412,"MAXIMO ISAGANI",BAYBAY,O,M,9178140178,gani.baybay@volkswagen.com.ph,"DEALER DEVELOPMENT MANAGER",,0,ACEI-VOLKSWAGEN,"SALES/NETWORK DEVELOPMENT","6-O McKinley Park Residences, 3rd corner 31st Streets, BGC Taguig 1634",,,,Philippines,,0,0,0
6425,"MICKLE PAUL",PEÑA,S,M,9425638059,paul.pena@idi.ph,Technician,,0,ACEI-VOLKSWAGEN,"After Sales","Blk 19 Lot 22, Liwayway Homes Subd., Anabu 1-C, Imus, Cavite 4103",,,,Philippines,,0,0,0
6434,MYLENE,ACEBO,M,M,9178157235,bfavehgen.bgc@idi.ph,"Branch Finance Assistant (Billin",,0,ACEI-VOLKSWAGEN,Finance,"22 CM Recto St., Parang, Marikina 1809",,,,Philippines,,0,0,0
6390,NANCY,URBANO,V,M,9228872924,nancy.urbano@volkswagen.com.ph,"ACCOUNTANT/FINANCE SPECIALIST",,0,ACEI-VOLKSWAGEN,Finance,"7C Itaas, Gloria 2 Subd., Tandang Sora, Quezon City 1116",,,,Philippines,,0,0,0
6445,"NEMESIO JR.",SOLOMON,C,M,9178544329,tito.solomon@idi.ph,"General Manager",,0,ACEI-VOLKSWAGEN,OGM,"Unit 308 South Tower, South of Market Condominium, 26th St. corner 11th Ave. Bonifacio Global City, Taguig 1634",,,,Philippines,,0,0,0
6474,NOLI,TIMOGAN,S,M,9175617087,noli.timogan@idi.ph,"SERVICE AND PARTS MANAGER",,0,ACEI-VOLKSWAGEN,AFTERSALES,"8-B First St., Mountain View Village, Quiot, Cebu City 6000",,,,Philippines,,0,0,0
6460,"PATRICK LORENZ",LOPEZ," ",M,9275590026,patrick.lopez@idi.ph,"Sales Consultant",,0,ACEI-VOLKSWAGEN,Sales,"201C Bonaventure Garden Homes Osmeña St. Makati City 1208",,,,Philippines,,0,0,0
6401,PAULINE,GONZALES,D,M,9178455411,pauline.gonzales@volkswagen.com.ph,"BRAND EVENTS AND EXHIBITIONS SPE",,0,ACEI-VOLKSWAGEN,Marketing,"29 Ghana St., Betterliving Subd., Parañaque City 1711",,,,Philippines,,0,0,0
6421,PAULO,CUYCO,C,M,9228466145,parts.gdsc@idi.ph,"Parts Assistant (Warehouseman)",,0,ACEI-VOLKSWAGEN,"After Sales","Barangay 649 Block 17-A Baseco Compound Port Area, Manila 1018",,,,Philippines,,0,0,0
6407,"RAFAEL LORENZO",REALIZAN,R,M,9175615748,raffy.realizan@volkswagen.com.ph,"PRODUCT PLANNING ANALYST",,0,ACEI-VOLKSWAGEN,"PRODUCT STRATEGY & PLANNING","6A Marigold Road, Pilar Village, Las Piñas City 1740",,,,Philippines,,0,0,0
6459,"RAIMUND GABRIEL",LLANA,B,M,9054253690,raimund.llana@idi.ph,"Sales Consultant",,0,ACEI-VOLKSWAGEN,Sales,"Unit 503 La Maison Building, Rada St. Legazpi Village, Makati City 1229",,,,Philippines,,0,0,0
6387,RAMIL,CLEDERA,P,M,9175298987,ramil.cledera@volkswagen.com.ph,"TECHNICAL TRAINING OFFICER",,0,ACEI-VOLKSWAGEN,AFTERSALES,"6e Detroit St., Pinagkaisahan, Cubao, Quezon City 1109",,,,Philippines,,0,0,0
6464,RAMIL,RAMOS,S,M,9178223272,ramil.ramos@idi.ph,"Senior Sales Consultant",,0,ACEI-VOLKSWAGEN,Sales,"11 Ambil St. Tierra Nueva Village, Cupang, Muntinlupa City 1771",,,,Philippines,,0,0,0
6384,RANDY,LIM,C,M,9178161784,randy.lim@volkswagen.com.ph,"PRODUCT SUPPORT ANALYST",,0,ACEI-VOLKSWAGEN,AFTERSALES,"19B Kasaysayan St., Batasan Hills, Quezon City 1126",,,,Philippines,,0,0,0
6416,"REDENTOR JR.",CAJAYON,Q,M,9178636067,jun.cajayon@volkswagen.com.ph,"SALES DEPARTMENT HEAD",,0,ACEI-VOLKSWAGEN,"SALES/NETWORK DEVELOPMENT","Unit 14 Stella Maris Villas, 5 Kamagon St., Maybunga, Pasig City 1607",,,,Philippines,,0,0,0
6381,REGINALD,SEE,G,M,9178534109,reggie.see@volkswagen.com.ph,"AFTERSALES DIRECTOR",,0,ACEI-VOLKSWAGEN,AFTERSALES,"B15 L11, 26 MARIPOSA LOOP, VERDANA HOMES, BACOOR CAVITE 4102",,,,Philippines,,0,0,0
6488,RENATO,DUMARAOS,R,M,9178675734,ren.dumaraos@idi.ph,"BRANCH MANAGER",,0,ACEI-VOLKSWAGEN,OBM,"20A Fulton St., Brgy. Apas, Cebu City 6000",,,,Philippines,,0,0,0
6449,"RENZ OLIVER",BIASON,V,M,9177168361,renz.biason@idi.ph,"Sales Consultant",,0,ACEI-VOLKSWAGEN,Sales,"146 M.L. Quezon, Hagonoy, Taguig City 1630",,,,Philippines,,0,0,0
6383,REYMUNDO,SANTOS,C,M,9175324903,rey.santos@volkswagen.com.ph,"SERVICE OPERATIONS MANAGER",,0,ACEI-VOLKSWAGEN,AFTERSALES,"B19 LOT 6 Brgy San Vicente, Rosario Complex, San Pedro Laguna 4023",,,,Philippines,,0,0,0
6453,"ROBERTO JR.",DOSALLA,R,M,9178774337,robert.dosallajr@idi.ph,"Sales Consultant",,0,ACEI-VOLKSWAGEN,Sales,"293 Padre Lupo St. Breezy Subdivision, Dela Paz Pasig City 1600",,,,Philippines,,0,0,0
6440,"RONA MAE",MORENO," ",M,9423685152,bfaservice.gdsc@idi.ph,"Branch Finance Assistant (C&C)",,0,ACEI-VOLKSWAGEN,Finance,"306 Princeton Sa. Bldg., C. Raymundo Ave., Pasig City 1600",,,,Philippines,,0,0,0
6463,RONALYN,RAGANDANG,A,M,9178217951,ronalyn.raganda@idi.ph,"Sales Consultant",,0,ACEI-VOLKSWAGEN,Sales,"Blk 8 Lot 2 Kalantas St. Amparo Subdivision, Brgy. 179 North Caloocan City 1400",,,,Philippines,,0,0,0
6385,RUMER,GAGARIN,A,M,9321846333,rumer.gagarin@volkswagen.com.ph,"PARTS ANALYST",,0,ACEI-VOLKSWAGEN,AFTERSALES,"158b, MH Del Pilar, Pinagbuhatan, Pasig City 1602",,,,Philippines,,0,0,0
6448,RYAN,BERMUDEZ,V,M,9175280402,ryan.bermudez@idi.ph,"Sales Manager",,0,ACEI-VOLKSWAGEN,Sales,"33 Glaodiola St., Rainbow 3, Almanza, Las Piñas 1750",,,,Philippines,,0,0,0
6465,SERLISA,REAL," ",M,9175918889,lisa.real@idi.ph,"Sales Admin Officer",,0,ACEI-VOLKSWAGEN,Sales,"446-A MF Jocson St., Sampoloc, Manila 1008",,,,Philippines,,0,0,0
6432,"TAFLINE ERIKA",TENEDERO," ",M,9155013113,apple.tenedero@idi.ph,"Marketing Services Assistant",,0,ACEI-VOLKSWAGEN,"Customer Relations","165 N. Cuevas St. Brgy. Kalawaan, Pasig City  1600",,,,Philippines,,0,0,0
6456,THEA,JAQUE,D,M,9983550590,thea.jaque@idi.ph,"Sales Consultant",,0,ACEI-VOLKSWAGEN,Sales,"Block 4, Lot 9 Glen C Savannah Oton, Iloilo City 5020",,,,Philippines,,0,0,0
6458,"TIMOTHY PAOLO",LEDESMA,N,M,9172482218,paolo.ledesma@idi.ph,"Sales Consultant",,0,ACEI-VOLKSWAGEN,Sales,"334-C Quintos St. Sampaloc, Manila 1008",,,,Philippines,,0,0,0
6483,VESTER,TUDTUD,A,M,9333163990,vest.tudtud@idi.ph,"SALES CONSULTANT",,0,ACEI-VOLKSWAGEN,"Vehicle Sales","JS Alinsug St., Basak, Mandaue City 6014",,,,Philippines,,0,0,0
6400,"VICTORIA YSABEL FLORENCIA",GALVEZ,D,M,9175218244,toycy.galvez@volkswagen.com.ph,"ADS AND PROMO ASSISTANT",,0,ACEI-VOLKSWAGEN,Marketing,"1270 General Luna St., Ermita Manila 1000",,,,Philippines,,0,0,0
6430,"ZIDDHARTHA ZHAJIDDAH ZAVANNAH",JAPZON," ",M,9395482587,customerrelations.gdsc@idi.ph,"Marketing Services/Customer Rela",,0,ACEI-VOLKSWAGEN,"Customer Relations","102 km Barangay Lagalag, Tiaong, Quezon Province 4325",,,,Philippines,,0,0,0
