id,first_name,last_name,middle_initial,gender,mobile_no,email,position,employee_no,blood_type,company,department,address_street,address_line_2,address_city,address_state,address_country,address_zip_code,is_supervisor,is_rescuer,supervisor_id
8274,Adrian,Apoderado,A,,9178752947,apoderado.adrian@mdc.com.ph,"CBP Operations Officer",,,"MDC Conqrete Inc","Production & Dispatch",,,,,Philippines,,1,0,8284
8279,Edwin,"Lawas Jr.",B,,9178752944,lawas.edwin@mdc.com.ph,"EHS Officer",,,"MDC Conqrete Inc",EHS,,,,,Philippines,,0,0,0
8276,Felipe,Basilan,A,,9175513431,basilan.felipe@mdc.com.ph,"QC Supervisor",,,"MDC Conqrete Inc","Production & Dispatch",,,,,Philippines,,0,0,0
8284,"Higino Miguel","Olino IV",C,,9165630668,olino.miguel@mdc.com.ph,"CBP Manager",,,"MDC Conqrete Inc","Production & Dispatch",,,,,Philippines,,1,0,0
8278,Jerome,Joson,B,,9178541160,joson.jerome@mdc.com.ph,"Precast Plant Manager",,,"MDC Conqrete Inc",Precast,,,,,Philippines,,0,0,0
8281,Jessie,Magaling,R,,9175725931,magaling.jessie@mdc.com.ph,"Precast Plant Officer",,,"MDC Conqrete Inc",Precast,,,,,Philippines,,0,0,0
8275,"John Bernard",Ayad,B,,9175875947,ayad.john@mdc.com.ph,"Plant Supervisor",,,"MDC Conqrete Inc","Production & Dispatch",,,,,Philippines,,0,0,8284
8277,"Ma Ivy",Cataya,C,,9178261738,cataya.ivy@mdc.com.ph,"Administrative Officer",,,"MDC Conqrete Inc","Project HR",,,,,Philippines,,0,0,0
8280,Marinor,Leonidas,T,,9175652642,leonidas.marinor@mdc.com.ph,"Sr. Quantity Surveyor",,,"MDC Conqrete Inc",QS,,,,,Philippines,,0,0,0
8282,"Mark Angelo",Mallannao,B,,9178752928,mallannao.mark@mdc.com.ph,"Plant Supervisor",,,"MDC Conqrete Inc","Production & Dispatch",,,,,Philippines,,1,0,8284
8283,"Mary Rose",Maramag,L,,9175611637,maramag.bambie@mdc.com.ph,"Project Controller",,,"MDC Conqrete Inc",Finance,,,,,Philippines,,0,0,0
8286,"Philip Christopher",Sangalang,B,,9159900660,sangalang.philip@mdc.com.ph,"Assistant Project Controller",,,"MDC Conqrete Inc",Finance,,,,,Philippines,,0,0,0
8285,Renee,Panganiban,C,,9178693512,panganiban.renee@mdc.com.ph,"Asset Management Supervisor",,,"MDC Conqrete Inc","Asset Management",,,,,Philippines,,0,0,0
