id,first_name,last_name,middle_initial,gender,mobile_no,email,position,employee_no,blood_type,company,department,site,address_street,address_line_2,address_city,address_state,address_country,address_zip_code,is_supervisor,is_rescuer,supervisor_id,date_registered
18464,"ANTON VAN RUNDGREN",BUENVIAJE,S,,9174641696,asbuenviaje@bpi.com.ph,"OPERATIONS STAFF",,,"BPI DIRECT SAVINGS BANK INC.","BPID OPERATIONS",Main,,,,,,,0,0,0,"0000-00-00 00:00:00"
22861,"EMELIANA ELISA",NAVARRO,F,,9174745717,efnavarro@bpi.com.ph,"SECTION HEAD",,,"BPI DIRECT SAVINGS BANK INC.","BPID TREASURY",Main,,,,,,,0,0,0,"0000-00-00 00:00:00"
24894,FEDERICO,SULIT,D,,9293263389,fpsulit@bpi.com.ph,"OPERATIONS OFFICER",,,"BPI DIRECT SAVINGS BANK INC.","BPID OPERATIONS",Main,,,,,,,0,0,0,"0000-00-00 00:00:00"
17422,FLORENCE,ALVARADO,O,,9228346191,foalvarado@bpi.com.ph,"SERVICE ASSOCIATE",,,"BPI DIRECT SAVINGS BANK INC.","BPID TREASURY",Main,,,,,,,0,0,0,"0000-00-00 00:00:00"
20644,"FRANCIS DAN",GADDI,C,,9185290437,fdcgaddi@bpi.com.ph,"SENIOR SERVICE ASSOCIATE",,,"BPI DIRECT SAVINGS BANK INC.","BPID OPERATIONS",Main,,,,,,,0,0,0,"0000-00-00 00:00:00"
21277,"GARRET IAN",ISAAC,L,,9272022482,gilisaac@bpi.com.ph,"OPERATIONS OFFICER",,,"BPI DIRECT SAVINGS BANK INC.","BPID OPERATIONS",Main,,,,,,,0,0,0,"0000-00-00 00:00:00"
20131,GISELLE,EBBA,B,,9277622693,gfbajamundi@bpi.com.ph,"SERVICE ASSOCIATE",,,"BPI DIRECT SAVINGS BANK INC.","BPID OPERATIONS",Main,,,,,,,0,0,0,"0000-00-00 00:00:00"
25291,"HERBERT VINCENT",TUASON,D,,9175115380,hdtuason@bpi.com.ph,"DIVISION HEAD",,,"BPI DIRECT SAVINGS BANK INC.","BPID DEPO & LOANS",Main,,,,,,,0,0,0,"0000-00-00 00:00:00"
24480,"J. RICK",SANCHEZ,A,,9172789286,jrasanchez@bpi.com.ph,"SERVICE STAFF",,,"BPI DIRECT SAVINGS BANK INC.","BPID OPERATIONS",Main,,,,,,,0,0,0,"0000-00-00 00:00:00"
21696,"JOEANNE MARIE",LEGASPI-SULIT,M,,9178945286,jmmlegaspi-sulit@bpi.com.ph,"OPERATIONS OFFICER",,,"BPI DIRECT SAVINGS BANK INC.","BPID OPERATIONS",Main,,,,,,,0,0,0,"0000-00-00 00:00:00"
24919,JOYCE,SUR,K,,9083322460,jksur@bpi.com.ph,"SERVICE STAFF",,,"BPI DIRECT SAVINGS BANK INC.","BPID OPERATIONS",Main,,,,,,,0,0,0,"0000-00-00 00:00:00"
24590,JULIET,SANTOS,M,,9178308984,jmsantos@bpi.com.ph,"OPERATIONS OFFICER",,,"BPI DIRECT SAVINGS BANK INC.","BPID OPERATIONS",Main,,,,,,,0,0,0,"0000-00-00 00:00:00"
21838,KATHLEEN,LLORERA,D,,9157954322,kdllorera@bpi.com.ph,"OPERATIONS STAFF",,,"BPI DIRECT SAVINGS BANK INC.","BPID OPERATIONS",Main,,,,,,,0,0,0,"0000-00-00 00:00:00"
23893,MARILOU,RAZON,R,,9189942741,mrrazon@bpi.com.ph,"SUPPORT STAFF",,,"BPI DIRECT SAVINGS BANK INC.","BPID OPERATIONS",Main,,,,,,,0,0,0,"0000-00-00 00:00:00"
20685,MARIZA,GALIVO,C,,9178376541,mgalivo.bpiph@bpi.com.ph,"RISK OFFICER",,,"BPI DIRECT SAVINGS BANK INC.","BPID OPERATIONS",Main,,,,,,,0,0,0,"0000-00-00 00:00:00"
23342,"MARK JERVIN",PARALE,D,,9228021231,parale_jervin@yahoo.com,"SERVICE STAFF",,,"BPI DIRECT SAVINGS BANK INC.","BPID OPERATIONS",Main,,,,,,,0,0,0,"0000-00-00 00:00:00"
22569,MICHELLE,MENOR,B,,9102619105,mbmenor@bpi.com.ph,"SERVICE STAFF",,,"BPI DIRECT SAVINGS BANK INC.","BPID OPERATIONS",Main,,,,,,,0,0,0,"0000-00-00 00:00:00"
24633,MYLENE,SARAZA,L,,9718150013,mlsaraza@bpi.com.ph,"OPERATIONS ASSOCIATE",,,"BPI DIRECT SAVINGS BANK INC.","BPID OPERATIONS",Main,,,,,,,0,0,0,"0000-00-00 00:00:00"
23252,MYRNA,PALMA,P,,9175307790,mppalma@bpi.com.ph,"SERVICE ASSOCIATE",,,"BPI DIRECT SAVINGS BANK INC.","BPID OPERATIONS",Main,,,,,,,0,0,0,"0000-00-00 00:00:00"
24033,NOREEN,REYES,U,,9193525639,nureyes@bpi.com.ph,"SUPPORT OFFICER",,,"BPI DIRECT SAVINGS BANK INC.","BPID TREASURY",Main,,,,,,,0,0,0,"0000-00-00 00:00:00"
18395,"PETER JOHN",BRAGADO,C,,9217199647,pjcbragado@bpi.com.ph,"UNIT HEAD",,,"BPI DIRECT SAVINGS BANK INC.","BPI DIRECT",Main,,,,,,,0,0,0,"0000-00-00 00:00:00"
24966,"RINA RICHELLE",TACCAD,R,,9196288152,rrrtaccad@bpi.com.ph,"SERVICE STAFF",,,"BPI DIRECT SAVINGS BANK INC.","BPID OPERATIONS",Main,,,,,,,0,0,0,"0000-00-00 00:00:00"
20640,RITCHELIEU,GACUSAN,O,,9178090673,rogacusan@bpi.com.ph,"SENIOR OPERATIONS ASSOCIATE",,,"BPI DIRECT SAVINGS BANK INC.","BPID OPERATIONS",Main,,,,,,,0,0,0,"0000-00-00 00:00:00"
23645,ROCHELLE,PORTUGAL,P,,9285054877,rpportugal@bpi.com.ph,"OPERATIONS STAFF",,,"BPI DIRECT SAVINGS BANK INC.","BPID OPERATIONS",Main,,,,,,,0,0,0,"0000-00-00 00:00:00"
