id,first_name,last_name,middle_initial,gender,mobile_no,email,position,employee_no,blood_type,company,department,site,address_street,address_line_2,address_city,address_state,address_country,address_zip_code,is_supervisor,is_rescuer,supervisor_id,date_registered
26594,Abegale,Palaña,NA,,9183175575,abegale.palana@apecschools.edu.ph,"Learning Facilitator",,,APEC,"Teaching Delivery and Support",Main,,,,,,,0,0,0,"0000-00-00 00:00:00"
26522,"Agape Joy",Gepollo,NA,,9173120984,agape.gepollo@apecschools.edu.ph,"Learning Facilitator",,,APEC,"Teaching Delivery and Support",Main,,,,,,,0,0,0,"0000-00-00 00:00:00"
26548,Aileen,Simbajon,NA,,9226900733,aileen.simbajon@apecschools.edu.ph,"School Registrar",,,APEC,"Teaching Delivery and Support",Main,,,,,,,0,0,0,"0000-00-00 00:00:00"
26676,Aissa,Ramos,NA,,9165141780,marie.cerigo@apecschools.edu.ph,"School Administrative Assistant",,,APEC,"School Operations",Main,,,,,,,0,0,0,"0000-00-00 00:00:00"
26542,Aldrin,Adjani,NA,,9262545566,aldrin.adjani@apecschools.edu.ph,"Learning Facilitator",,,APEC,"Teaching Delivery and Support",Main,,,,,,,0,0,0,"0000-00-00 00:00:00"
26599,Aliana,Balatbat,NA,,9066365855,aliana.balatbat@apecschools.edu.ph,"Learning Facilitator",,,APEC,"Teaching Delivery and Support",Main,,,,,,,0,0,0,"0000-00-00 00:00:00"
26591,"Allen Joy",Anchita,NA,,9068599132,allen.anchita@apecschools.edu.ph,"Learning Facilitator",,,APEC,"Teaching Delivery and Support",Main,,,,,,,0,0,0,"0000-00-00 00:00:00"
26636,"Allen Maye",Bagorio,NA,,9265023146,allen.bagorio@apecschools.edu.ph,"Learning Facilitator",,,APEC,"Teaching Delivery and Support",Main,,,,,,,0,0,0,"0000-00-00 00:00:00"
26641,"Alvin Rey",Cana,NA,,9358151452,alvin.cana@apecschools.edu.ph,"Learning Facilitator",,,APEC,"Teaching Delivery and Support",Main,,,,,,,0,0,0,"0000-00-00 00:00:00"
26552,"Angela Dominique",Villafuerte,NA,,9175075754,angela.villafuerte@apecschools.edu.ph,"Learning Facilitator",,,APEC,"Teaching Delivery and Support",Main,,,,,,,0,0,0,"0000-00-00 00:00:00"
26653,Angeline,Aventino,NA,,9771667795,angeline.aventino@apecschools.edu.ph,"Senior Learning Facilitator",,,APEC,"Teaching Delivery and Support",Main,,,,,,,0,0,0,"0000-00-00 00:00:00"
26660,Angelita,Dannug,NA,,9061451763,angelita.dannug@apecschools.edu.ph,"Learning Facilitator",,,APEC,"Teaching Delivery and Support",Main,,,,,,,0,0,0,"0000-00-00 00:00:00"
26503,Angeloe,Macalalad,NA,,9062433855,angeloe.macalalad@apecschools.edu.ph,"School Head",,,APEC,"School Operations",Main,,,,,,,0,0,0,"0000-00-00 00:00:00"
26583,"Anne Margarette",Dungca,NA,,9353735009,anne.dungca@apecschools.edu.ph,"Learning Facilitator",,,APEC,"Teaching Delivery and Support",Main,,,,,,,0,0,0,"0000-00-00 00:00:00"
26540,"Antonio Jr.",Mallari,NA,,9238711473,antonio.mallari@apecschools.edu.ph,"Senior Learning Facilitator",,,APEC,"Teaching Delivery and Support",Main,,,,,,,0,0,0,"0000-00-00 00:00:00"
26620,"Antonio Jr.",Sayaboc,NA,,9152867012,antonio.sayaboc@apecschools.edu.ph,"Lesson Guide Writer",,,APEC,"Curriculum and Content Development",Main,,,,,,,0,0,0,"0000-00-00 00:00:00"
26551,Arabelle,Adigue,NA,,9178433435,arabelle.adigue@apecschools.edu.ph,"Sales and Marketing Head",,,APEC,"Sales and Marketing",Main,,,,,,,0,0,0,"0000-00-00 00:00:00"
26586,Aramis,Bercasio,NA,,9161637841,ara.bercasio@apecschools.edu.ph,"Learning Facilitator",,,APEC,"Teaching Delivery and Support",Main,,,,,,,0,0,0,"0000-00-00 00:00:00"
26666,"Arian Grace",Beria,NA,,9487791189,aissa.ramos@apecschools.edu.ph,"Learning Facilitator",,,APEC,"Teaching Delivery and Support",Main,,,,,,,0,0,0,"0000-00-00 00:00:00"
26667,Ariel,Atalia,NA,,9053198067,ariel.atalia@apecschools.edu.ph,"Learning Facilitator",,,APEC,"Teaching Delivery and Support",Main,,,,,,,0,0,0,"0000-00-00 00:00:00"
26662,Arlyn,Ruiz,NA,,9467526417,arlyn.ruiz@apecschools.edu.ph,"Learning Facilitator",,,APEC,"Teaching Delivery and Support",Main,,,,,,,0,0,0,"0000-00-00 00:00:00"
26504,"Bea Klariz",Mandac,NA,,9478969056,bea.mandac@apecschools.edu.ph,"School Administrative Assistant",,,APEC,"School Operations",Main,,,,,,,0,0,0,"0000-00-00 00:00:00"
26573,"Bernardo Jr.",Marquez,NA,,9274342468,bernard.marquez@apecschools.edu.ph,"Master Teacher",,,APEC,"Teaching Delivery and Support",Main,,,,,,,0,0,0,"0000-00-00 00:00:00"
26507,Bertito,Basallo,NA,,9465082894,bertito.basallo@apecschools.edu.ph,"Lesson Guide Writer",,,APEC,"Curriculum and Content Development",Main,,,,,,,0,0,0,"0000-00-00 00:00:00"
26475,Betty,Lui,NA,,9175380215,beth.lui@apecschools.edu.ph,"Chief Executive Officer",,,APEC,Executive,Main,,,,,,,0,0,0,"0000-00-00 00:00:00"
26515,"Blessie Khena",Marcos,NA,,9269404330,blessie.marcos@apecschools.edu.ph,"Learning Facilitator",,,APEC,"Teaching Delivery and Support",Main,,,,,,,0,0,0,"2015-11-10 10:31:47"
26494,"Camille Mercedes",Dayrit,NA,,9163690703,camille.dayrit@apecschools.edu.ph,"HR Associate",,,APEC,"Human Resources",Main,,,,,,,0,0,0,"0000-00-00 00:00:00"
26650,Carine,Operio,NA,,9156836456,carine.operio@apecschools.edu.ph,"Learning Facilitator",,,APEC,"Teaching Delivery and Support",Main,,,,,,,0,0,0,"0000-00-00 00:00:00"
26514,Carmela,Avancena,NA,,9056506367,carmela.avancena@apecschools.edu.ph,"Learning Facilitator",,,APEC,"Teaching Delivery and Support",Main,,,,,,,0,0,0,"0000-00-00 00:00:00"
26590,Catherine,Sanchez,NA,,9355948576,catherine.sanchez@apecschools.edu.ph,"Learning Facilitator",,,APEC,"Teaching Delivery and Support",Main,,,,,,,0,0,0,"0000-00-00 00:00:00"
26608,"Cathleen Jane",Jimenez,NA,,9264703235,cathleen.jimenez@apecschools.edu.ph,"Learning Facilitator",,,APEC,"Teaching Delivery and Support",Main,,,,,,,0,0,0,"0000-00-00 00:00:00"
26484,Cecilia,Sy,NA,,9214990001,ces.sy@apecschools.edu.ph,"Expert Teacher",,,APEC,"Teaching Delivery and Support",Main,,,,,,,0,0,0,"0000-00-00 00:00:00"
26612,"Ceilo Maxine-Ann",Liza,NA,,9496558098,ceilomaxine.liza@apecschools.edu.ph,"Learning Facilitator",,,APEC,"Teaching Delivery and Support",Main,,,,,,,0,0,0,"0000-00-00 00:00:00"
26506,Charito,Noche,NA,,9156359532,cherry.noche@apecschools.edu.ph,"Administrative Officer",,,APEC,"School Deployment",Main,,,,,,,0,0,0,"0000-00-00 00:00:00"
26558,Charlemagne,Geronimo,NA,,9152768486,charlemagne.geronimo@apecschools.edu.ph,"Learning Facilitator",,,APEC,"Teaching Delivery and Support",Main,,,,,,,0,0,0,"0000-00-00 00:00:00"
26603,Cherie,Pablo,NA,,9153009299,cherie.pablo@apecschools.edu.ph,"Senior Learning Facilitator",,,APEC,"Teaching Delivery and Support",Main,,,,,,,0,0,0,"0000-00-00 00:00:00"
26656,"Cherry Ann",Bitmal,NA,,9156639846,cherry.bitmal@apecschools.edu.ph,"Learning Facilitator",,,APEC,"Teaching Delivery and Support",Main,,,,,,,0,0,0,"0000-00-00 00:00:00"
26575,Chery,Subong,NA,,9434022545,cherry.subong@apecschools.edu.ph,"Master Teacher",,,APEC,"Teaching Delivery and Support",Main,,,,,,,0,0,0,"0000-00-00 00:00:00"
26488,Christine,Fuentez,NA,,9209026229,chris.fuentez@apecschools.edu.ph,"New School Coordinator",,,APEC,"School Deployment",Main,,,,,,,0,0,0,"2015-07-29 18:40:25"
26582,"Claire Anne",Romero,NA,,9156497703,claire.romero@apecschools.edu.ph,"Learning Facilitator",,,APEC,"Teaching Delivery and Support",Main,,,,,,,0,0,0,"0000-00-00 00:00:00"
26631,"Clare Ivy",Sanchez,NA,,9152614549,clare.sanchez@apecschools.edu.ph,"Learning Facilitator",,,APEC,"Teaching Delivery and Support",Main,,,,,,,0,0,0,"0000-00-00 00:00:00"
26480,"Corazon Monica",Sabio,NA,,9174621699,monette.sabio@apecschools.edu.ph,"Director of Teaching",,,APEC,"Teaching Delivery and Support",Main,,,,,,,0,0,0,"0000-00-00 00:00:00"
26671,"Cris Bernadette",Cortes,NA,,9354011110,cris.cortes@apecschools.edu.ph,"Learning Facilitator",,,APEC,"Teaching Delivery and Support",Main,,,,,,,0,0,0,"0000-00-00 00:00:00"
26655,"Cristine Jezza",Bonifacio,NA,,9096613521,cristine.bonifacio@apecschools.edu.ph,"Learning Facilitator",,,APEC,"Teaching Delivery and Support",Main,,,,,,,0,0,0,"0000-00-00 00:00:00"
26680,Cynthia,Serrana,NA,,9158017874,cynthia.serrana@apecschools.edu.ph,"Learning Facilitator",,,APEC,"Teaching Delivery and Support",Main,,,,,,,0,0,0,"0000-00-00 00:00:00"
26578,"Danielle Eriel",Mendoza,NA,,9173298872,danielle.mendoza@apecschools.edu.ph,"Associate Recruiter",,,APEC,"Human Resources",Main,,,,,,,0,0,0,"2015-07-28 11:04:26"
26635,Delsa,Marciano,NA,,9054336405,delsa.marciano@apecschools.edu.ph,"Learning Facilitator",,,APEC,"Teaching Delivery and Support",Main,,,,,,,0,0,0,"0000-00-00 00:00:00"
26478,Diana,Donato,NA,,9175582152,diana.donato@apecschools.edu.ph,"External Relations Manager",,O,APEC,"School Deployment",Main,"2-A Classica Manor Condominium, Montessori Lane","Brgy Addition Hills","San Juan","Metro Manila",Philippines,1500,0,0,0,"2015-07-28 19:21:55"
26532,Diana,Tocante,NA,,9154601775,diana.tocante@apecschools.edu.ph,"Master Teacher",,,APEC,"Teaching Delivery and Support",Main,,,,,,,0,0,0,"0000-00-00 00:00:00"
26607,Dolores,Francisco,NA,,9182948838,dolores.francisco@apecschools.edu.ph,"Learning Facilitator",,,APEC,"Teaching Delivery and Support",Main,,,,,,,0,0,0,"0000-00-00 00:00:00"
26589,"Dorothy Joy",Anacion,NA,,9051684925,dorothy.anacion@apecschools.edu.ph,"Learning Facilitator",,,APEC,"Teaching Delivery and Support",Main,,,,,,,0,0,0,"0000-00-00 00:00:00"
26566,Edna,Soliman,NA,,9175613826,edna.soliman@apecschools.edu.ph,"School Head",,,APEC,"School Operations",Main,,,,,,,0,0,0,"0000-00-00 00:00:00"
26643,Eileen,Ekstrom,NA,,9464798299,eileen.ekstrom@apecschools.edu.ph,"Learning Facilitator",,,APEC,"Teaching Delivery and Support",Main,,,,,,,0,0,0,"0000-00-00 00:00:00"
26556,Elaine,Meru,NA,,9178308385,elaine.meru@apecschools.edu.ph,"School Head",,,APEC,"School Operations",Main,,,,,,,0,0,0,"0000-00-00 00:00:00"
26474,"Eleanor Rosa",Pinugu,NA,,9175119415,eleanor.pinugu@apecschools.edu.ph,"Education Specialist",,,APEC,"Teaching Delivery and Support",Main,,,,,,,0,0,0,"0000-00-00 00:00:00"
26489,"Elim Joy","Delos Santos",NA,,9234752245,elim.delossantos@apecschools.edu.ph,"School Head",,,APEC,"School Operations",Main,,,,,,,0,0,0,"2015-07-28 13:55:11"
26490,Elisa,Fruto,NA,,9175044250,elisa.fruto@apecschools.edu.ph,"School Head",,,APEC,"School Operations",Main,,,,,,,0,0,0,"0000-00-00 00:00:00"
26646,"Ericka Jane",Angeles,NA,,9264254774,ericka.angeles@apecschools.edu.ph,"Learning Facilitator",,,APEC,"Teaching Delivery and Support",Main,,,,,,,0,0,0,"0000-00-00 00:00:00"
26553,"Ernesto Jr.",Cifra,NA,,9274628954,ernie.cifra@apecschools.edu.ph,"School Head",,,APEC,"School Operations",Main,,,,,,,0,0,0,"0000-00-00 00:00:00"
26502,Esperanza,Lariba,NA,,9369600664,esperanza.lariba@apecschools.edu.ph,"Master Teacher",,,APEC,"Teaching Delivery and Support",Main,,,,,,,0,0,0,"0000-00-00 00:00:00"
26512,"Eunice Armie",Dungan,NA,,9066154278,eunice.dungan@apecschools.edu.ph,"Learning Facilitator",,,APEC,"Teaching Delivery and Support",Main,,,,,,,0,0,0,"0000-00-00 00:00:00"
26661,"Ezelle Karen",Dadulla,NA,,9061500119,ezelle.dadulla@apecschools.edu.ph,"Learning Facilitator",,,APEC,"Teaching Delivery and Support",Main,,,,,,,0,0,0,"0000-00-00 00:00:00"
26672,Farhana,Casingal,NA,,9105597731,farhana.casingal@apecschools.edu.ph,"Learning Facilitator",,,APEC,"Teaching Delivery and Support",Main,,,,,,,0,0,0,"0000-00-00 00:00:00"
26481,Ferdinand,Guiang,NA,,9279544700,ferds.guiang@apecschools.edu.ph,"Cluster Manager",,,APEC,"School Operations",Main,,,,,,,0,0,0,"0000-00-00 00:00:00"
26602,Flames,Batain,NA,,9058301736,flames.batain@apecschools.edu.ph,"Learning Facilitator",,,APEC,"Teaching Delivery and Support",Main,,,,,,,0,0,0,"0000-00-00 00:00:00"
26572,Florence,Bagunas,NA,,9236889223,florence.bagunas@apecschools.edu.ph,"Master Teacher",,,APEC,"Teaching Delivery and Support",Main,,,,,,,0,0,0,"0000-00-00 00:00:00"
26664,Florian,Fernandez,NA,,9059588072,florian.fernandez@apecschools.edu.ph,"Learning Facilitator",,,APEC,"Teaching Delivery and Support",Main,,,,,,,0,0,0,"0000-00-00 00:00:00"
26644,"Francis Bryan",Jimenez,NA,,9223578088,francis.jimenez@apecschools.edu.ph,"Learning Facilitator",,,APEC,"Teaching Delivery and Support",Main,,,,,,,0,0,0,"0000-00-00 00:00:00"
26524,"Franz Danielle de",Leon,NA,,9103714019,franz.deleon@apecschools.edu.ph,"Learning Facilitator",,,APEC,"Teaching Delivery and Support",Main,,,,,,,0,0,0,"0000-00-00 00:00:00"
26521,Genesis,Garcia,NA,,9274700275,genesis.garcia@apecschools.edu.ph,"Learning Facilitator",,,APEC,"Teaching Delivery and Support",Main,,,,,,,0,0,0,"0000-00-00 00:00:00"
26601,"Genesis Ernesto",Kiaki,NA,,9098894552,genesis.kiaki@apecschools.edu.ph,"Learning Facilitator",,,APEC,"Teaching Delivery and Support",Main,,,,,,,0,0,0,"0000-00-00 00:00:00"
26477,"Gerard Benjamin",Fortunato,NA,,9175980277,benjie.fortunato@apecschools.edu.ph,"Content Expert",,,APEC,"Curriculum and Content Development",Main,,,,,,,0,0,0,"0000-00-00 00:00:00"
26535,"Gloria Precious",Destura,NA,,9228580814,gloria.destura@apecschools.edu.ph,"Master Teacher",,,APEC,"Teaching Delivery and Support",Main,,,,,,,0,0,0,"0000-00-00 00:00:00"
26569,Grace,Daclis,NA,,9989585935,grace.daclis@apecschools.edu.ph,"Learning Facilitator",,,APEC,"Teaching Delivery and Support",Main,,,,,,,0,0,0,"0000-00-00 00:00:00"
26546,"Guia Marie",Binsol,NA,,9261067762,guia.binsol@apecschools.edu.ph,"Learning Facilitator",,,APEC,"Teaching Delivery and Support",Main,,,,,,,0,0,0,"0000-00-00 00:00:00"
26493,Harris,Sierra,NA,,9152353058,harris.sierra@apecschools.edu.ph,"Sales Assistant",,,APEC,"Sales and Marketing",Main,,,,,,,0,0,0,"0000-00-00 00:00:00"
26520,"Hazel Von",Dean,NA,,9289838517,hazel.dean@apecschools.edu.ph,"Master Teacher",,,APEC,"Teaching Delivery and Support",Main,,,,,,,0,0,0,"0000-00-00 00:00:00"
26483,"Isabelle Ruth",Banares,NA,,9175611136,isabelle.banares@apecschools.edu.ph,"Learning Facilitator",,,APEC,"Teaching Delivery and Support",Main,,,,,,,0,0,0,"0000-00-00 00:00:00"
26595,"Jade Irish Dela",Cruz,NA,,9985728785,jadeirish.delacruz@apecschools.edu.ph,"Learning Facilitator",,,APEC,"Teaching Delivery and Support",Main,,,,,,,0,0,0,"0000-00-00 00:00:00"
26541,James,Reyes,NA,,9173827576,james.reyes@apecschools.edu.ph,"Master Teacher",,,APEC,"Teaching Delivery and Support",Main,,,,,,,0,0,0,"0000-00-00 00:00:00"
26499,Janis,Enguerra,NA,,9232381985,janis.enguerra@apecschools.edu.ph,"School Head",,,APEC,"School Operations",Main,,,,,,,0,0,0,"0000-00-00 00:00:00"
26652,"Jann Franco",Briones,NA,,9068946299,jann.briones@apecschools.edu.ph,"Learning Facilitator",,,APEC,"Teaching Delivery and Support",Main,,,,,,,0,0,0,"0000-00-00 00:00:00"
26510,Japheth,Pasatiempo,NA,,9178830253,japheth.pasatiempo@apecschools.edu.ph,"Learning Facilitator",,,APEC,"Teaching Delivery and Support",Main,,,,,,,0,0,0,"2015-07-28 21:45:01"
26538,"Jeanne Camille",Hernandez,NA,,9178876352,jeanne.hernandez@apecschools.edu.ph,"Learning Facilitator",,,APEC,"Teaching Delivery and Support",Main,,,,,,,0,0,0,"0000-00-00 00:00:00"
26609,Jemari,Macaranas,NA,,9369271757,jemari.macaranas@apecschools.edu.ph,"Learning Facilitator",,,APEC,"Teaching Delivery and Support",Main,,,,,,,0,0,0,"0000-00-00 00:00:00"
26677,Jenalyn,Hangca,NA,,9277261558,jenalyn.hangca@apecschools.edu.ph,"School Administrative Assistant",,,APEC,"School Operations",Main,,,,,,,0,0,0,"0000-00-00 00:00:00"
26563,Jenelle,Fernandez,NA,,9066274411,jenelle.fernandez@apecschools.edu.ph,"Learning Facilitator",,,APEC,"Teaching Delivery and Support",Main,,,,,,,0,0,0,"0000-00-00 00:00:00"
26670,Jennifer,Noveras,NA,,9998093382,jennifer.noveras@apecschools.edu.ph,"Learning Facilitator",,,APEC,"Teaching Delivery and Support",Main,,,,,,,0,0,0,"0000-00-00 00:00:00"
26579,"Jessa Andrea",Naquimen,NA,,9169469526,jessa.naquimen@apecschools.edu.ph,"Learning Facilitator",,,APEC,"Teaching Delivery and Support",Main,,,,,,,0,0,0,"0000-00-00 00:00:00"
26516,Jessilyn,Ranges,NA,,9238513872,jessilyn.ranges@apecschools.edu.ph,"Senior Learning Facilitator",,,APEC,"Teaching Delivery and Support",Main,,,,,,,0,0,0,"0000-00-00 00:00:00"
26554,Jhoana,Sy,NA,,9053770224,jhoana.sy@apecschools.edu.ph,"School Head",,,APEC,"School Operations",Main,,,,,,,0,0,0,"0000-00-00 00:00:00"
26562,Jiamae,Capili,NA,,9151284393,jiamae.capili@apecschools.edu.ph,"Learning Facilitator",,,APEC,"Teaching Delivery and Support",Main,,,,,,,0,0,0,"0000-00-00 00:00:00"
26537,"Jocelyn Ann",Enriquez,NA,,9176269236,jocelyn.enriquez@apecschools.edu.ph,"Senior Learning Facilitator",,,APEC,"Teaching Delivery and Support",Main,,,,,,,0,0,0,"0000-00-00 00:00:00"
26638,Joeben,Pena,NA,,9267870039,joeben.pena@apecschools.edu.ph,"Learning Facilitator",,,APEC,"Teaching Delivery and Support",Main,,,,,,,0,0,0,"0000-00-00 00:00:00"
26623,Joerisa,Guimbaolibot,NA,,9214729406,joerisa.guimbaolibot@apecschools.edu.ph,"Learning Facilitator",,,APEC,"Teaching Delivery and Support",Main,,,,,,,0,0,0,"0000-00-00 00:00:00"
26545,Johara,Baloloy,NA,,9266732006,johara.baloloy@apecschools.edu.ph,"Learning Facilitator",,,APEC,"Teaching Delivery and Support",Main,,,,,,,0,0,0,"2015-07-28 17:00:05"
26617,"John Benedict",Sai,NA,,9268662202,benedict.sai@apecschools.edu.ph,"Lesson Guide Writer",,,APEC,"Curriculum and Content Development",Main,,,,,,,0,0,0,"0000-00-00 00:00:00"
26651,"John Eric",Orallo,NA,,9096265890,john.oralllo@apecschools.edu.ph,"Learning Facilitator",,,APEC,"Teaching Delivery and Support",Main,,,,,,,0,0,0,"0000-00-00 00:00:00"
26533,"John Paul",Abellera,NA,,9152613387,john.abellera@apecschools.edu.ph,"Master Teacher",,,APEC,"Teaching Delivery and Support",Main,,,,,,,0,0,0,"0000-00-00 00:00:00"
26648,"John Philip",Ordonez,NA,,9061666451,john.ordonez@apecschools.edu.ph,"Learning Facilitator",,,APEC,"Teaching Delivery and Support",Main,,,,,,,0,0,0,"0000-00-00 00:00:00"
26559,Jojoruel,Salandanan,NA,,9282128255,jojoruel.salandanan@apecschools.edu.ph,"Facilities Coordinator",,,APEC,"School Deployment",Main,,,,,,,0,0,0,"0000-00-00 00:00:00"
26570,"Jose Reimund, Jr.",Bagadiong,NA,,9053700478,jose.bagadiong@apecschools.edu.ph,"Learning Facilitator",,,APEC,"Teaching Delivery and Support",Main,,,,,,,0,0,0,"0000-00-00 00:00:00"
26654,"Julie Ann",Zerna,NA,,9067104024,julie.zerna@apecschools.edu.ph,"Learning Facilitator",,,APEC,"Teaching Delivery and Support",Main,,,,,,,0,0,0,"0000-00-00 00:00:00"
26669,"Justine Fay",Refuerzo,NA,,9151291943,justine.refuerzo@apecschools.edu.ph,"Learning Facilitator",,,APEC,"Teaching Delivery and Support",Main,,,,,,,0,0,0,"0000-00-00 00:00:00"
26622,"Kara Melissa",Pavia,NA,,9255081186,kara.pavia@apecschools.edu.ph,"Master Teacher",,,APEC,"Teaching Delivery and Support",Main,,,,,,,0,0,0,"0000-00-00 00:00:00"
26659,Karren,Israel,NA,,9282663712,karren.israel@apecschools.edu.ph,"Learning Facilitator",,,APEC,"Teaching Delivery and Support",Main,,,,,,,0,0,0,"0000-00-00 00:00:00"
26630,"Karren Ann",Palacio,NA,,9165664600,karren.palacio@apecschools.edu.ph,"Learning Facilitator",,,APEC,"Teaching Delivery and Support",Main,,,,,,,0,0,0,"0000-00-00 00:00:00"
26624,"Kent Haridas",Resurreccion,NA,,9273830165,kent.resurreccion@apecschools.edu.ph,"Learning Facilitator",,,APEC,"Teaching Delivery and Support",Main,,,,,,,0,0,0,"0000-00-00 00:00:00"
26528,"Kevin Michael",Angelo,NA,,9189857121,kevin.angelo@apecschools.edu.ph,"Learning Facilitator",,,APEC,"Teaching Delivery and Support",Main,,,,,,,0,0,0,"0000-00-00 00:00:00"
26642,Kimberly,Cantos,NA,,9061066285,kimberly.cantos@apecschools.edu.ph,"Learning Facilitator",,,APEC,"Teaching Delivery and Support",Main,,,,,,,0,0,0,"0000-00-00 00:00:00"
26519,"Kris Gerald Del",Norte,NA,,9175007641,kris.delnorte@apecschools.edu.ph,"Content Developer Junior",,,APEC,"Curriculum and Content Development",Main,,,,,,,0,0,0,"0000-00-00 00:00:00"
26605,"Kristine Lorraine Dela",Cruz,NA,,9155870954,kristine.delacruz@apecschools.edu.ph,"Senior Learning Facilitator",,,APEC,"Teaching Delivery and Support",Main,,,,,,,0,0,0,"0000-00-00 00:00:00"
26557,Kristopher,Hilario,NA,,9175798444,kristopher.hilario@apecschools.edu.ph,"School Head",,,APEC,"School Operations",Main,,,,,,,0,0,0,"0000-00-00 00:00:00"
26495,Laarni,Rom,NA,,9274865461,laarni.rom@apecschools.edu.ph,"Lesson Guide Writer",,,APEC,"Curriculum and Content Development",Main,,,,,,,0,0,0,"2015-10-18 19:06:08"
26485,"Luis Jr.",Abueva,NA,,9175538289,luis.abueva@apecschools.edu.ph,"Facilities Manager",,,APEC,"School Deployment",Main,,,,,,,0,0,0,"0000-00-00 00:00:00"
26639,Lynette,Diocampo,NA,,9204807521,lynette.diocampo@apecschools.edu.ph,"Learning Facilitator",,,APEC,"Teaching Delivery and Support",Main,,,,,,,0,0,0,"0000-00-00 00:00:00"
26491,Lynn,Gutierrez,NA,,9064079309,lynn.gutierrez@apecschools.edu.ph,"School Head",,,APEC,"School Operations",Main,,,,,,,0,0,0,"0000-00-00 00:00:00"
26539,"Ma. Ana Teresa",Lopez,NA,,9175200340,tessa.lopez@apecschools.edu.ph,"Finance Manager",,,APEC,,Main,,,,,,,0,0,0,"0000-00-00 00:00:00"
26561,"Ma. Gemma Fatima",Era,NA,,9072486147,gemma.era@apecschools.edu.ph,"Learning Facilitator",,,APEC,"Teaching Delivery and Support",Main,,,,,,,0,0,0,"0000-00-00 00:00:00"
26681,"Ma. Lerma",Abiog,NA,,9985781939,lerma.abiog@apecschools.edu.ph,"School Head",,,APEC,"School Operations",Main,,,,,,,0,0,0,"0000-00-00 00:00:00"
26580,"Ma. Mirasol Joy",Amoncio,NA,,9068154103,mira.amoncio@apecschools.edu.ph,"Learning Facilitator",,,APEC,"Teaching Delivery and Support",Main,,,,,,,0,0,0,"0000-00-00 00:00:00"
26567,"Ma. Rebecca",Martillana,NA,,9175165622,rebecca.martillana@apecschools.edu.ph,"Learning Facilitator",,,APEC,"Teaching Delivery and Support",Main,,,,,,,0,0,0,"0000-00-00 00:00:00"
26517,Madel,Siega,NA,,9468325352,madel.siega@apecschools.edu.ph,"Learning Facilitator",,,APEC,"Teaching Delivery and Support",Main,,,,,,,0,0,0,"0000-00-00 00:00:00"
26513,"Madeleine Jean",Perez,NA,,9276545070,madeleine.perez@apecschools.edu.ph,"Learning Facilitator",,,APEC,"Teaching Delivery and Support",Main,,,,,,,0,0,0,"0000-00-00 00:00:00"
26597,"Mae Claire",Siguros,NA,,9066018926,maeclaire.siguros@apecschools.edu.ph,"Learning Facilitator",,,APEC,"Teaching Delivery and Support",Main,,,,,,,0,0,0,"0000-00-00 00:00:00"
26505,Maita,Diangson,NA,,9175068892,maita.diangson@apecschools.edu.ph,"School Head",,,APEC,"School Operations",Main,,,,,,,0,0,0,"0000-00-00 00:00:00"
26523,"Manuel III",Abada,NA,,9172071997,manuel.abada@apecschools.edu.ph,"Learning Facilitator",,,APEC,"Teaching Delivery and Support",Main,,,,,,,0,0,0,"0000-00-00 00:00:00"
26600,"Marc Joseph",Canoy,NA,,9268560539,marc.canoy@apecschools.edu.ph,"Learning Facilitator",,,APEC,"Teaching Delivery and Support",Main,,,,,,,0,0,0,"0000-00-00 00:00:00"
26616,"Maria Anthonette",Candaza,NA,,9772192309,anne.candaza@apecschools.edu.ph,"IT Specialist",,,APEC,"School Deployment",Main,,,,,,,0,0,0,"2015-11-10 06:34:41"
26564,"Maria Antonia",Nava,NA,,9175361487,tonet.nava@apecschools.edu.ph,"Cluster Manager",,,APEC,"School Operations",Main,,,,,,,0,0,0,"2015-08-09 00:08:38"
26621,"Maria Catherine",Borres,NA,,9176289778,catherine.borres@apecschools.edu.ph,"Master Teacher",,,APEC,"Teaching Delivery and Support",Main,,,,,,,0,0,0,"2015-07-29 14:39:47"
26577,"Maria Clarissa",Co,NA,,9261370902,clarrisa.co@apecschools.edu.ph,"Finance and Admin Associate",,,APEC,,Main,,,,,,,0,0,0,"0000-00-00 00:00:00"
26492,"Maria Evelyn Rosario",Yasona,NA,,9393874208,maria.yasona@apecschools.edu.ph,"School Head",,,APEC,"School Operations",Main,,,,,,,0,0,0,"0000-00-00 00:00:00"
26530,"Maria Judith",Umali,NA,,9216807289,judith.umali@apecschools.edu.ph,"External Relations Associate",,,APEC,"School Deployment",Main,,,,,,,0,0,0,"0000-00-00 00:00:00"
26683,"Maria Mamerta",Matias,NA,,9175394907,mariles.matias@apecshools.edu.ph,"Content Development Director",,,APEC,"Curriculum and Content Development",Main,,,,,,,0,0,0,"0000-00-00 00:00:00"
26618,"Maria Socorro Henedina",Korionoff,NA,,9178756959,jing.korionoff@apecschools.edu.ph,"School Head",,,APEC,"School Operations",Main,,,,,,,0,0,0,"0000-00-00 00:00:00"
26665,"Mariane Maica",Sorreda,NA,,9059611516,marian.sorreda@apecschools.edu.ph,"Learning Facilitator",,,APEC,"Teaching Delivery and Support",Main,,,,,,,0,0,0,"0000-00-00 00:00:00"
26647,"Marichery Ann De La",Rosa,NA,,9067362882,marichery.delarosa@apecschools.edu.ph,"Learning Facilitator",,,APEC,"Teaching Delivery and Support",Main,,,,,,,0,0,0,"0000-00-00 00:00:00"
26604,Maricris,Dancal,NA,,9156149270,maricris.dancal@apecschools.edu.ph,"Learning Facilitator",,,APEC,"Teaching Delivery and Support",Main,,,,,,,0,0,0,"0000-00-00 00:00:00"
26588,"Marie Dioice Gem",Tiu,NA,,9364890326,mariedioice.tiu@apecschools.edu.ph,"Learning Facilitator",,,APEC,"Teaching Delivery and Support",Main,,,,,,,0,0,0,"0000-00-00 00:00:00"
26675,"Marie Kimberly",Cerigo,NA,,9396349094,raquel.bugayong@apecschools.edu.ph,"School Administrative Assistant",,,APEC,"School Operations",Main,,,,,,,0,0,0,"0000-00-00 00:00:00"
26531,"Marites de la",Cruz,NA,,9186230523,marites.delacruz@apecschools.edu.ph,"School Head",,,APEC,"School Operations",Main,,,,,,,0,0,0,"0000-00-00 00:00:00"
26518,Marjorie,Cabangal,NA,,9774739061,marjorie.cabangal@apecschools.edu.ph,"Learning Facilitator",,,APEC,"Teaching Delivery and Support",Main,"bldg6 a4 bahay caridad bayani street","brgy donya imelda","quezon city",,,,0,0,0,"2015-07-28 17:42:18"
26547,"Mark Anthony",Abuan,NA,,9436535452,tony.abuan@apecschools.edu.ph,"IT Integration Associate",,,APEC,"School Deployment",Main,,,,,,,0,0,0,"0000-00-00 00:00:00"
26482,"Mary Ann",Barcelon,NA,,9285069806,maryann.barcelon@apecschools.edu.ph,"Expert Teacher",,,APEC,"Teaching Delivery and Support",Main,,,,,,,0,0,0,"0000-00-00 00:00:00"
26527,"Mary Dean",Ampon,NA,,9228691660,mary.ampon@apecschools.edu.ph,"Senior Learning Facilitator",,,APEC,"Teaching Delivery and Support",Main,,,,,,,0,0,0,"0000-00-00 00:00:00"
26593,"Mary June Dela",Bajan,NA,,9434256642,maryjune.delabajan@apecschools.edu.ph,"Learning Facilitator",,,APEC,"Teaching Delivery and Support",Main,,,,,,,0,0,0,"0000-00-00 00:00:00"
26684,"Mary Trisha",Abedejos,NA,,9288051190,marytrisha.abedejos@apecshools.edu.ph,"Master Teacher",,,APEC,"Teaching Delivery and Support",Main,,,,,,,0,0,0,"0000-00-00 00:00:00"
26645,Maurence,Bernardo,NA,,9086011767,maurence.bernardo@apecschools.edu.ph,"Learning Facilitator",,,APEC,"Teaching Delivery and Support",Main,,,,,,,0,0,0,"0000-00-00 00:00:00"
26626,Melissa,Hernaez,NA,,9066195332,melissa.hernaez@apecschools.edu.ph,"Learning Facilitator",,,APEC,"Teaching Delivery and Support",Main,,,,,,,0,0,0,"0000-00-00 00:00:00"
26497,Melvin,Soriano,NA,,9997703994,melvin.soriano@apecschools.edu.ph,"Master Teacher",,,APEC,"Teaching Delivery and Support",Main,,,,,,,0,0,0,"0000-00-00 00:00:00"
26496,Michael,Manlupig,NA,,9234243028,michael.manlupig@apecschools.edu.ph,"School Head",,,APEC,"School Operations",Main,"111 Panay Ave.",,"Quezon City","Metro Manila",Philippines,,0,0,0,"2015-07-31 11:50:57"
26525,Michelle,Magalino,NA,,9163110782,michelle.magalino@apecschools.edu.ph,"Learning Facilitator",,,APEC,"Teaching Delivery and Support",Main,,,,,,,0,0,0,"0000-00-00 00:00:00"
26587,Necy,Sabio,NA,,9266172092,necy.sabio@apecschools.edu.ph,"Learning Facilitator",,,APEC,"Teaching Delivery and Support",Main,,,,,,,0,0,0,"0000-00-00 00:00:00"
26606,Nelson,Embat,NA,,9351265535,nelson.embat@apecschools.edu.ph,"Learning Facilitator",,,APEC,"Teaching Delivery and Support",Main,,,,,,,0,0,0,"0000-00-00 00:00:00"
26568,"Nikko Don",Vilamor,NA,,9153861416,nikko.vilamor@apecschools.edu.ph,"Learning Facilitator",,,APEC,"Teaching Delivery and Support",Main,,,,,,,0,0,0,"0000-00-00 00:00:00"
26657,Normelinda,Cortez,NA,,9064483364,normelinda.cortez@apecschools.edu.ph,"Learning Facilitator",,,APEC,"Teaching Delivery and Support",Main,,,,,,,0,0,0,"0000-00-00 00:00:00"
26555,Noryli,Guerrero,NA,,9328771805,noryli.guerrero@apecschools.edu.ph,"School Head",,,APEC,"School Operations",Main,,,,,,,0,0,0,"0000-00-00 00:00:00"
26592,"Parco Avoc",Culang,NA,,9278889523,parco.culang@apecschools.edu.ph,"Learning Facilitator",,,APEC,"Teaching Delivery and Support",Main,,,,,,,0,0,0,"0000-00-00 00:00:00"
26679,"Patricia Catherine",Eco,NA,,9264045490,patricia.eco@apecschools.edu.ph,"Learning Facilitator",,,APEC,"Teaching Delivery and Support",Main,,,,,,,0,0,0,"0000-00-00 00:00:00"
26543,"Patricia Mae",Cruz,NA,,9063389523,patricia.cruz@apecschools.edu.ph,"Learning Facilitator",,,APEC,"Teaching Delivery and Support",Main,,,,,,,0,0,0,"0000-00-00 00:00:00"
26649,"Paul Anthony",Esguerra,NA,,9279861374,paul.esguerra@apecschools.edu.ph,"Learning Facilitator",,,APEC,"Teaching Delivery and Support",Main,,,,,,,0,0,0,"0000-00-00 00:00:00"
26509,"Paul Francis",Lagarde,NA,,9173861345,paul.lagarde@apecschools.edu.ph,"Learning Facilitator",,,APEC,"Teaching Delivery and Support",Main,,,,,,,0,0,0,"0000-00-00 00:00:00"
26615,Paulene,Ronquillo,NA,,92699182871,paulene.ronquillo@apecschools.edu.ph,"Research Associate",,,APEC,"Curriculum and Content Development",Main,,,,,,,0,0,0,"0000-00-00 00:00:00"
26663,"Perry Jr","Delos Reyes",NA,,9053229506,perry.delosreyes@apecschools.edu.ph,"Senior Learning Facilitator",,,APEC,"Teaching Delivery and Support",Main,,,,,,,0,0,0,"0000-00-00 00:00:00"
26673,"Precious Deah",Pulido,NA,,9069745455,arian.beria@apecschools.edu.ph,"Learning Facilitator",,,APEC,"Teaching Delivery and Support",Main,,,,,,,0,0,0,"0000-00-00 00:00:00"
26634,"Prescy Rose",Pinuela,NA,,9225375139,prescy.pinuela@apecschools.edu.ph,"Learning Facilitator",,,APEC,"Teaching Delivery and Support",Main,,,,,,,0,0,0,"0000-00-00 00:00:00"
26629,Priscilla,Balani,NA,,9267008119,priscilla.balani@apecschools.edu.ph,"Learning Facilitator",,,APEC,"Teaching Delivery and Support",Main,,,,,,,0,0,0,"0000-00-00 00:00:00"
26560,Rachel,Tomaquin,NA,,9087947572,rachel.tomaquin@apecschools.edu.ph,"Learning Facilitator",,,APEC,"Teaching Delivery and Support",Main,,,,,,,0,0,0,"0000-00-00 00:00:00"
26487,"Rafael Ramon",Hocson,NA,,9175383196,ramy.hocson@apecschools.edu.ph,"Consultant - S&M",,,APEC,"Sales and Marketing",Main,,,,,,,0,0,0,"0000-00-00 00:00:00"
26678,Rajima,Tagle,NA,,9062381847,rajima.tagle@apecschools.edu.ph,"Learning Facilitator",,,APEC,"Teaching Delivery and Support",Main,,,,,,,0,0,0,"0000-00-00 00:00:00"
26501,"Ramon Antonio",Aldana,NA,,9159425429,ramon.aldana@apecschools.edu.ph,"School Head",,,APEC,"School Operations",Main,,,,,,,0,0,0,"0000-00-00 00:00:00"
26674,Raquel,Bugayong,NA,,9177832745,precious.pulido@apecschools.edu.ph,"School Administrative Assistant",,,APEC,"School Operations",Main,,,,,,,0,0,0,"0000-00-00 00:00:00"
26534,Rebecca,Bufi,NA,,9273508670,rebecca.bufi@apecschools.edu.ph,"Master Teacher",,,APEC,"Teaching Delivery and Support",Main,,,,,,,0,0,0,"0000-00-00 00:00:00"
26628,Rechelle,Reonal,NA,,9059126072,rechell.reonal@apecschools.edu.ph,"Learning Facilitator",,,APEC,"Teaching Delivery and Support",Main,,,,,,,0,0,0,"0000-00-00 00:00:00"
26596,"Regina Carmela",Cubos,NA,,9161166715,inna.cubos@apecschools.edu.ph,"Learning Facilitator",,,APEC,"Teaching Delivery and Support",Main,,,,,,,0,0,0,"0000-00-00 00:00:00"
26637,"Renjie Loise",Oteyza,NA,,9262241812,renjie.oteyza@apecschools.edu.ph,"Learning Facilitator",,,APEC,"Teaching Delivery and Support",Main,,,,,,,0,0,0,"0000-00-00 00:00:00"
26640,"Renz Lou Ken",Ramirez,NA,,9355330616,renz.ramirez@apecschools.edu.ph,"Learning Facilitator",,,APEC,"Teaching Delivery and Support",Main,,,,,,,0,0,0,"0000-00-00 00:00:00"
26632,Rianne,Ramirez,NA,,9496757086,rianne.ramirez@apecschools.edu.ph,"Learning Facilitator",,,APEC,"Teaching Delivery and Support",Main,,,,,,,0,0,0,"0000-00-00 00:00:00"
26614,"Ric Angelo",Nana,NA,,9151815031,ric.nana@apecschools.edu.ph,"Learning Facilitator",,,APEC,"Teaching Delivery and Support",Main,,,,,,,0,0,0,"0000-00-00 00:00:00"
26529,Rinalie,Tumbaga,NA,,9167576325,rinalie.tumbaga@apecschools.edu.ph,"Learning Facilitator",,,APEC,"Teaching Delivery and Support",Main,,,,,,,0,0,0,"0000-00-00 00:00:00"
26511,Rizanne,Barlizo,NA,,9225533971,rizanne.barlizo@apecschools.edu.ph,"Learning Facilitator",,,APEC,"Teaching Delivery and Support",Main,,,,,,,0,0,0,"0000-00-00 00:00:00"
26536,"Roanne Mae",Alejandrino,NA,,9275045193,roanne.alejandrino@apecschools.edu.ph,"Senior Learning Facilitator",,,APEC,"Teaching Delivery and Support",Main,,,,,,,0,0,0,"0000-00-00 00:00:00"
26682,Rochelle,Salonga,NA,,9175926829,rochelle.salonga@apecshools.edu.ph,"School Head",,,APEC,"School Operations",Main,,,,,,,0,0,0,"0000-00-00 00:00:00"
26498,"Rodolfo Jr.",Maiquez,NA,,9184567850,rodolfo.maiquez@apecschools.edu.ph,"School Head",,,APEC,"School Operations",Main,,,,,,,0,0,0,"0000-00-00 00:00:00"
26550,"Roene Aile",Gonzaga,NA,,9178432867,roene.gonzaga@apecschools.edu.ph,"School Head",,,APEC,"School Operations",Main,,,,,,,0,0,0,"0000-00-00 00:00:00"
26611,Rommel,Vergara,NA,,9352477215,rommel.vergara@apecschools.edu.ph,"Learning Facilitator",,,APEC,"Teaching Delivery and Support",Main,,,,,,,0,0,0,"0000-00-00 00:00:00"
26627,"Rongie Paul",Sadia,NA,,9995277998,rongie.sadia@apecschools.edu.ph,"Learning Facilitator",,,APEC,"Teaching Delivery and Support",Main,,,,,,,0,0,0,"0000-00-00 00:00:00"
26625,Rovena,Paghunasan,NA,,9222377016,rovena.paghunasan@apecschools.edu.ph,"Learning Facilitator",,,APEC,"Teaching Delivery and Support",Main,,,,,,,0,0,0,"0000-00-00 00:00:00"
26574,"Rowena Flor",Olavario,NA,,9283084632,rowena.olavario@apecschools.edu.ph,"School Head",,,APEC,"School Operations",Main,,,,,,,0,0,0,"0000-00-00 00:00:00"
26544,"Roxanne Carmen",Palle,NA,,9151285267,roxanne.palle@apecschools.edu.ph,"Learning Facilitator",,,APEC,"Teaching Delivery and Support",Main,,,,,,,0,0,0,"0000-00-00 00:00:00"
26633,Rubylin,Lorenzo,NA,,9098379610,rubilyn.lorenzo@apecschools.edu.ph,"Learning Facilitator",,,APEC,"Teaching Delivery and Support",Main,,,,,,,0,0,0,"0000-00-00 00:00:00"
26500,Ruel,Amoranto,NA,,9083000067,ruel.amoranto@apecschools.edu.ph,"School Head",,,APEC,"School Operations",Main,,,,,,,0,0,0,"0000-00-00 00:00:00"
26549,Ryan,Leocario,NA,,9054150224,ryan.leocario@apecschools.edu.ph,"Sales Pod Leader",,,APEC,"Sales and Marketing",Main,,,,,,,0,0,0,"0000-00-00 00:00:00"
26668,"Ryan Walter",Sesbreno,NA,,9082111775,ryan.sesbreno@apecschools.edu.ph,"Learning Facilitator",,,APEC,"Teaching Delivery and Support",Main,,,,,,,0,0,0,"0000-00-00 00:00:00"
26658,Sajid,Coloma,NA,,9279717196,sajid.coloma@apecschools.edu.ph,"Learning Facilitator",,,APEC,"Teaching Delivery and Support",Main,,,,,,,0,0,0,"0000-00-00 00:00:00"
26565,"Salvador Ian",Flores,NA,,9328544753,ian.flores@apecschools.edu.ph,"Sales Operations Lead",,,APEC,"Sales and Marketing",Main,,,,,,,0,0,0,"0000-00-00 00:00:00"
26476,"Shaina Albertine",Tantuico,NA,,9173686301,shaina.tantuico@apecschools.edu.ph,"Content Expert",,,APEC,"Curriculum and Content Development",Main,,,,,,,0,0,0,"0000-00-00 00:00:00"
26581,"Shaira Maree",Bautista,NA,,9359848896,shaira.bautista@apecschools.edu.ph,"Learning Facilitator",,,APEC,"Teaching Delivery and Support",Main,,,,,,,0,0,0,"0000-00-00 00:00:00"
26598,"Sheila Marie",Ildefonso,NA,,9354425155,sheila.ildefonso@apecschools.edu.ph,"Learning Facilitator",,,APEC,"Teaching Delivery and Support",Main,,,,,,,0,0,0,"0000-00-00 00:00:00"
26526,"Sheryl Ann",Samson,NA,,9175529404,sheryl.samson@apecschools.edu.ph,"Compensation and Benefits Office",,,APEC,"Human Resources",Main,,,,,,,0,0,0,"2015-07-28 16:59:24"
26585,"Shiela Marie",Goco,NA,,9357531935,shiela.goco@apecschools.edu.ph,"Learning Facilitator",,,APEC,"Teaching Delivery and Support",Main,,,,,,,0,0,0,"0000-00-00 00:00:00"
26610,Shirley,Pascual,NA,,9059022010,shirley.pascual@apecschools.edu.ph,"Learning Facilitator",,,APEC,"Teaching Delivery and Support",Main,,,,,,,0,0,0,"0000-00-00 00:00:00"
26619,Shirly,Fajarito,NA,,9055150876,shirly.fajarito@apecschools.edu.ph,"School Head",,,APEC,"School Operations",Main,,,,,,,0,0,0,"2015-07-30 09:18:58"
26613,"Stephanie Anne",Flores,NA,,9064980024,stephanie.flores@apecschools.edu.ph,"Learning Facilitator",,,APEC,"Teaching Delivery and Support",Main,,,,,,,0,0,0,"0000-00-00 00:00:00"
26584,"Suzanne Mae",Ocampo,NA,,9351222045,suzanne.ocampo@apecschools.edu.ph,"Learning Facilitator",,,APEC,"Teaching Delivery and Support",Main,,,,,,,0,0,0,"0000-00-00 00:00:00"
26571,Theresann,Hernandez,NA,,9276918638,theresann.hernandez@apecschools.edu.ph,"Master Teacher",,,APEC,"Teaching Delivery and Support",Main,,,,,,,0,0,0,"0000-00-00 00:00:00"
26576,Valentina,Gangl,NA,,9155914685,vhal.gangl@apecschools.edu.ph,"Procurement and Projects Officer",,,APEC,"School Deployment",Main,,,,,,,0,0,0,"0000-00-00 00:00:00"
26486,"Yvette Marie",Gaston,NA,,9176290042,yvette.gaston@apecschools.edu.ph,"HR Officer",,,APEC,"Human Resources",Main,,,,,,,0,0,0,"0000-00-00 00:00:00"
26508,Zoilo,Reyes,NA,,9175918687,zoilo.reyes@apecschools.edu.ph,"Senior Learning Facilitator",,,APEC,"Teaching Delivery and Support",Main,,,,,,,0,0,0,"0000-00-00 00:00:00"
26479,"Zosimo, Jr.",Cabrias,NA,,9217535852,zosimo.cabrias@apecschools.edu.ph,"Expert Teacher",,,APEC,"Teaching Delivery and Support",Main,,,,,,,0,0,0,"0000-00-00 00:00:00"
