id,first_name,last_name,middle_initial,gender,mobile_no,email,position,employee_no,blood_type,company,department,address_street,address_line_2,address_city,address_state,address_country,address_zip_code,is_supervisor,is_rescuer,supervisor_id
12,Anelita,Lorenzo,G,,9154789967,lorenzo.mileth@ayalaland.com.ph,"Accounting Supervisor",,,"Ayala Theaters Management, Inc.",Accounting,,,,,,,0,0,68
15,"Anna Gail",Santos,T,,9178879625,santosgail.atmi@ayalamalls.com.ph,"Marketing Supervisor",,,"Ayala Theaters Management, Inc.",Marketing,,,,,,,0,0,266
39,Cynthia,Pagaduan,B,,9175354588,pagaduancynthia.atmi@ayalamalls.com.ph,"Operations Sup/Confidential Secr",,,"Ayala Theaters Management, Inc.",Operations,,,,,,,0,0,101
56,Domingo,Tipon,M,,9152137047,tiponjun.atmi@ayalamalls.com.ph,"Theater Cashier Supervisor",,,"Ayala Theaters Management, Inc.",Operations,,,,,,,0,0,0
68,Emilia,Leosala,P,,9178879706,petiza.emie.atmi@ayalamalls.com.ph,"Finance Control Officer",,,"Ayala Theaters Management, Inc.",Accounting,,,,,,,1,0,0
101,James,Bartolome,O,,9178879669,bartolomejames.atmi@ayalamalls.com.ph,"Booking & Promotions Manager",,,"Ayala Theaters Management, Inc.",Administration,,,,,,,1,0,0
149,Jose,Dadua,P,,9152137043,daduajoe.atmi@ayalamalls.com.ph,"Theater Cashier Supervisor",,,"Ayala Theaters Management, Inc.",Operations,,,,,,,0,0,183
182,Lissa,Alvarado,J,,9178879680,alvaradolissa.atmi@ayalamalls.com.ph,"Marketing Supervisor",,,"Ayala Theaters Management, Inc.",Administration,,,,,,,0,0,101
183,Lito,Rivera,E,,9178879652,riverale.atmi@ayalamalls.com.ph,"Theater Manager",,,"Ayala Theaters Management, Inc.",Operations,,,,,,,1,0,184
184,Louie,Asombrado,M,,9178879638,asombradolm.atmi@ayalamalls.com.ph,"Deputy Operations Manager",,,"Ayala Theaters Management, Inc.",Operations,,,,,,,1,0,0
266,"Rita Jessica",Arda,S,,9178879683,ardars.atmi@ayalamalls.com.ph,"Marketing Manager",,,"Ayala Theaters Management, Inc.",Marketing,,,,,,,1,0,0
273,Rodolfo,Alvarado,P,,9178879641,alvaradoboots.atmi@ayalamalls.com.ph,"Technical Manager",,,"Ayala Theaters Management, Inc.",Operations,,,,,,,0,0,184
293,"Stephanie Barbie",Maceda,M,,9178879687,macedabarbie.atmi@ayalamalls.com.ph,"Marketing Supervisor",,,"Ayala Theaters Management, Inc.",Marketing,,,,,,,0,0,266
