id,first_name,last_name,middle_initial,gender,mobile_no,email,position,employee_no,blood_type,company,department,site,address_street,address_line_2,address_city,address_state,address_country,address_zip_code,is_supervisor,is_rescuer,supervisor_id,date_registered
6,"Aldwin Aris",Gregorio,C,,9175814457,gregorio.aac@ayalainfra.com,Head,,O,"AC Energy and Infra Group","Human Resources And Administrative Services",Makati,"Purple Circle","Goodwill 2",Paranaque,"Metro Manila",Philippines,,0,0,0,"2015-07-28 15:19:32"
55,Dodjie,Lagazo,NA,,9175770899,lagazo.dd@acenergy.com.ph,Head,,,"AC Energy and Infra Group","Legal & Regulatory Affairs",Makati,,,,,,,0,0,0,"0000-00-00 00:00:00"
63,Eileen,Bulaong,R,,9175485036,bulaong.er@acenergy.com.ph,"Senior Staff",,,"AC Energy and Infra Group","Finance & Accounting",Makati,,,,,,,0,0,0,"2015-07-31 16:33:04"
71,Erwin,Locsin,P,,9175360542,locsin.ep@ayala.com.ph,"Vice President",,,"AC Energy and Infra Group","Infrastructure Operations",Makati,,,,,,,0,0,0,"0000-00-00 00:00:00"
73,Fatima,Agbayani,P,,9175649367,agbayani.fp@ayala.com.ph,"Chief Finance Officer",,,"AC Energy and Infra Group","Finance & Accounting",Makati,,,,,,,0,0,0,"0000-00-00 00:00:00"
77,"Gabino Ramon",Mejia,G,,9178670517,mejia.grg@acenergy.com.ph,"Vice President",,,"AC Energy and Infra Group","Energy Operations",Pasig,,,,,,,0,0,0,"0000-00-00 00:00:00"
93,"Ignacio Francisco",Gonzales,K,,9178502107,gonzalez.ik@acenergy.com.ph,Associate,,,"AC Energy and Infra Group","Strategic Management & Communications",Makati,,,,,,,0,0,0,"2015-07-22 17:38:50"
95,Irene,Maranan,S,,9175298339,maranan.is@ayalainfra.com,"Senior Manager",,,"AC Energy and Infra Group","Strategic Management & Communications",Makati,,,,,,,0,0,0,"2015-07-29 09:31:22"
97,"J. Edmond",Garcia,C,,9175339611,garcia.je@acenergy.com.ph,"Chief Finance Officer",,,"AC Energy and Infra Group","Finance & Accounting",Pasig,,,,,,,0,0,0,"0000-00-00 00:00:00"
100,"Jaime Urquijo","Zobel De Ayala",NA,,9175269679,urquijo.jz@ayala.com.ph,Manager,,,"AC Energy and Infra Group","Infrastructure Operations",Makati,,,,,,,0,0,0,"0000-00-00 00:00:00"
104,Janet,Bautista,A,,9175633060,bautista.ja@ayalainfra.com,"Senior Manager",,,"AC Energy and Infra Group","Infrastructure Operations",Makati,,,,,,,0,0,0,"2015-07-29 13:01:52"
116,"Jayme Grace","Dela Cruz",C,,9178482376,chua.jgy@acenergy.com.ph,"Senior Manager",,,"AC Energy and Infra Group","Energy Operations",Makati,,,,,,,0,0,0,"2015-07-21 17:02:51"
125,Jennifer,Bascoguin,M,,9178728388,bascoguin.jm@acenergy.com.ph,"Administrative Asst.",,,"AC Energy and Infra Group","Human Resources And Administrative Services",Main,,,,,,,0,0,0,"0000-00-00 00:00:00"
140,"John Eric",Francia,T,,9175266314,francia.jet@ayala.com.ph,"President & Ceo",,,"AC Energy and Infra Group","Office Of The President",Makati,,,,,,,0,0,0,"0000-00-00 00:00:00"
151,"Jose Manolo",Abad,E,,9178501216,abad.jme@ayalainfra.com,"Senior Manager",,,"AC Energy and Infra Group","Strategic Management & Communications",Makati,,,,,,,0,0,0,"2015-11-04 13:51:03"
152,Joseph,Canlas,C,,9178155034,canlas.jc@ayalainfra.com,Manager,,,"AC Energy and Infra Group","Infrastructure Operations",Muntinlupa,,,,,,,0,0,0,"0000-00-00 00:00:00"
176,"Leah Amor",Acuna,B,,9178052468,acuna.lab@acenergy.com.ph,Associate,,,"AC Energy and Infra Group","Human Resources And Administrative Services",Makati,,,,,,,0,0,0,"0000-00-00 00:00:00"
189,"Ma. Amelia",Cayaba,S,,9178557473,cayaba.mas@ayala.com.ph,"Executive Assistant",,,"AC Energy and Infra Group","Office Of The President",Makati,,,,,,,0,0,0,"2015-07-24 09:24:35"
195,"Marc Daniel",Dy,K,,9178635477,dy.mdk@acenergy.com.ph,Manager,,,"AC Energy and Infra Group","Energy Operations",Makati,,,,,,,0,0,0,"0000-00-00 00:00:00"
196,"Marco Arnold",Duay,D,,9175659747,duay.mad@ayala.com.ph,Manager,,,"AC Energy and Infra Group","Finance & Accounting",Makati,,,,,,,0,0,0,"0000-00-00 00:00:00"
224,"Maybelle Blaine","Ocampo Tan",C,,9175143484,tan.bo@acenergy.com.ph,Associate,,,"AC Energy and Infra Group","Strategic Management & Communications",Makati,,,,,,,0,0,0,"2015-07-28 15:36:13"
225,Melito,Cruz,A,,9178132690,cruz.ma@ayalainfra.com,"Senior Manager",,,"AC Energy and Infra Group","Infrastructure Operations",Makati,,,,,,,0,0,0,"0000-00-00 00:00:00"
239,"Noel Eli",Kintanar,B,,9178415755,kintanar.neb@ayalainfra.com,"Chief Operating Officer",,,"AC Energy and Infra Group","Infrastructure Operations",Makati,,,,,,,0,0,0,"0000-00-00 00:00:00"
240,Norma,Torres,P,,9178994103,torres.np@ayala.com.ph,Head,,,"AC Energy and Infra Group","Strategic Management & Communications",Makati,,,,,,,0,0,0,"0000-00-00 00:00:00"
242,Patrice,Clausse,R,,9175536371,clausse.pr@ayala.com.ph,"Chief Operating Officer",,,"AC Energy and Infra Group","Energy Operations",Makati,,,,,,,0,0,0,"2015-12-01 17:35:54"
249,"Princess Marie",Tayag,A,,9175898804,tayag.pma@acenergy.com.ph,"Senior Manager",,,"AC Energy and Infra Group","Finance & Accounting",Makati,,,,,,,0,0,0,"0000-00-00 00:00:00"
257,Ramon,Cabazor,D,,9175505464,cabazor.rd@acenergy.com.ph,"Technical Manager",,,"AC Energy and Infra Group","Energy Operations",Pasig,,,,,,,0,0,0,"0000-00-00 00:00:00"
264,Richardson,"Delos Santos",C,,9176234901,delossantos.rc@acenergy.com.ph,Manager,,B+,"AC Energy and Infra Group","Internal Audit",Makati,"Lawton Avenue","413 Hermosa Bldg. Bonifacio Heights Residences","Taguig City","Metro Manila",Philippines,,0,0,0,"2015-11-09 11:18:41"
265,Riolita,Inocencio,D,,9175000746,inocencio.rc@ayalainfra.com,"Senior Manager",,,"AC Energy and Infra Group","Legal & Regulatory Affairs",Makati,,,,,,,0,0,0,"2015-07-31 10:38:28"
274,"Ronald Luis",Goseco,S,,9175222532,goseco.rs@ayala.com.ph,"Chief Finance Officer",,,"AC Energy and Infra Group","Finance & Accounting",Makati,,,,,,,0,0,0,"0000-00-00 00:00:00"
291,Shulah,Dacmay,B,,9157637451,dacmay.sb@ayalainfra.com,Associate,,,"AC Energy and Infra Group","Finance & Accounting",Makati,,,,,,,0,0,0,"0000-00-00 00:00:00"
302,"Vicente Francis",Arana,L,,9175317560,arana.vl@acenergy.com.ph,"Chief Finance Officer",,,"AC Energy and Infra Group","Finance & Accounting",Taguig,,,,,,,0,0,0,"0000-00-00 00:00:00"
305,Wilma,Zapata,P,,9178441260,zapata.wp@ayalainfra.com,"Senior Manager",,,"AC Energy and Infra Group","Finance & Accounting",Makati,,,,,,,0,0,0,"0000-00-00 00:00:00"
