id,first_name,last_name,middle_initial,gender,mobile_no,email,position,employee_no,blood_type,company,department,site,address_street,address_line_2,address_city,address_state,address_country,address_zip_code,is_supervisor,is_rescuer,supervisor_id,date_registered
8735,Aaron,Manalang,Y,M,9175511540,manalang.ron@sedahotels.com,"Executive Assistant Manager",,0,"SEDA Hotels","Executive Office",Main,,,,,Philippines,,0,0,0,"0000-00-00 00:00:00"
8754,"Abbigail Jane",Ginez,D,M,9276259453,ginez.abbigail@sedahotels.com,"Reservations Officer",,0,"SEDA Hotels",Reservations,Main,"#92 Kingfisher Ave. Baybreeze Exec.","Vill. Brgy. San Miguel","Taguig City",,Philippines,1636,0,0,0,"2015-07-23 09:45:22"
8732,"Abe Josephine",Lauron,S,M,9156485147,lauron.aj@sedahotels.com,"Events Associate",,0,"SEDA Hotels","Sales and Marketing",Main,,,,,Philippines,,0,0,0,"0000-00-00 00:00:00"
8725,"Abigail Joy","Dela Cruz",D,M,9175864931,delacruz.abigail@sedahotels.com,"Sales Executive - Events",,0,"SEDA Hotels","Sales and Marketing",Main,,,,,Philippines,,0,0,0,"0000-00-00 00:00:00"
8721,Adamelle,Borja,B,M,9175652185,borja.amil@sedahotels.com,"HR Officer",,0,"SEDA Hotels","Human Resources",Main,,,,,Philippines,,0,0,0,"2015-07-22 16:35:00"
8821,Alexis,Lopez,M,M,9274278730,a17lopez@gmail.com,"Senior Room Attendant",,0,"SEDA Hotels",Housekeeping,Main,,,,,Philippines,,0,0,0,"0000-00-00 00:00:00"
8764,Ambaic,Andoy,J,M,9395072256,kitchen.dvo@sedahotels.com,"Chef de Partie",,0,"SEDA Hotels",Culinary,Main,,,,,Philippines,,0,0,0,"0000-00-00 00:00:00"
8765,Amomas,Flores,K,M,9177148103,amomas.kimberly@sedahotels.com,"Income Auditor",,0,"SEDA Hotels",,Main,,,,,Philippines,,0,0,0,"0000-00-00 00:00:00"
8766,Andajao,Daquigan,J,M,9989713274,andajao.joan@sedahotels.com,"Front Office Supervisor",,0,"SEDA Hotels","Front Office",Main,,,,,Philippines,,0,0,0,"0000-00-00 00:00:00"
8756,Andrew,Manabat,V,M,9153257374,manabat.andrew@sedahotels.com,"Commis 3",,0,"SEDA Hotels",Culinary,Main,,,,,Philippines,,0,0,0,"0000-00-00 00:00:00"
8824,"Angela Grace",Pupos,A,M,9178651161,pupos.angela@sedahotels.com,"Sales Executive",,0,"SEDA Hotels","Sales and Marketing",Main,,,,,Philippines,,0,0,0,"0000-00-00 00:00:00"
8819,"Angela Joyce",Laxamana,T,M,9178664354,angelalaxamana18@gmail.com,"Front Desk Officer",,0,"SEDA Hotels","Front Office",Main,,,,,Philippines,,0,0,0,"0000-00-00 00:00:00"
8810,"Angela Patricia",Cruz,S,M,9178328427,cruz.angela@sedahotels.com,"Sales Executive",,0,"SEDA Hotels","Sales & Marketing",Main,,,,,Philippines,,0,0,0,"0000-00-00 00:00:00"
8834,Angelyn,Segovia,G,M,9173295646,humanresources.nuv@sedahotels.com,"HR Assistant",,0,"SEDA Hotels","Human Resources",Main,"Sto. Nino St.",,"Paranaque City",,Philippines,,0,0,0,"2015-07-23 08:26:51"
8835,"Anika Bianca",Lotivio,D,M,9496217947,lotivio.anika@sedahotels.com,"Front Desk Officer",,0,"SEDA Hotels","Front Office",Main,,,,,Philippines,,0,0,0,"0000-00-00 00:00:00"
8716,"Ann Clarisse",Aquino,S,M,9175301326,aquino.ann@sedahotels.com,"F&B Supervisor",,0,"SEDA Hotels","Food and Beverage",Main,,,,,Philippines,,0,0,0,"0000-00-00 00:00:00"
8836,Armand,Angeles,M,M,9173294480,angeles.armand@sedahotels.com,"Front Office Manager",,0,"SEDA Hotels","Front Office",Main,,,,,Philippines,,0,0,0,"2015-07-23 08:51:29"
8739,Arnel,Nocon,G,M,9178344810,nocon.arnel@sedahotels.com,"Security Manager",,0,"SEDA Hotels",Security,Main,"L6 B14 Austria St. ","Southville,  Sto. Tomas",BiÃ±an,Laguna,Philippines,,0,0,0,"2015-07-23 14:33:48"
8752,Arnel,Vergara,D,M,9055558030,vergara.arnel@sedahotels.com,"Income Auditor",,0,"SEDA Hotels",,Main,,,,,Philippines,,0,0,0,"0000-00-00 00:00:00"
8837,"Arnellie Mae",Escoto,A,M,9163142427,escoto.mae@sedahotels.com,"Reservations Officer",,0,"SEDA Hotels",Reservations,Main,,,,,Philippines,,0,0,0,"2015-07-24 09:30:07"
8838,Arnold,Pruna,J,M,9173295509,pruna.arnold@sedahotels.com,"Asst. Executive Housekeeper",,0,"SEDA Hotels",Housekeeping,Main,,,,,Philippines,,0,0,0,"0000-00-00 00:00:00"
8814,"Aubrey Genise",Enanor,A,M,9178148351,enanor.aubrey@sedahotels.com,"HR Assistant",,0,"SEDA Hotels","Human Resources",Main,,,,,Philippines,,0,0,0,"0000-00-00 00:00:00"
8767,Bangot,Lopez,J,M,9332273576,bangot.junecarlo@yahoo.com,"Front Desk Officer",,0,"SEDA Hotels","Front Office",Main,,,,,Philippines,,0,0,0,"0000-00-00 00:00:00"
8768,Barlovento,Belocura,A,M,9077790996,barlovento.arvin@yahoo.com,"Commis 1",,0,"SEDA Hotels",Culinary,Main,,,,,Philippines,,0,0,0,"0000-00-00 00:00:00"
8769,Bartolome,Jarabelo,P,M,9178148180,bartolome.pamels@sedahotels.com,"HR Assistant",,0,"SEDA Hotels","Human Resources",Main,,,,,Philippines,,0,0,0,"0000-00-00 00:00:00"
8813,Benjamin,Diez,A,M,9175775911,diez.benjamin@sedahotels.com,"Housekeeping Supervisor",,0,"SEDA Hotels",Housekeeping,Main,,,,,Philippines,,0,0,0,"0000-00-00 00:00:00"
8770,Bihag,Collado,F,M,9177720778,muffet_002@yahoo.com,"Front Desk Officer",,0,"SEDA Hotels","Front Office",Main,,,,,Philippines,,0,0,0,"0000-00-00 00:00:00"
8815,Brendo,Escario,V,M,9069318028,brendoescario@yahoo.com.ph,"F&B Associate",,0,"SEDA Hotels","Food and Beverage",Main,,,,,Philippines,,0,0,0,"0000-00-00 00:00:00"
8727,"Bryan Aaron",Enriquez,D,M,9178311384,enriquez.bryan@sedahotels.com,"Sales Executive",,0,"SEDA Hotels","Sales and Marketing",Main,,,,,Philippines,,0,0,0,"2015-09-12 10:26:33"
8771,Burgos,Briones,G,M,9178516917,burgos.genevieve@sedahotels.com,"Front Office Manager",,0,"SEDA Hotels","Front Office",Main,,,,,Philippines,,0,0,0,"0000-00-00 00:00:00"
8772,Cabang,Etdang,C,M,9427692410,cabang.christian@sedahotels.com,"Duty Engineer",,0,"SEDA Hotels",Engineering,Main,,,,,Philippines,,0,0,0,"0000-00-00 00:00:00"
8773,Cahate,Librea,D,M,9176541844,chefdhanli@yahoo.com,"Commis 1",,0,"SEDA Hotels",Culinary,Main,,,,,Philippines,,0,0,0,"0000-00-00 00:00:00"
8774,Capayle,Maguiso,R,M,9178148183,capayle.reymar@sedahotels.com,"Purchasing Assistant",,0,"SEDA Hotels",,Main,,,,,Philippines,,0,0,0,"0000-00-00 00:00:00"
8761,"Carlos Miguel",Pilapil,M,M,9053367005,carlosmiguelpilapil@rocketmail.com,"Front Desk Officer",,0,"SEDA Hotels","Front Office",Main,,,,,Philippines,,0,0,0,"0000-00-00 00:00:00"
8832,Carol,Valdez,V,M,9178386134,valdez.carol@sedahotels.com,"Director of Sales",,0,"SEDA Hotels","Sales & Marketing",Main,,,,,Philippines,,0,0,0,"0000-00-00 00:00:00"
8738,"Celina Isabel",Micua,A,M,9176225371,micua.celina@sedahotels.com,"Reservations Officer",,0,"SEDA Hotels",Reservations,Main,,,,,Philippines,,0,0,0,"2015-07-23 14:00:24"
8839,"Chino Romeo",Miranda,B,M,9175520783,chinoromeomiranda@yahoo.com,"Front Desk Officer",,0,"SEDA Hotels","Front Office",Main,,,,,Philippines,,0,0,0,"0000-00-00 00:00:00"
8840,Christian,Segovia,S,M,9173295502,segovia.christian@sedahotels.com,"F&B Manager",,0,"SEDA Hotels","Food and Beverage",Main,,,,,Philippines,,0,0,0,"0000-00-00 00:00:00"
8841,"Christian Philip",Dacanay,C,M,9173295411,dacanay.christian@sedahotels.com,Receiver/Storekeeper,,0,"SEDA Hotels",,Main,,,,,Philippines,,0,0,0,"2015-07-23 13:42:07"
8842,"Christopher Patrick",Lazaro,C,M,9178004875,cpclazaro@yahoo.com,"Front Desk Officer",,0,"SEDA Hotels","Front Office",Main,,,,,Philippines,,0,0,0,"0000-00-00 00:00:00"
8729,"Clarissa Marie",Guevara,S,M,9175840354,guevaracms@yahoo.com,"Front Desk Officer",,0,"SEDA Hotels","Front Office",Main,,,,,Philippines,,0,0,0,"0000-00-00 00:00:00"
8843,"Colleen Jill",Leviste,S,M,9175536915,leviste.colleen@sedahotels.com,"Asst. HR Manager",,0,"SEDA Hotels","Human Resources",Main,"#17 Ipil St.","Progressive Village, Tagapo","Sta. Rosa City",Laguna,Philippines,4026,0,0,0,"2015-07-23 08:24:41"
8775,Cunanan,Molina,P,M,9178517335,cunanan.patrick@sedahotels.com,"IT Officer",,0,"SEDA Hotels",,Main,,,,,Philippines,,0,0,0,"0000-00-00 00:00:00"
8742,"Cyrill Emmanuel",Prudente,A,M,9064905405,prudente.cyrill@sedahotels.com,Storekeeper,,0,"SEDA Hotels",,Main,,,,,Philippines,,0,0,0,"0000-00-00 00:00:00"
8844,Danilo,Gallardo,D,M,9173295546,gallardo.danilo@sedahotels.com,"Executive Sous Chef",,0,"SEDA Hotels",Culinary,Main,,,,,Philippines,,0,0,0,"0000-00-00 00:00:00"
8753,Denmar,Alarcon,P,M,9178344828,alarcon.denmar@sedahotels.com,"Assistant Engineering Manager",,0,"SEDA Hotels",Engineering,Main,,,,,Philippines,,0,0,0,"0000-00-00 00:00:00"
8776,Dimaano,Martinez,A,M,9178517322,dimaano.faith@sedahotels.com,"Communications Officer",,0,"SEDA Hotels","Sales and Marketing",Main,,,,,Philippines,,0,0,0,"0000-00-00 00:00:00"
8827,Donna,Remerata,D,M,9173237758,remerata.donna@sedahotels.com,"General Cashier",,0,"SEDA Hotels",,Main,,,,,Philippines,,0,0,0,"0000-00-00 00:00:00"
8806,Edgardo,Bruan,P,M,9178964357,bruan.edgardo@sedahotels.com,"HR Manager",,0,"SEDA Hotels","Human Resources",Main,,,,,Philippines,,0,0,0,"0000-00-00 00:00:00"
8746,"Edwin Aldrin",Regnim,N,M,9178659630,regnim.edwin@sedahotels.com,"Rooms Controller",,0,"SEDA Hotels",Housekeeping,Main,,,,,Philippines,,0,0,0,"0000-00-00 00:00:00"
8730,Eleonor,Honra,F,M,9178624366,honra.leng@sedahotels.com,"Purchasing Manager",,0,"SEDA Hotels",,Main,,,,,Philippines,,0,0,0,"0000-00-00 00:00:00"
8736,Elmer,Martinez,O,M,9175776318,elmermartinez.seda@yahoo.com,"Housekeeping Supervisor",,0,"SEDA Hotels",Housekeeping,Main,,,,,Philippines,,0,0,0,"0000-00-00 00:00:00"
8801,Emilyn,Baclayo,T,M,9178148343,purchasing.cdo@sedahotels.com,"Purchasing Assistant",,0,"SEDA Hotels",,Main,,,,,Philippines,,0,0,0,"0000-00-00 00:00:00"
8828,"Emman Carl",Rubin,P,M,9175723755,rubin.emman@sedahotels.com,"Income Auditor",,0,"SEDA Hotels",,Main,,,,,Philippines,,0,0,0,"0000-00-00 00:00:00"
8749,Emmanuel,"San Luis",R,M,9178408177,sanluis.manny@sedahotels.com,"Assistant Director of Human Reso",,0,"SEDA Hotels","Human Resources",Main,,,,,Philippines,,0,0,0,"2015-07-23 08:28:07"
8747,Enriquito,Rodriguez,M,M,9157361025,baker.chief@yahoo.com,"Chef de Partie",,0,"SEDA Hotels",Culinary,Main,,,,,Philippines,,0,0,0,"0000-00-00 00:00:00"
8733,"Erica Paule",Lazatin,S,M,9178329951,lazatin.erica@sedahotels.com,"Sales Manager",,0,"SEDA Hotels","Sales and Marketing",Main,,,,,Philippines,,0,0,0,"0000-00-00 00:00:00"
8811,Erik,Dalagan,V,M,9351593719,erikdalagan@gmail.com,"Senior F&B Service Associate",,0,"SEDA Hotels","Food and Beverage",Main,,,,,Philippines,,0,0,0,"0000-00-00 00:00:00"
8845,"Erika Denise",Magtoto,M,M,9178372501,magtoto.denise@sedahotels.com,"Communications Officer",,0,"SEDA Hotels","Sales and Marketing",Main,,,,,Philippines,,0,0,0,"0000-00-00 00:00:00"
8846,"Erin Mae",Songalia,R,M,9173295357,songalia.erin@sedahotels.com,"Assistant Director of Sales",,0,"SEDA Hotels","Sales and Marketing",Main,,,,,Philippines,,0,0,0,"0000-00-00 00:00:00"
8718,Erwin,Avila,G,M,9267167109,avilaerwin@rocketmail.com,"Housekeeping Attendant",,0,"SEDA Hotels",Housekeeping,Main,,,,,Philippines,,0,0,0,"0000-00-00 00:00:00"
8777,Escabarte,Baguitan,M,M,9178516962,escabarte.maillen@sedahotels.com,"Sales and Banquet Coordinator",,0,"SEDA Hotels","Sales and Marketing",Main,,,,,Philippines,,0,0,0,"0000-00-00 00:00:00"
8778,Española,Rodriguez,R,M,9435230407,xanne_jam26@yahoo.com,"Front Desk Officer",,0,"SEDA Hotels","Front Office",Main,,,,,Philippines,,0,0,0,"0000-00-00 00:00:00"
8829,Estrellita,Sabanal,A,M,9353947598,sabanal.estrellita@sedahotels.com,"Cost Controller",,0,"SEDA Hotels",,Main,,,,,Philippines,,0,0,0,"0000-00-00 00:00:00"
8847,Faye,Machado,G,M,9327565156,machado_faye@ymail.com,"Front Desk Officer",,0,"SEDA Hotels","Front Office",Main,,,,,Philippines,,0,0,0,"0000-00-00 00:00:00"
8848,Felimon,Capa,S,M,9173295536,capa.felimon@sedahotels.com,"Security Manager",,0,"SEDA Hotels",Security,Main,"No 19 ","Bliss Biga 2",Silang,Cavite,Philippines,,0,0,0,"2015-07-23 14:41:28"
8817,"Femy Katerina",Garcia,C,M,9159970039,femykaterinagarcia@yahoo.com,"Front Desk Officer",,0,"SEDA Hotels","Front Office",Main,,,,,Philippines,,0,0,0,"0000-00-00 00:00:00"
8728,Ferdinand,Gatchalian,A,M,9213781222,gatchalian.ferdie@sedahotels.com,"Telephone Operator Supervisor",,0,"SEDA Hotels","Front Office",Main,,,,,Philippines,,0,0,0,"0000-00-00 00:00:00"
8779,Flores,Garcia,G,M,9178168799,flores.giovanna@sedahotels.com,"Sous Chef",,0,"SEDA Hotels",Culinary,Main,,,,,Philippines,,0,0,0,"0000-00-00 00:00:00"
8737,"Francis TJ",Mesina,V,M,9178962329,tjmesina@ymail.com,"Housekeeping Supervisor",,0,"SEDA Hotels",Housekeeping,Main,,,,,Philippines,,0,0,0,"0000-00-00 00:00:00"
8874,"Fritchel Jean",Mendiola,B,M,9108450787,mendiola.fritchel@sedahotels.com,"HR Assistant",,0,"SEDA Hotels","Human Resources",Main,,,,,Philippines,,0,0,0,"0000-00-00 00:00:00"
8743,"Genevieve Gay",Puno,M,M,9178328425,puno.genny@sedahotels.com,"Communications Manager",,0,"SEDA Hotels","Sales and Marketing",Main,,,,,Philippines,,0,0,0,"0000-00-00 00:00:00"
8780,Geonzon,Ras,C,M,9327399626,geonzon.charito@sedahotels.com,"General Cashier",,0,"SEDA Hotels",,Main,,,,,Philippines,,0,0,0,"0000-00-00 00:00:00"
8849,Gilbert,Paño,A,M,9391325976,pano.gilbert@sedahotels.com,"Cost Controller",,0,"SEDA Hotels",,Main,,,,,Philippines,,0,0,0,"0000-00-00 00:00:00"
8781,Hidalgo,Lapiz,L,M,9178168981,hidalgo.lakanni@sedahotels.com,"Security Manager",,0,"SEDA Hotels",Security,Main,,,,,Philippines,,0,0,0,"0000-00-00 00:00:00"
8760,Hilario,Tresballes,I,M,9395938890,larry_tresballes@yahoo.com.ph,"Kitchen Technician",,0,"SEDA Hotels",Engineering,Main,,,,,Philippines,,0,0,0,"0000-00-00 00:00:00"
8850,Ingrid,Tragico,S,M,9173295403,tragico.ingrid@sedahotels.com,"Rooms Controller",,0,"SEDA Hotels",Housekeeping,Main,,,,,Philippines,,0,0,0,"0000-00-00 00:00:00"
8825,"Irish Katherine",Rafal,L,M,9363350101,irishrafal@ymail.com,"Commis II",,0,"SEDA Hotels",Culinary,Main,,,,,Philippines,,0,0,0,"0000-00-00 00:00:00"
8717,Isagani,Austria,C,M,9204375703,austria.isagani@sedahotels.com,"Cost Controller",,0,"SEDA Hotels",,Main,,,,,Philippines,,0,0,0,"0000-00-00 00:00:00"
8782,Isip,Gibe,E,M,9175726701,isip.elaine@sedahotels.com,"Asst. Reservations Manager",,0,"SEDA Hotels",Reservations,Main,,,,,Philippines,,0,0,0,"0000-00-00 00:00:00"
8851,"Ivy Loren",Magadia,G,M,9157712022,magadia.ivy@sedahotels.com,"Senior Waitress",,0,"SEDA Hotels","Food and Beverage",Main,,,,,Philippines,,0,0,0,"2015-07-24 16:59:14"
8808,Jade,Burden,M,M,9771785375,burden.jade@sedahotels.com,"Sous Chef",,0,"SEDA Hotels",Culinary,Main,,,,,Philippines,,0,0,0,"0000-00-00 00:00:00"
8871,Jansen,Suropia,M,M,9152302533,suropia.jansen@sedahotels.com,"Asst. F & B Manager",,0,"SEDA Hotels","Food and Beverage",Main,,,,,Philippines,,0,0,0,"0000-00-00 00:00:00"
8852,Jeffrey,Enriquez,M,M,9178172703,enriquez.jeffrey@sedahotels.com,"General Manager",,0,"SEDA Hotels","Executive Office",Main,,,,,Philippines,,0,0,0,"2015-07-23 14:55:51"
8853,Jennifer,Baybay,M,M,9178074728,baybay.jennifer@sedahotels.com,"General Accountant",,0,"SEDA Hotels",,Main,"Magallanes Drive","Maharlika East","Tagaytay City",Cavite,Philippines,4120,0,0,0,"2015-07-23 13:47:25"
8804,Jeraldine,Bartolata,C,M,9177063348,bartolata.jeraldine@sedahotels.com,"Front Desk Officer",,0,"SEDA Hotels","Front Office",Main,,,,,Philippines,,0,0,0,"0000-00-00 00:00:00"
8854,Jhommar,Genesis,O,M,9173294712,genesis.jhommar@sedahotels.com,"Asst. Engineering Manager",,0,"SEDA Hotels",Engineering,Main,"1162 San Pablo Street,","Barangay 1",Carmona,Cavite,Philippines,4116,0,0,0,"2015-07-23 14:49:26"
8823,Jimmy,Navaja,B,M,9051978946,jimmy.navaja@yahoo.com.ph,"Commis III",,0,"SEDA Hotels",Culinary,Main,,,,,Philippines,,0,0,0,"0000-00-00 00:00:00"
8855,Joel,Roxas,B,M,9173295658,roxas.joel@sedahotels.com,"Asst. Financial Controller",,0,"SEDA Hotels",,Main,,,,,Philippines,,0,0,0,"0000-00-00 00:00:00"
8757,"Johanna Francesca",Macabasco,D,M,9194792739,mabuhayangpilipinasmabuhay@yahoo.com,"Front Desk Officer",,0,"SEDA Hotels","Front Office",Main,,,,,Philippines,,0,0,0,"0000-00-00 00:00:00"
8856,"John Hermie",Dael,R,M,9176244684,dael.john@sedahotels.com,"Sales Executive",,0,"SEDA Hotels","Sales and Marketing",Main,,,,,Philippines,,0,0,0,"0000-00-00 00:00:00"
8857,"Jonah John",Capitan,H,M,9173295594,capitan.jonah@sedahotels.com,"IT Officer",,0,"SEDA Hotels",,Main,,"467 Sucol",Calamba,Laguna,Philippines,4027,0,0,0,"2015-07-23 14:39:55"
8714,"Jose Luis",Abellar,B,M,9178329956,abellar.luis@sedahotels.com,"Sales Manager",,0,"SEDA Hotels","Sales and Marketing",Main,,,,,Philippines,,0,0,0,"2015-07-23 15:26:06"
8818,"Jose Ma.",Gayoso,G,M,9178148342,gayoso.mike@sedahotels.com,"F&B Manager",,0,"SEDA Hotels","Food and Beverage",Main,,,,,Philippines,,0,0,0,"0000-00-00 00:00:00"
8826,"Jose Mari",Ramos,N,M,9175775915,ramos.jose@sedahotels.com,"Engineering Coordinator",,0,"SEDA Hotels",Engineering,Main,,,,,Philippines,,0,0,0,"0000-00-00 00:00:00"
8713,"Joseph Patrick",Abella,M,M,9178756762,abella.jopet@sedahotels.com,"Assistant Director of Sales",,0,"SEDA Hotels","Sales and Marketing",Main,,,,,Philippines,,0,0,0,"0000-00-00 00:00:00"
8720,Joy,Benedicto,L,M,9176285123,benedicto.joy@sedahotels.com,"Assistant Reservations Manager",,0,"SEDA Hotels",Reservations,Main,,,,,Philippines,,0,0,0,"2015-07-23 09:47:51"
8783,Kapulong,Ventura,K,M,9176760474,kapulong.kennedy@sedahotels.com,"Hotel Manager",,0,"SEDA Hotels","Executive Office",Main,,,,,Philippines,,0,0,0,"0000-00-00 00:00:00"
8858,"Karen Joyce",Manarin,d,M,9173211710,karenjoycemanarin@gmail.com,"Front Desk Officer",,0,"SEDA Hotels","Front Office",Main,,,,,Philippines,,0,0,0,"0000-00-00 00:00:00"
8869,Keziah,Guevara,A,M,9089658285,guevara.keziah@sedahotels.com,"HR Manager",,0,"SEDA Hotels","Human Resources",Main,,,,,Philippines,,0,0,0,"0000-00-00 00:00:00"
8859,"Krizia Paula",Chew,D,M,9178069889,reservations.nuv@sedahotels.com,"Reservations Agent",,0,"SEDA Hotels","Sales & Marketing",Main,,,,,Philippines,,0,0,0,"2015-07-23 14:18:15"
8731,Laura,Jimenez,C,M,9178772089,jimenez.laura@sedahotels.com,"F&B Manager",,0,"SEDA Hotels","Food and Beverage",Main,,,,,Philippines,,0,0,0,"0000-00-00 00:00:00"
8784,Llanes,Palicte,R,M,9178148167,llanes.ruel@sedahotels.com,"Engineering Manager",,0,"SEDA Hotels",Engineering,Main,,,,,Philippines,,0,0,0,"0000-00-00 00:00:00"
8860,"Ma. Antoinette",Laurena,B,M,9174713624,laurena.maan@sedahotels.com,"Sales Executive",,0,"SEDA Hotels","Sales and Marketing",Main,,,,,Philippines,,0,0,0,"0000-00-00 00:00:00"
8723,"Ma. Cristina",Damagan,B,M,9177024872,chowzy_mariz@yahoo.com,"Front Desk Officer",,0,"SEDA Hotels","Front Office",Main,,,,,Philippines,,0,0,0,"0000-00-00 00:00:00"
8719,"Ma. Joanna",Baltazar,Q,M,9178056440,baltazar.joanna@sedahotels.com,"Senior Telephone Operator",,0,"SEDA Hotels","Front Office",Main,,,,,Philippines,,0,0,0,"0000-00-00 00:00:00"
8724,"Maria Carolyn","De Ocampo",O,M,9178329912,deocampo.maricar@sedahotels.com,"Front Office Manager",,0,"SEDA Hotels","Front Office",Main,,,,,Philippines,,0,0,0,"0000-00-00 00:00:00"
8745,Marilou,Ramirez,A,M,9174115387,ramirez.malou@sedahotels.com,"General Cashier",,0,"SEDA Hotels",,Main,,,,,Philippines,,0,0,0,"0000-00-00 00:00:00"
8734,"Marisha Camille",Lazo,O,M,9175024002,lazo.marisha@sedahotels.com,"Marketing Assistant",,0,"SEDA Hotels","Sales and Marketing",Main,,,,,Philippines,,0,0,0,"2015-07-23 14:39:25"
8830,"Martin Brian",Sarroza,S,M,9272843129,boki_smb@yahoo.com,"Front Desk Officer",,0,"SEDA Hotels","Front Office",Main,,,,,Philippines,,0,0,0,"0000-00-00 00:00:00"
8861,"Mary Chris",Cadiz,O,M,9178989108,cadiz.mary@sedahotels.com,"General Cashier",,0,"SEDA Hotels",,Main,,,,,Philippines,,0,0,0,"2015-07-23 13:44:59"
8875,"Mary Elenelle",Dizon,J,M,9358186898,dizon.ella@sedahotels.com,Storekeeper,,0,"SEDA Hotels",,Main,,,,,Philippines,,0,0,0,"0000-00-00 00:00:00"
8873,"Meg Irene",Molina,Y,M,9399043263,molina.meg@sedahotels.com,"Purchasing Officer",,0,"SEDA Hotels",,Main,,,,,Philippines,,0,0,0,"0000-00-00 00:00:00"
8816,Melinda,Felias,J,M,9399353974,felias.melinda@sedahotels.com,"Income Auditor",,0,"SEDA Hotels",,Main,,,,,Philippines,,0,0,0,"0000-00-00 00:00:00"
8785,Mendoza,Balani,S,M,9101094798,mendoza.silvestre@sedahotels.com,"Housekeeping Supervisor",,0,"SEDA Hotels",Housekeeping,Main,,,,,Philippines,,0,0,0,"0000-00-00 00:00:00"
8786,Mendoza,Garcia,J,M,9177956219,jymenus@gmail.com,"Commis 3",,0,"SEDA Hotels",Kitchen,Main,,,,,Philippines,,0,0,0,"0000-00-00 00:00:00"
8744,Michelle,Quilala,R,M,9175373541,quilala.michelle@sedahotels.com,"Assistant Financial Controller",,0,"SEDA Hotels",,Main,,,,,Philippines,,0,0,0,"0000-00-00 00:00:00"
8833,Mirabel,Villaceran,M,M,9175775910,villaceran.mirabel@sedahotels.com,"RSVN Supervisor",,0,"SEDA Hotels","Sales & Marketing",Main,,,,,Philippines,,0,0,0,"0000-00-00 00:00:00"
8872,Mitchelle,Olegario,O,M,9329155933,olegario.mitchelle@sedahotels.com,"Duty Engineer",,0,"SEDA Hotels",Engineering,Main,,,,,Philippines,,0,0,0,"0000-00-00 00:00:00"
8862,Monserrat,Gonzalez,L,M,9173294246,sales.nuv@sedahotels.com,"Sales Coordinator",,0,"SEDA Hotels","Sales & Marketing",Main,,,,,Philippines,,0,0,0,"0000-00-00 00:00:00"
8787,Namuag,Manansala,K,M,9178517329,namuag.kathleen@sedahotels.com,"Sales Manager",,0,"SEDA Hotels","Sales and Marketing",Main,,,,,Philippines,,0,0,0,"0000-00-00 00:00:00"
8870,Neljun,Guion,L,M,9209645605,guion.neljun@sedahotels.com,"Senior Sales Manager",,0,"SEDA Hotels","Sales and Marketing",Main,,,,,Philippines,,0,0,0,"0000-00-00 00:00:00"
8788,Nemenzo,Salas,A,M,9274073408,nemenzo.arianne@sedahotels.com,"Reservations Officer",,0,"SEDA Hotels","Sales and Marketing",Main,,,,,Philippines,,0,0,0,"0000-00-00 00:00:00"
8863,Niel,Inocentes,E,M,9357416131,inocentes.niel@sedahotels.com,"Night Supervisor",,0,"SEDA Hotels","Front Office",Main,,,,,Philippines,,0,0,0,"0000-00-00 00:00:00"
8807,Noah,Bubod,A,M,9175775837,bubod.noah@sedahotels.com,"Engineering Manager",,0,"SEDA Hotels",Engineering,Main,,,,,Philippines,,0,0,0,"0000-00-00 00:00:00"
8803,Noel,Barrameda,B,M,9175252947,barrameda.noel@sedahotels.com,"Hotel Manager",,0,"SEDA Hotels","Executive Office",Main,,,,,Philippines,,0,0,0,"2015-07-30 16:06:46"
8831,Noren,Tan,T,M,9178329975,tan.noren@sedahotels.com,"Banquet and Events Coordinator",,0,"SEDA Hotels","Sales & Marketing",Main,,,,,Philippines,,0,0,0,"0000-00-00 00:00:00"
8789,Olipas,Mendez,C,M,9235086203,olipas.carmela@sedahotels.com,"Lifestyle and Entertainment Exec",,0,"SEDA Hotels","Front Office",Main,,,,,Philippines,,0,0,0,"0000-00-00 00:00:00"
8864,Oliver,"Dela Torre",L,M,9175234264,delatorre.oliver@sedahotels.com,"Chef de Partie",,0,"SEDA Hotels",Culinary,Main,,,,,Philippines,,0,0,0,"0000-00-00 00:00:00"
8802,"Ophelia Angeli",Barba,G,M,9065735403,barba.ophelia@sedahotels.com,"Reservations Officer",,0,"SEDA Hotels",Reservations,Main,,,,,Philippines,,0,0,0,"0000-00-00 00:00:00"
8741,Patricia,Paderon,A,M,9175095329,paderon.patricia@sedahotels.com,"HR Assistant",,0,"SEDA Hotels","Human Resources",Main,,,,,Philippines,,0,0,0,"0000-00-00 00:00:00"
8762,Pedro,"Mabingnay Jr.",A,M,9175449477,mabingnay.pedro@sedahotels.com,"Duty Engineer",,0,"SEDA Hotels",Engineering,Main,,,,,Philippines,,0,0,0,"0000-00-00 00:00:00"
8790,Prieto,Estrella,I,M,9178148220,prieto.ivy@sedahotels.com,"Banquet Sales Executive",,0,"SEDA Hotels","Sales and Marketing",Main,,,,,Philippines,,0,0,0,"0000-00-00 00:00:00"
8876,"Princess Ann",Grecia,A,M,9162567565,grecia.princess@sedahotels.com,"Sales Coordinator",,0,"SEDA Hotels","Sales and Marketing",Main,,,,,Philippines,,0,0,0,"0000-00-00 00:00:00"
8791,Queddeng,Manalo,R,M,9178735542,queddeng.raymond@sedahotels.com,"Financial Controller",,0,"SEDA Hotels",,Main,,,,,Philippines,,0,0,0,"0000-00-00 00:00:00"
8800,Racelio,Aras,D,M,9066631770,Racelio_aras@yahoo.com,"Commis 1",,0,"SEDA Hotels",Culinary,Main,,,,,Philippines,,0,0,0,"0000-00-00 00:00:00"
8792,Radaza,Rivera,J,M,9178517268,radaza.jancris@sedahotels.com,"Sales Manager",,0,"SEDA Hotels","Sales and Marketing",Main,,,,,Philippines,,0,0,0,"0000-00-00 00:00:00"
8822,Raymund,Mercado,S,M,9175775922,mercado.raymund@sedahotels.com,"IT Officer",,0,"SEDA Hotels",,Main,,,,,Philippines,,0,0,0,"0000-00-00 00:00:00"
8812,Rene,Dandasan,L,M,9178148330,de.cdo@sedahotels.com,"Duty Engineer",,0,"SEDA Hotels","POMEC - Engineering",Main,,,,,Philippines,,0,0,0,"0000-00-00 00:00:00"
8865,"Rex Aaron",Flores,D,M,9157020516,floresrex23@yahoo.com,"Commis III",,0,"SEDA Hotels",Culinary,Main,,,,,Philippines,,0,0,0,"0000-00-00 00:00:00"
8758,Reydel,Piolo,L,M,9392210040,reydelpiolo@hotmail.com,"Bar Supervisor",,0,"SEDA Hotels","Food and Beverage",Main,,,,,Philippines,,0,0,0,"0000-00-00 00:00:00"
8820,Reynaldo,Legata,B,M,9175775923,legata.reynaldo@sedahotels.com,"Asst. Executive Housekeeper",,0,"SEDA Hotels",Housekeeping,Main,,,,,Philippines,,0,0,0,"0000-00-00 00:00:00"
8866,Rodrigo,Arellano,O,M,9274751219,arellanorod19@gmail.com,"Commis III",,0,"SEDA Hotels",Culinary,Main,,,,,Philippines,,0,0,0,"0000-00-00 00:00:00"
8759,Roel,Villanueva,C,M,9065993154,roelvillanueva14@gmail.com,"Housekeeping Supervisor",,0,"SEDA Hotels",Housekeeping,Main,,,,,Philippines,,0,0,0,"0000-00-00 00:00:00"
8750,Rolando,Tugano,A,M,9178699636,cheflandotugano@gmail.com,"Sous Chef",,0,"SEDA Hotels",Culinary,Main,,,,,Philippines,,0,0,0,"0000-00-00 00:00:00"
8726,Romeo,"Dela Cruz",G,M,9156683798,romeo.delacruz98@yahoo.com,"Housekeeping Attendant",,0,"SEDA Hotels",Housekeeping,Main,,,,,Philippines,,0,0,0,"0000-00-00 00:00:00"
8722,Romualdo,Castillo,M,M,9178769648,castillo.romualdo@sedahotels.com,"Executive Chef",,0,"SEDA Hotels",Culinary,Main,,,,,Philippines,,0,0,0,"0000-00-00 00:00:00"
8867,"Romy Nick",Hita,P,M,9298947845,romynick29@yahoo.com,"Commis III",,0,"SEDA Hotels",Culinary,Main,,,,,Philippines,,0,0,0,"0000-00-00 00:00:00"
8868,Ronald,Dakis,Y,M,9753006686,dakis.ronald@sedahotels.com,"Income Auditor",,0,"SEDA Hotels",,Main,,,,,Philippines,,0,0,0,"2015-07-23 13:57:09"
8809,Royny,Caday,A,M,9061155716,roynycaday@yahoo.com.ph,"Senior Room Attendant",,0,"SEDA Hotels",Housekeeping,Main,,,,,Philippines,,0,0,0,"0000-00-00 00:00:00"
8740,Ruth,Ogad,S,M,9334473113,ogad.ruth@sedahotels.com,"General Accountant",,0,"SEDA Hotels",,Main,,,,,Philippines,,0,0,0,"0000-00-00 00:00:00"
8793,Salas,Tolentino,J,M,9436736988,salas.joli@sedahotels.com,"Club Lounge Executive",,0,"SEDA Hotels","Front Office",Main,,,,,Philippines,,0,0,0,"0000-00-00 00:00:00"
8794,Salem,Vejante,J,M,9234426909,salem.jerry@sedahotels.com,"General Accountant",,0,"SEDA Hotels",,Main,,,,,Philippines,,0,0,0,"0000-00-00 00:00:00"
8795,Samson,Preglo,J,M,9994746782,samson.jumar@sedahotels.com,"Cost Control Clerk",,0,"SEDA Hotels",,Main,,,,,Philippines,,0,0,0,"0000-00-00 00:00:00"
8751,Simplicio,Valenzuela,R,M,9398583259,simplychefken@yahoo.com,"Commis 1",,0,"SEDA Hotels",Culinary,Main,,,,,Philippines,,0,0,0,"0000-00-00 00:00:00"
8796,Singson,Ansal,J,M,9236103567,singson.jay@sedahotels.com,"Duty Engineer",,0,"SEDA Hotels",Engineering,Main,,,,,Philippines,,0,0,0,"0000-00-00 00:00:00"
8797,Solano,Castillon,R,M,9469056454,solano.raiza@sedahotels.com,"Rooms Controller",,0,"SEDA Hotels",Housekeeping,Main,,,,,Philippines,,0,0,0,"0000-00-00 00:00:00"
8748,Sonny,Salmasan,C,M,9175776371,salmasan.sonny@sedahotels.com,"IT Officer",,0,"SEDA Hotels",,Main,,,,,Philippines,,0,0,0,"0000-00-00 00:00:00"
8805,"Steffi Cris",Bautista,Q,M,9178964570,bautista.steffi@sedahotels.com,"Sales Executive",,0,"SEDA Hotels","Sales and Marketing",Main,,,,,Philippines,,0,0,0,"0000-00-00 00:00:00"
8763,"Stephanie Marie",Varela,S,M,9173002026,stephaniemariesvarela@gmail.com,"Front Desk Officer",,0,"SEDA Hotels","Front Office",Main,,,,,Philippines,,0,0,0,"0000-00-00 00:00:00"
8798,Tagalog,Mijares,M,M,9178168652,tagalog.marife@sedahotels.com,"Housekeeping Supervisor",,0,"SEDA Hotels",Housekeeping,Main,,,,,Philippines,,0,0,0,"0000-00-00 00:00:00"
8799,Tating,Silverio,F,M,9178517310,franztating@gmail.com,"Housekeeping Attendant",,0,"SEDA Hotels",Housekeeping,Main,,,,,Philippines,,0,0,0,"0000-00-00 00:00:00"
8715,"Vina Michelle",Ambat,D,M,9178966746,ambat.vina@sedahotels.com,"Lifestyle Supervisor",,0,"SEDA Hotels","Front Office",Main,,,,,Philippines,,0,0,0,"0000-00-00 00:00:00"
8755,Welbeth,Alcontin,S,M,9178476910,alcontin.wella@sedahotels.com,"Executive Secretary",,0,"SEDA Hotels","Executive Office",Main,,,,,Philippines,,0,0,0,"0000-00-00 00:00:00"
