id,first_name,last_name,middle_initial,gender,mobile_no,email,position,employee_no,blood_type,company,department,site,address_street,address_line_2,address_city,address_state,address_country,address_zip_code,is_supervisor,is_rescuer,supervisor_id,date_registered
17149,ABEGAIL,ACOSTA,A,,9178403986,aaacosta@bpims.com,"ACCOUNTING OFFICER",,,"BPI/MS INSURANCE CORP.","SPECIALIZED ACCOUNTING",Main,,,,,,,0,0,0,"0000-00-00 00:00:00"
20825,ABEGAIL,GATUMBATO,A,,9227464301,aagatumbato@bpims.com,"SERVICE STAFF",,,"BPI/MS INSURANCE CORP.","MARKETING SERVICES",Main,,,,,,,0,0,0,"0000-00-00 00:00:00"
22011,ABIGAIL,MACABIA,D,,9064850367,admacabia@bpims.com,"SERVICE STAFF",,,"BPI/MS INSURANCE CORP.","SALES SERVICES",Main,,,,,,,0,0,0,"0000-00-00 00:00:00"
24165,ACE,ROILO,M,,9297526421,davaostaff@bpims.com.ph,"SERVICE ASSOCIATE",,,"BPI/MS INSURANCE CORP.","DAVAO BRANCH",Main,,,,,,,0,0,0,"0000-00-00 00:00:00"
21306,"AL GENESIS",JACLA,P,,9066391456,algenesisjacla@gmail.com,"SERVICE STAFF",,,"BPI/MS INSURANCE CORP.","BUSINESS DEVELOPMENT UNIT",Main,,,,,,,0,0,0,"0000-00-00 00:00:00"
24557,ALBERTO,SANTOS,C,,9178553147,acsantos@bpims.com,"DEPARTMENT HEAD",,,"BPI/MS INSURANCE CORP.","LINE UNDERWRITING HEAD",Main,,,,,,,0,0,0,"0000-00-00 00:00:00"
18165,ALEJANDRO,BAYER,R,,9228745427,arbayer@bpi.com.ph,"SALES ASSOCIATE",,,"BPI/MS INSURANCE CORP.","BPI DIVISION",Main,,,,,,,0,0,0,"0000-00-00 00:00:00"
24509,ALEXANDER,SANSON,G,,9228578772,agsanson@bpims.com,"SERVICE STAFF",,,"BPI/MS INSURANCE CORP.",CLEC,Main,,,,,,,0,0,0,"0000-00-00 00:00:00"
17997,ALMA,BANTA,C,,9322781431,acbanta@bpi.com.ph,"SERVICE STAFF",,,"BPI/MS INSURANCE CORP.","MOTOR CLAIMS",Main,,,,,,,0,0,0,"0000-00-00 00:00:00"
25182,ALMA,TIPAN,T,,9065125253,attipan@bpims.com,"SERVICE ASSOCIATE",,,"BPI/MS INSURANCE CORP.",REINSURANCE,Main,,,,,,,0,0,0,"0000-00-00 00:00:00"
18856,"ALYSSA MARIE",CASACLANG,S,,9168583785,alyssamariecasaclang@rocketmail.com,"JUNIOR UNDERWRITING SPECIALIST",,,"BPI/MS INSURANCE CORP.","MARINE UNDERWRITING",Main,,,,,,,0,0,0,"0000-00-00 00:00:00"
18119,ANALYN,BAUTISTA,E,,9178556958,aebautista@bpims.com,"UNIT HEAD",,,"BPI/MS INSURANCE CORP.","SALES SERVICES",Main,,,,,,,0,0,0,"2015-07-23 13:34:17"
21558,ANGELITO,LAMPA,M,,9173782981,amlampa@bpims.com,"INDIVIDUAL UNDERWRITING OFFICE",,,"BPI/MS INSURANCE CORP.","MARINE UNDERWRITING",Main,,,,,,,0,0,0,"0000-00-00 00:00:00"
20929,"ANNA CHRISTINA",GOMEZ,P,,9177915973,apgomez@bpims.com,"DEPARTMENT HEAD",,,"BPI/MS INSURANCE CORP.","BPI DIVISION",Main,,,,,,,0,0,0,"2015-11-04 13:52:10"
22697,"ANNA LORAINE",MOLINYAWE,R,,9212531647,alrmolinyawe@bpims.com,"OPERATIONS ASSOCIATE",,,"BPI/MS INSURANCE CORP.",COLLECTION,Main,,,,,,,0,0,0,"0000-00-00 00:00:00"
24564,"ANNA MARGARITA",SANTOS,R,,9273733919,miganfux@gmail.com,"SERVICE STAFF",,,"BPI/MS INSURANCE CORP.","CAGAYAN BRANCH",Main,,,,,,,0,0,0,"0000-00-00 00:00:00"
23867,ANNAVI,RANOLA,M,,9328919451,amranola@bpims.com,"SERVICE STAFF",,,"BPI/MS INSURANCE CORP.","Corporate Accounting",Main,,,,,,,0,0,0,"0000-00-00 00:00:00"
18407,ARLENE,BRILLANTES,S,,9178745038,asbrillantes@bpims.com,"SERVICE STAFF",,,"BPI/MS INSURANCE CORP.","MOTOR CLAIMS",Main,,,,,,,0,0,0,"0000-00-00 00:00:00"
19399,ARLYN,CUEVAS,P,,9359107061,apcuevas@bpims.com,"SUPPORT ASSOCIATE",,,"BPI/MS INSURANCE CORP.","AGENCY SERVICES DEPARTMENT",Main,,,,,,,0,0,0,"0000-00-00 00:00:00"
23720,ARMANDO,"QUIAMBAO, Jr.",C,,9222576733,acquiambao@bpims.com,"UNIT HEAD",,,"BPI/MS INSURANCE CORP.",COLLECTION,Main,,,,,,,0,0,0,"0000-00-00 00:00:00"
22049,AUBREY,MACASPAC,S,,9322130295,asmacaspac@bpims.com,"SUPPORT STAFF",,,"BPI/MS INSURANCE CORP.","SYSTMS QUALTY ASSURNCE&ADM",Main,,,,,,,0,0,0,"0000-00-00 00:00:00"
19241,BERNA,CORPUZ,C,,9228619731,bccorpuz@bpims.com,"SERVICE STAFF",,,"BPI/MS INSURANCE CORP.","MOTOR CLAIMS",Main,,,,,,,0,0,0,"0000-00-00 00:00:00"
22965,BERNADETTE,NUNEZ,A,,9178574458,banunez@bpims.com,"SALES OFFICER",,,"BPI/MS INSURANCE CORP.","BROKERS 3",Main,,,,,,,0,0,0,"0000-00-00 00:00:00"
23539,BEVERLY,PERMELONA,M,,9985534396,bmpermelona@bpi.com.ph,"UNIT HEAD",,,"BPI/MS INSURANCE CORP.",COLLECTION,Main,,,,,,,0,0,0,"0000-00-00 00:00:00"
22966,CAMILLE,NUNEZ,D,,9272039670,cdnunez@bpims.com,"SERVICE STAFF",,,"BPI/MS INSURANCE CORP.","BPI DIVISION",Main,,,,,,,0,0,0,"0000-00-00 00:00:00"
25122,"CARLA JOY",TECSON,R,,9359771480,cjrtecson@bpims.com.ph,"SERVICE STAFF",,,"BPI/MS INSURANCE CORP.","SPECIALIZED ACCOUNTING",Main,,,,,,,0,0,0,"0000-00-00 00:00:00"
17079,CARLITO,ABELEDA,B,,9274914974,cbabeleda@bpims.com,"SENIOR OPERATIONS ASSOCIATE",,,"BPI/MS INSURANCE CORP.",COLLECTION,Main,,,,,,,0,0,0,"0000-00-00 00:00:00"
23384,"CARLO LUIS",PASCUA,G,,9269028703,faynal_louie67@yahoo.com,"SERVICE STAFF",,,"BPI/MS INSURANCE CORP.","JAPANESE MARKETING",Main,,,,,,,0,0,0,"0000-00-00 00:00:00"
19060,CENEN,CHAVEZ,M,,9175096877,cmchavez@bpims.com,"SENIOR SERVICE ASSOCIATE",,,"BPI/MS INSURANCE CORP.","CASH MANAGEMENT",Main,,,,,,,0,0,0,"2015-07-31 17:29:13"
22366,CHE-CHE,MARQUEZ,I,,9216610774,cimarquez@bpims.com,"SERVICE STAFF",,,"BPI/MS INSURANCE CORP.","HR / ADMIN SERVICES",Main,,,,,,,0,0,0,"0000-00-00 00:00:00"
17966,"CHERISH GAE",BANAL,C,,9164308879,cgcbanal@bpims.com,"SERVICE STAFF",,,"BPI/MS INSURANCE CORP.","BPI CORPORATE BANKING",Main,,,,,,,0,0,0,"0000-00-00 00:00:00"
19061,"CHERRYL MARIE",CHAVEZ,D,,9174834719,cdchavez@bpims.com,"UNIT HEAD",,,"BPI/MS INSURANCE CORP.","Corporate Accounting",Main,,,,,,,0,0,0,"0000-00-00 00:00:00"
17219,CHRISTIAN,AGOJO,M,,9129627851,cmagojo@bpi.com.ph,"SALES ASSOCIATE",,,"BPI/MS INSURANCE CORP.","AGENCIES 3",Main,,,,,,,0,0,0,"0000-00-00 00:00:00"
20040,CHRISTINE,DOLLOSA,S,,9209477903,csdollosa@bpims.com,"UNIT HEAD",,,"BPI/MS INSURANCE CORP.","SALES SERVICES",Main,,,,,,,0,0,0,"0000-00-00 00:00:00"
22915,"CIELO MARIE",NICOLETA,I,,9255429112,cminicoleta@bpims.com,"STAFF 1",,,"BPI/MS INSURANCE CORP.","IMUS BRANCH",Main,,,,,,,0,0,0,"0000-00-00 00:00:00"
19019,CLARIZ,CEREZO,V,,9268606515,cvcerezo@bpims.com,"SERVICE STAFF",,,"BPI/MS INSURANCE CORP.","SALES SERVICES",Main,,,,,,,0,0,0,"0000-00-00 00:00:00"
25435,CLOUDETTE,VALLEJOS,D,,9178809697,cdvallejos@bpims.com,"SENIOR UNDERWRITING SPECIALIST",,,"BPI/MS INSURANCE CORP.","MOTOR UNDERWRITING",Main,,,,,,,0,0,0,"0000-00-00 00:00:00"
23994,CYNTHIA,REYES,A,,9152273005,careyes@bpims.com,"SALES ASSOCIATE",,,"BPI/MS INSURANCE CORP.","AGENCIES 1",Main,,,,,,,0,0,0,"0000-00-00 00:00:00"
25270,"DANIELLE MARIA",TORT,S,,9178042836,dmstort@bpims.com,"COMPLIANCE OFFICER",,,"BPI/MS INSURANCE CORP.","GROUP HEAD",Main,,,,,,,0,0,0,"2015-07-24 15:16:22"
22680,"DARWIN JOHN",MOJICA,D,,9235554393,ddmojica@bpims.com,"SERVICE ASSOCIATE",,,"BPI/MS INSURANCE CORP.",REINSURANCE,Main,,,,,,,0,0,0,"0000-00-00 00:00:00"
17961,DEBBIE,BALUYOT,R,,9179743558,drbaluyot@bpims.com,"SALES OFFICER",,,"BPI/MS INSURANCE CORP.","MARKETING SERVICES",Main,,,,,,,0,0,0,"0000-00-00 00:00:00"
20405,DENNIS,FALCO,P,,9173060617,dpfalco@bpims.com,"SALES ASSOCIATE",,,"BPI/MS INSURANCE CORP.","ILOILO BRANCH",Main,,,,,,,0,0,0,"0000-00-00 00:00:00"
18440,DEXTER,BUENA,R,,9237350421,drbuena@bpi.com.ph,"SERVICE STAFF",,,"BPI/MS INSURANCE CORP.",CLEC,Main,,,,,,,0,0,0,"0000-00-00 00:00:00"
18584,DIANA,CADA,E,,9331333369,decada@bpims.com,"SERVICE ASSOCIATE",,,"BPI/MS INSURANCE CORP.","JAPANESE MARKETING",Main,,,,,,,0,0,0,"0000-00-00 00:00:00"
23972,"DIANE ROSE",RESURRECCION,A,,9067888757,dianeroseresurreccion@yahoo.com,"SERVICE STAFF",,,"BPI/MS INSURANCE CORP.","MOTOR CLAIMS",Main,,,,,,,0,0,0,"0000-00-00 00:00:00"
19858,"DIANNE GRACE",DELES,J,,9433294882,jersey_welling@yahoo.com,"SERVICE ASSOCIATE",,,"BPI/MS INSURANCE CORP.","DAVAO BRANCH",Main,,,,,,,0,0,0,"0000-00-00 00:00:00"
20719,DIOSDADO,GAMBOA,Y,,9154957952,dygamboa@bpims.com,"SERVICE STAFF",,,"BPI/MS INSURANCE CORP.","BONDS DEPARTMENT",Main,,,,,,,0,0,0,"0000-00-00 00:00:00"
25341,DIOSDADO,UMADAC,B,,9177915965,dbumadac@bpims.com,"DEPARTMENT HEAD",,,"BPI/MS INSURANCE CORP.","AGENCIES 1",Main,,,,,,,0,0,0,"0000-00-00 00:00:00"
17678,"DL JOHN",ARBOLADURA,P,,9267464539,djparboladura@bpims.com,"SERVICE STAFF",,,"BPI/MS INSURANCE CORP.","BPI DIVISION",Main,,,,,,,0,0,0,"0000-00-00 00:00:00"
22995,DONALYN,OCAMPO,D,,9273893760,ddocampo@bpims.com,"SERVICE STAFF",,,"BPI/MS INSURANCE CORP.","JAPANESE MARKETING",Main,,,,,,,0,0,0,"0000-00-00 00:00:00"
19615,DONNIELLE,"DE JESUS",C,,9057322242,dejesus.donnielle@yahoo.com,"SERVICE STAFF",,,"BPI/MS INSURANCE CORP.","AGENCIES 3",Main,,,,,,,0,0,0,"0000-00-00 00:00:00"
17221,EDISON,AGONCILLO,E,,9064582817,eeagoncillo@bpi.com.ph,"SALES STAFF",,,"BPI/MS INSURANCE CORP.","BPI DIVISION",Main,,,,,,,0,0,0,"0000-00-00 00:00:00"
17567,EDWIN,ANOZO,E,,9996375135,eeanozo@bpims.com,"JUNIOR UNDERWRITING SPECIALIST",,,"BPI/MS INSURANCE CORP.","FIRE UNDERWRITING",Main,,,,,,,0,0,0,"0000-00-00 00:00:00"
21429,ELEANOR,JULIANO,S,,9175910422,esjuliano@bpi.com.ph,"SENIOR SALES ASSOCIATE",,,"BPI/MS INSURANCE CORP.","BRANCHES HEAD",Main,,,,,,,0,0,0,"0000-00-00 00:00:00"
24408,ELIJAH,SALVADOR,O,,9233195610,eosalvador@bpims.com,"SERVICE STAFF",,,"BPI/MS INSURANCE CORP.","BPI DIVISION",Main,,,,,,,0,0,0,"0000-00-00 00:00:00"
18166,EMILIA,BAYHON,E,,9178553068,eebayhon@bpims.com,"SECTION HEAD",,,"BPI/MS INSURANCE CORP.","MOTOR CLAIMS",Main,,,,,,,0,0,0,"0000-00-00 00:00:00"
23080,EMMANUEL,OQUENDO,M,,9173120306,emoquendo@bpims.com,"SALES OFFICER",,,"BPI/MS INSURANCE CORP.","ILOILO BRANCH",Main,,,,,,,0,0,0,"0000-00-00 00:00:00"
25281,"ERIKA MARIE",TRINIDAD,F,,9195594045,emftrinidad@bpims.com,"SALES ASSOCIATE",,,"BPI/MS INSURANCE CORP.","BROKERS 1",Main,,,,,,,0,0,0,"0000-00-00 00:00:00"
24725,"ERIKA YSA",SEVILLA,M,,9158971225,eymsevilla@bpims.com,"SERVICE STAFF",,,"BPI/MS INSURANCE CORP.","BROKERS 2",Main,,,,,,,0,0,0,"0000-00-00 00:00:00"
20673,ETHEL,GALICIA,D,,9225740665,edgalicia@bpims.com,"SERVICE ASSOCIATE",,,"BPI/MS INSURANCE CORP.","BUDGET / CONTROL & ANALYSI",Main,,,,,,,0,0,0,"0000-00-00 00:00:00"
25282,EUGENE,TRINIDAD,N,,9196169617,bacolodstaff@bpims.com,"SENIOR SALES ASSOCIATE",,,"BPI/MS INSURANCE CORP.","BACOLOD BRANCH",Main,,,,,,,0,0,0,"0000-00-00 00:00:00"
21857,EVELYN,LOMABAS,A,,9175326086,ealomabas@bpims.com,"DEPARTMENT HEAD",,,"BPI/MS INSURANCE CORP.","AGENCIES HEAD",Main,,,,,,,0,0,0,"0000-00-00 00:00:00"
17080,FEDERICK,ABELEDA,A,,9159622533,faabeleda@bpims.com,"INDIVIDUAL UNDERWRITING OFFICE",,,"BPI/MS INSURANCE CORP.",CLEC,Main,,,,,,,0,0,0,"0000-00-00 00:00:00"
21832,FELICITO,"LLEMOS, Jr.",C,,9155676917,fcllemos@bpims.com,"SECTION HEAD",,,"BPI/MS INSURANCE CORP.","FIRE UNDERWRITING",Main,,,,,,,0,0,0,"0000-00-00 00:00:00"
25348,FELIX,UMANDAP,P,,9215952712,fpumandap@bpims.com,"SERVICE ASSOCIATE",,,"BPI/MS INSURANCE CORP.","BONDS DEPARTMENT",Main,,,,,,,0,0,0,"0000-00-00 00:00:00"
17802,FERNANDO,AUSTRIA,V,,9172547037,fvaustria@bpims.com,"SERVICE ASSOCIATE",,,"BPI/MS INSURANCE CORP.","BONDS DEPARTMENT",Main,,,,,,,0,0,0,"0000-00-00 00:00:00"
25778,FERNANDO,YLO,V,,9159264464,fvylo@bpims.com,"SALES STAFF",,,"BPI/MS INSURANCE CORP.","AGENCIES 1",Main,,,,,,,0,0,0,"0000-00-00 00:00:00"
22047,"FLORENCE MARY",MACASAET,L,,9178934027,flmacasaet@bpi.com.ph,"TEAM LEADER",,,"BPI/MS INSURANCE CORP.","BPI MS",Main,,,,,,,0,0,0,"0000-00-00 00:00:00"
24063,"FRANCIS IAN",RIFAREAL,G,,9989972925,figrifareal@bpims.com,"SERVICE STAFF",,,"BPI/MS INSURANCE CORP.","COLLECTIONS SEC",Main,,,,,,,0,0,0,"0000-00-00 00:00:00"
17912,FREDERICK,BALASTIGUE,J,,9209145320,fjbalastigue@bpims.com,"SERVICE STAFF",,,"BPI/MS INSURANCE CORP.",CLEC,Main,,,,,,,0,0,0,"0000-00-00 00:00:00"
18176,GEMMAVILLE,BEATRIZ,F,,9228879884,gemmavillebeatriz@yahoo.com,"SENIOR SALES ASSOCIATE",,,"BPI/MS INSURANCE CORP.","SAN FERNANDO PAMPANGA BRAN",Main,,,,,,,0,0,0,"0000-00-00 00:00:00"
24388,GENIFER,SALINAS,G,,9179814148,ggsalinas@bpims.com,"SENIOR SALES ASSOCIATE",,,"BPI/MS INSURANCE CORP.","BACOLOD BRANCH",Main,,,,,,,0,0,0,"0000-00-00 00:00:00"
19556,"GILES RANNIEL","DE CASTRO",R,,9274307745,grrdecastro@bpims.com,"OPERATIONS ASSOCIATE",,,"BPI/MS INSURANCE CORP.","BPI DIVISION",Main,,,,,,,0,0,0,"0000-00-00 00:00:00"
17797,GINA,AUSTERO,M,,9228002287,gmaustero@bpi.com.ph,"SERVICE STAFF",,,"BPI/MS INSURANCE CORP.","NON-MOTOR CLAIMS",Main,,,,,,,0,0,0,"0000-00-00 00:00:00"
24377,GINAMER,SALES,J,,9997133874,gjsales@bpims.com,"SERVICE STAFF",,,"BPI/MS INSURANCE CORP.","CASH MANAGEMENT",Main,,,,,,,0,0,0,"0000-00-00 00:00:00"
23151,GLENDA,PABUAYA,V,,9173412851,gvpabuaya@bpims.com,"SALES STAFF",,,"BPI/MS INSURANCE CORP.","BPI DIVISION",Main,,,,,,,0,0,0,"0000-00-00 00:00:00"
23390,GLENDA,PASCUAL,B,,9178566181,gbpascual@bpims.com,"EXECUTIVE SECRETARY",,,"BPI/MS INSURANCE CORP.","Office Of The President",Main,,,,,,,0,0,0,"0000-00-00 00:00:00"
23681,GRACE,PUNO,L,,9998861927,glpuno@bpims.com,"SERVICE STAFF",,,"BPI/MS INSURANCE CORP.","MOTOR CLAIMS",Main,,,,,,,0,0,0,"0000-00-00 00:00:00"
23693,GUILLERMO,PUREZA,D,,9223757969,gdpureza@bpi.com.ph,"JUNIOR UNDERWRITING SPECIALIST",,,"BPI/MS INSURANCE CORP.","CASUALTY UNDERWRITING",Main,,,,,,,0,0,0,"0000-00-00 00:00:00"
20327,"HAIDEE ELISA",ESTRADA,A,,9195144342,haestrada@bpims.com,"SENIOR SERVICE ASSOCIATE",,,"BPI/MS INSURANCE CORP.","Corporate Accounting",Main,,,,,,,0,0,0,"0000-00-00 00:00:00"
23713,HAZEL,QUIAMBAO,T,,9174239938,htquiambao@bpims.com,"SALES OFFICER",,,"BPI/MS INSURANCE CORP.","BROKERS 1",Main,"Estrada corner Espiritu",,Manila,,Philippines,,0,0,0,"2015-07-24 16:05:03"
24896,"HAZEL DOREEN",SULTAN,N,,9215665596,haz_negapatan@yahoo.com,"SALES ASSOCIATE",,,"BPI/MS INSURANCE CORP.","CEBU BRANCH",Main,,,,,,,0,0,0,"0000-00-00 00:00:00"
20964,HEIDI,GONZALES,M,,9163799728,hmgonzales@bpims.com,"SALES STAFF",,,"BPI/MS INSURANCE CORP.","AGENCIES 2",Main,,,,,,,0,0,0,"0000-00-00 00:00:00"
17947,"HELEN GRACE",BALMORI,C,,9178579113,gcbalmori@bpims.com,"SALES MANAGER",,,"BPI/MS INSURANCE CORP.","JAPANESE MARKETING",Main,,,,,,,0,0,0,"0000-00-00 00:00:00"
20859,HERMINIA,GERALDINO,M,,9234409350,hmgeraldino@bpims.com,"SALES STAFF",,,"BPI/MS INSURANCE CORP.","IMUS BRANCH",Main,,,,,,,0,0,0,"0000-00-00 00:00:00"
25098,HERMINIO,"TAPIA, Jr.",M,,9277560530,hmtapiajr@bpims.com,"JUNIOR UNDERWRITING SPECIALIST",,,"BPI/MS INSURANCE CORP.","MARINE UNDERWRITING",Main,,,,,,,0,0,0,"2015-07-24 07:07:23"
23825,IMELDA,RAMOS,C,,9267044125,icramos@bpims.com,"SERVICE STAFF",,,"BPI/MS INSURANCE CORP.",CLEC,Main,,,,,,,0,0,0,"0000-00-00 00:00:00"
25442,INA,VARGAS,D,,9351388368,inadvvargas@yahoo.com,"SERVICE STAFF",,,"BPI/MS INSURANCE CORP.","SALES SERVICES",Main,,,,,,,0,0,0,"0000-00-00 00:00:00"
17584,"IVY GAIL",ANTONIO,M,,9265282386,iggmanalang@bpims.com,"SERVICE STAFF",,,"BPI/MS INSURANCE CORP.","BPI DIVISION",Main,,,,,,,0,0,0,"0000-00-00 00:00:00"
23155,"JACKIE LOU",PACAMALAN,S,,9174448342,jspacamalan@bpims.com,"SUPPORT OFFICER",,,"BPI/MS INSURANCE CORP.","MOTOR CLAIMS",Main,,,,,,,0,0,0,"2015-07-23 13:50:34"
22316,JACQUELINE,MARANAN,Z,,9289989871,jzmaranan@bpims.com,"SERVICE STAFF",,,"BPI/MS INSURANCE CORP.","NON-MOTOR CLAIMS",Main,,,,,,,0,0,0,"0000-00-00 00:00:00"
20145,"JAN MICAH",EDNACO,A,,9278695259,jmednaco@hotmail.com,"SERVICE STAFF",,,"BPI/MS INSURANCE CORP.","MARKETING SERVICES",Main,,,,,,,0,0,0,"0000-00-00 00:00:00"
24357,JANE,SALAZAR,M,,9273342432,jmsalazar@bpims.com,"SERVICE STAFF",,,"BPI/MS INSURANCE CORP.","CASH MANAGEMENT",Main,,,,,,,0,0,0,"0000-00-00 00:00:00"
22918,JANICE,NIEBRES,L,,9323705246,niebresjanice@yahoo.com,"SALES STAFF",,,"BPI/MS INSURANCE CORP.","LIPA BRANCH",Main,,,,,,,0,0,0,"0000-00-00 00:00:00"
23625,JANICE,PONCE,S,,9287739298,jsponce@bpi.com.ph,"SERVICE STAFF",,,"BPI/MS INSURANCE CORP.","JAPANESE MARKETING",Main,,,,,,,0,0,0,"0000-00-00 00:00:00"
24464,JASMINE,"SAN JUAN",M,,9105026795,sanjuan_jasmine@ymail.com,"SERVICE STAFF",,,"BPI/MS INSURANCE CORP.","BPI DIVISION",Main,,,,,,,0,0,0,"0000-00-00 00:00:00"
17586,JAYSON,ANTONIO,G,,9175860376,jgantonio@bpims.com,"SERVICE STAFF",,,"BPI/MS INSURANCE CORP.","MOTOR CLAIMS",Main,,,,,,,0,0,0,"0000-00-00 00:00:00"
19118,JAYSON,CIELO,B,,9483313339,jbcielo@bpims.com,"SALES ASSOCIATE",,,"BPI/MS INSURANCE CORP.","BROKERS 3",Main,,,,,,,0,0,0,"0000-00-00 00:00:00"
22924,JAZMINE,NIGOS,T,,9162392385,jtnigos@bpims.com,"SENIOR SALES ASSOCIATE",,,"BPI/MS INSURANCE CORP.","AGENCIES HEAD",Main,,,,,,,0,0,0,"0000-00-00 00:00:00"
21425,JEANETTE,JUDI,F,,9178876622,jfjudi@bpims.com,"JUNIOR UNDERWRITING SPECIALIST",,,"BPI/MS INSURANCE CORP.","FIRE UNDERWRITING",Main,,,,,,,0,0,0,"0000-00-00 00:00:00"
21380,JEFFERSON,JIMENEZ,C,,9165447782,jcjimenez@bpims.com,"SERVICE STAFF",,,"BPI/MS INSURANCE CORP.","MOTOR CLAIMS",Main,,,,,,,0,0,0,"0000-00-00 00:00:00"
19918,JEL,DEVEZA,V,,9215725737,jvdeveza@bpims.com,"OPERATIONS STAFF",,,"BPI/MS INSURANCE CORP.","BPI DIVISION",Main,,,,,,,0,0,0,"0000-00-00 00:00:00"
18129,JENALYN,BAUTISTA,W,,9272459742,jwbautista@bpims.com.ph,"SALES ASSOCIATE",,,"BPI/MS INSURANCE CORP.","AGENCIES 2",Main,,,,,,,0,0,0,"0000-00-00 00:00:00"
17637,JENNIE,AQUINO,T,,9993852616,jtaquino@bpims.com,"SERVICE STAFF",,,"BPI/MS INSURANCE CORP.",REINSURANCE,Main,,,,,,,0,0,0,"0000-00-00 00:00:00"
22959,JERICK,NUGUID,M,,9178081792,jmnuguid@bpims.com,"SERVICE STAFF",,,"BPI/MS INSURANCE CORP.","JAPANESE MARKETING",Main,,,,,,,0,0,0,"2015-07-23 11:18:01"
19664,"JESSICA ELIZABETH","DE LEON",D,,9155774657,jessicaelizabeth.deleon@yahoo.com,"SERVICE STAFF",,,"BPI/MS INSURANCE CORP.",COLLECTION,Main,,,,,,,0,0,0,"0000-00-00 00:00:00"
25433,JESSIELYN,VALLEJO,D,,9257649213,jcdeleon@bpi.com.ph,"SERVICE ASSOCIATE",,,"BPI/MS INSURANCE CORP.","Corporate Accounting",Main,,,,,,,0,0,0,"0000-00-00 00:00:00"
24175,JOAN,ROLLE,S,,9985679017,jdsonza@bpims.com,"SERVICE STAFF",,,"BPI/MS INSURANCE CORP.","BPI DIVISION",Main,,,,,,,0,0,0,"0000-00-00 00:00:00"
19836,"JOANNA KRIZEL","DELA FUENTE",M,,9232580395,jkmdelafuente@bpims.com,"SERVICE STAFF",,,"BPI/MS INSURANCE CORP.","SALES SERVICES",Main,,,,,,,0,0,0,"0000-00-00 00:00:00"
22188,"JOANNE JENNIFER",MANAGUIT,C,,9063006990,jjcmanaguit@bpims.com,"SERVICE ASSOCIATE",,,"BPI/MS INSURANCE CORP.","BUDGET / CONTROL & ANALYSI",Main,,,,,,,0,0,0,"0000-00-00 00:00:00"
18573,JOCELYN,CACANANDO,B,,9165819696,jbcacanando@bpims.com,"SALES STAFF",,,"BPI/MS INSURANCE CORP.","AGENCIES 1",Main,,,,,,,0,0,0,"0000-00-00 00:00:00"
18308,"JOHN FITZGERALD",BINO,A,,9276878564,jfabino@bpims.com,"SERVICE STAFF",,,"BPI/MS INSURANCE CORP.",CLEC,Main,,,,,,,0,0,0,"0000-00-00 00:00:00"
22925,"JOHN JAY",NIGOS,G,,9063238900,jgnigos@bpims.com,"DEPARTMENT HEAD",,,"BPI/MS INSURANCE CORP.","BPI DIVISION",Main,,,,,,,0,0,0,"0000-00-00 00:00:00"
17070,JONARD,ABAYAN,P,,9179592977,jpabayan@bpims.com,"SALES OFFICER",,,"BPI/MS INSURANCE CORP.","BPI CORPORATE BANKING",Main,,,,,,,0,0,0,"0000-00-00 00:00:00"
19780,"JONATHAN RAY","DELA  CRUZ",D,,9175157565,jddelacruz@bpims.com,"SENIOR SALES ASSOCIATE",,,"BPI/MS INSURANCE CORP.","AGENCIES 1",Main,,,,,,,0,0,0,"0000-00-00 00:00:00"
22057,JORGE,MACLANG,E,,9272818778,jemaclang@bpims.com,"SERVICE ASSOCIATE",,,"BPI/MS INSURANCE CORP.","Corporate Accounting",Main,,,,,,,0,0,0,"0000-00-00 00:00:00"
19731,"JOSE AUGURIO","DE VERA, Jr.",N,,9175200501,jndevera@bpims.com,"INDIVIDUAL UNDERWRITING OFFICE",,,"BPI/MS INSURANCE CORP.","GROUP HEAD",Main,,,,,,,0,0,0,"0000-00-00 00:00:00"
22763,"JOSE MARI",MORATO,L,,9178976411,jmlmorato@bpims.com,"BUS. DEVT. OFFICER",,,"BPI/MS INSURANCE CORP.","BUSINESS DEVELOPMENT UNIT",Main,,,,,,,0,0,0,"0000-00-00 00:00:00"
19637,"JOSE MILO","DE JOYA",S,,9178006131,jmsdejoya@bpi.com.ph,"SYSTEMS OFFICER",,,"BPI/MS INSURANCE CORP.","RISK MANAGEMENT HEAD",Main,"97 Recoletos Street","Samonte Park","Cavite City",Cavite,Philippines,4100,0,0,0,"2015-07-28 08:02:37"
23944,JOSEPHINE,RELEVO,J,,9175450985,jjrelevo@bpims.com,"SERVICE STAFF",,,"BPI/MS INSURANCE CORP.","BONDS DEPARTMENT",Main,,,,,,,0,0,0,"0000-00-00 00:00:00"
24181,JOSEPHINE,ROMANA,M,,9175050315,jmromana_0831@yahoo.com,"SALES ASSOCIATE",,,"BPI/MS INSURANCE CORP.","LIPA BRANCH",Main,,,,,,,0,0,0,"0000-00-00 00:00:00"
17387,JOVELYN,ALMAREZ,C,,9184854158,jmcomia@bpims.com,"SERVICE ASSOCIATE",,,"BPI/MS INSURANCE CORP.","Corporate Accounting",Main,,,,,,,0,0,0,"0000-00-00 00:00:00"
24180,JOVEN,ROMAN,B,,9065181404,jbroman@bpims.com,"SALES ASSOCIATE",,,"BPI/MS INSURANCE CORP.","BROKERS 2",Main,,,,,,,0,0,0,"0000-00-00 00:00:00"
17950,JOVITO,BALOCATING,T,,9063021146,jtbalocating@bpims.com,"SERVICE ASSOCIATE",,,"BPI/MS INSURANCE CORP.",REINSURANCE,Main,,,,,,,0,0,0,"0000-00-00 00:00:00"
20228,"JOY MARI",ESCALANTE,R,,9158993642,jmrescalante@bpims.com,"SALES OFFICER",,,"BPI/MS INSURANCE CORP.","AGENCIES 3",Main,,,,,,,0,0,0,"0000-00-00 00:00:00"
22866,JOYCE,NAVARRO,D,,9217696532,jdnavarro@bpims.com,OTP,,,"BPI/MS INSURANCE CORP.",REINSURANCE,Main,,,,,,,0,0,0,"0000-00-00 00:00:00"
21554,JUDY,LAMBARTE,G,,9272438384,jglambarte@bpims.com,"SALES OFFICER",,,"BPI/MS INSURANCE CORP.","BPI DIVISION",Main,,,,,,,0,0,0,"0000-00-00 00:00:00"
23511,JULIANA,PEREZ,S,,9228060975,jsperez@bpims.com,"SERVICE STAFF",,,"BPI/MS INSURANCE CORP.",CLEC,Main,,,,,,,0,0,0,"0000-00-00 00:00:00"
17098,KAREN,ABILA,R,,9204464579,krabila@bpims.com,"SALES OFFICER",,,"BPI/MS INSURANCE CORP.","BPI DIVISION",Main,,,,,,,0,0,0,"0000-00-00 00:00:00"
21395,KAREN,JOBLI,C,,9169131827,kcjobli@bpims.com,"SENIOR SERVICE ASSOCIATE",,,"BPI/MS INSURANCE CORP.","BUDGET / CONTROL & ANALYSI",Main,"Metrica Street",1248,Manila,Sampaloc,Philippines,1008,0,0,0,"2015-08-03 13:22:22"
25414,"KAREN MARIE",VALENCIA,V,,9329782801,kmvvalencia@bpi.com.ph,"SALES STAFF",,,"BPI/MS INSURANCE CORP.","MARKETING SERVICES",Main,,,,,,,0,0,0,"0000-00-00 00:00:00"
25028,KEMBERLY,TAMPE,S,,9235359201,kemtampe@gmail.com,"SERVICE STAFF",,,"BPI/MS INSURANCE CORP.","BPI DIVISION",Main,,,,,,,0,0,0,"0000-00-00 00:00:00"
20455,KENNETH,FERNANDEZ,B,,9996502850,kbfernandez@bpims.com,"SERVICE STAFF",,,"BPI/MS INSURANCE CORP.","MOTOR CLAIMS",Main,,,,,,,0,0,0,"0000-00-00 00:00:00"
22100,"KEVIN NEILL",MAGNAYE,C,,9228368032,kevin_neill27@yahoo.com,"SERVICE STAFF",,,"BPI/MS INSURANCE CORP.","MOTOR CLAIMS",Main,,,,,,,0,0,0,"0000-00-00 00:00:00"
19430,"KRISTEL MARIE",CUSTODIO,C,,9154379212,kmccustodio@bpims.com,"SALES ASSOCIATE",,,"BPI/MS INSURANCE CORP.","BPI DIVISION",Main,,,,,,,0,0,0,"0000-00-00 00:00:00"
19669,"KRISTINE MAY","DE LEON",K,,9159116049,kmkdeleon@bpims.com,"OPERATIONS ASSOCIATE",,,"BPI/MS INSURANCE CORP.",COLLECTION,Main,,,,,,,0,0,0,"0000-00-00 00:00:00"
18094,"LAARNI MAY",BASMAYOR,T,,9258603301,lmtbasmayor@bpims.com,"SERVICE STAFF",,,"BPI/MS INSURANCE CORP.","AGENCY SERVICES DEPARTMENT",Main,,,,,,,0,0,0,"0000-00-00 00:00:00"
24292,"LARA LEEN",SABAS,S,,9154307062,lssabas@bpims.com,"SALES STAFF",,,"BPI/MS INSURANCE CORP.","MARKETING SERVICES",Main,,,,,,,0,0,0,"0000-00-00 00:00:00"
17215,LEIZEL,AGGABAO,B,,9165821808,lbaggabao@bpims.com,"SALES OFFICER",,,"BPI/MS INSURANCE CORP.","BPI DIVISION",Main,,,,,,,0,0,0,"0000-00-00 00:00:00"
20722,LENDON,GAMILLA,S,,9053570243,lsgamilla@bpims.com,"SALES ASSOCIATE",,,"BPI/MS INSURANCE CORP.","BUSINESS DEVELOPMENT UNIT",Main,,,,,,,0,0,0,"0000-00-00 00:00:00"
24695,LEONARDO,SERADILLA,A,,9153499738,laseradilla@bpims.com,"SERVICE STAFF",,,"BPI/MS INSURANCE CORP.",REINSURANCE,Main,,,,,,,0,0,0,"0000-00-00 00:00:00"
23285,LEONCIA,PANALIGAN,G,,9195783506,lgpanaligan@bpims.com,"SALES OFFICER",,,"BPI/MS INSURANCE CORP.","JAPANESE MARKETING",Main,,,,,,,0,0,0,"0000-00-00 00:00:00"
21212,LORENZO,HULAR,G,,9083046859,lghular@bpims.com,"SERVICE ASSOCIATE",,,"BPI/MS INSURANCE CORP.","MOTOR CLAIMS",Main,,,,,,,0,0,0,"0000-00-00 00:00:00"
24022,LOURDES,REYES,B,,9183336193,dess1432002@yahoo.com,"SALES STAFF",,,"BPI/MS INSURANCE CORP.","DAGUPAN BRANCH",Main,,,,,,,0,0,0,"0000-00-00 00:00:00"
23626,"LOVETTE DENNALIE",PONCE,O,,9228985376,ldoponce@bpims.com,"SERVICE STAFF",,,"BPI/MS INSURANCE CORP.","JAPANESE MARKETING",Main,,,,,,,0,0,0,"0000-00-00 00:00:00"
18406,"LUCHIE MARIE",BRIGOLI,D,,9062342257,luchie_brigoli@yahoo.com,"SALES ASSOCIATE",,,"BPI/MS INSURANCE CORP.","CEBU BRANCH",Main,,,,,,,0,0,0,"0000-00-00 00:00:00"
25560,"LUES ALBERT",VILLACRUEL,B,,9152167584,labvillacruel@bpims.com,"JUNIOR UNDERWRITING SPECIALIST",,,"BPI/MS INSURANCE CORP.","FIRE UNDERWRITING",Main,,,,,,,0,0,0,"0000-00-00 00:00:00"
21168,"LUIS VICTOR",HERRERA,T,,9175996709,ltherrera@bpims.com,"DEPARTMENT HEAD",,,"BPI/MS INSURANCE CORP.","CLAIMS HEAD",Main,,,,,,,0,0,0,"2015-07-31 11:02:27"
21948,"MA BLESSILDA",LUCERO,A,,9395498808,mbalucero@bpims.com,OTP,,,"BPI/MS INSURANCE CORP.","SALES SERVICES",Main,,,,,,,0,0,0,"0000-00-00 00:00:00"
17496,"MA CELINA",ANDES,L,,9277578738,mclandes@bpims.com,"SENIOR SERVICE ASSOCIATE",,,"BPI/MS INSURANCE CORP.","SPECIALIZED ACCOUNTING",Main,,,,,,,0,0,0,"0000-00-00 00:00:00"
22481,"MA CLARENCE",MEJIA,D,,9277593478,mdmejia@bpims.com,"SALES STAFF",,,"BPI/MS INSURANCE CORP.","AGENCIES 1",Main,,,,,,,0,0,0,"0000-00-00 00:00:00"
21482,"MA CONCEPCION",LABIOSO,S,,9196924639,mcslabioso@bpims.com,"SUPPORT OFFICER",,,"BPI/MS INSURANCE CORP.","MOTOR CLAIMS",Main,,,,,,,0,0,0,"0000-00-00 00:00:00"
23395,"MA CRISELDA",PASCUAL,D,,9178106655,mdpascual@bpi.com.ph,"SERVICE STAFF",,,"BPI/MS INSURANCE CORP.","MOTOR CLAIMS",Main,,,,,,,0,0,0,"0000-00-00 00:00:00"
19434,"MA PERPETUA",CUTIONGCO,A,,9177915960,pacutiongco@bpims.com,"DIVISION HEAD",,,"BPI/MS INSURANCE CORP.","GROUP HEAD",Main,,,,,,,0,0,0,"2015-07-27 13:14:10"
25346,"MA ROSARIO",UMALI,C,,9178137065,mrcumali@bpi.com.ph,"JUNIOR UNDERWRITING SPECIALIST",,,"BPI/MS INSURANCE CORP.","CASUALTY UNDERWRITING",Main,,,,,,,0,0,0,"0000-00-00 00:00:00"
23306,"MA TERESA",PANGANIBAN,D,,9279933485,mdpanganiban@bpims.com,"SENIOR SERVICE ASSOCIATE",,,"BPI/MS INSURANCE CORP.","Corporate Accounting",Main,,,,,,,0,0,0,"0000-00-00 00:00:00"
22029,"MA. DIANA",MACANDOG,B,,9178716143,mdbmacandog@bpi.com.ph,"UNIT HEAD",,,"BPI/MS INSURANCE CORP.","SALES SERVICES",Main,,,,,,,0,0,0,"0000-00-00 00:00:00"
18746,"MA. LOURDES",CANTALEJO-ABAD,C,,9323879362,mlccantalejo@bpims.com,"SERVICE STAFF",,,"BPI/MS INSURANCE CORP.","SPECIALIZED ACCOUNTING",Main,,,,,,,0,0,0,"0000-00-00 00:00:00"
23836,MAGNOLIA,RAMOS,P,,9277500305,mpramos@bpims.com,"SALES ASSOCIATE",,,"BPI/MS INSURANCE CORP.","BPI DIVISION",Main,,,,,,,0,0,0,"0000-00-00 00:00:00"
20325,MARCOS,ESTORNINOS,O,,9297327033,moestorninos@yahoo.com,"SALES STAFF",,,"BPI/MS INSURANCE CORP.","CEBU BRANCH",Main,,,,,,,0,0,0,"0000-00-00 00:00:00"
17187,"MARIA JACQUELINE",ADRIANO,D,,9212015889,jdadriano@bpims.com,"SENIOR SALES ASSOCIATE",,,"BPI/MS INSURANCE CORP.","BROKERS 3",Main,,,,,,,0,0,0,"0000-00-00 00:00:00"
17882,"MARIA JEZA",BAGTASOS,R,,9264946453,mjbagtasos@gmail.com,"SERVICE STAFF",,,"BPI/MS INSURANCE CORP.","CAGAYAN BRANCH",Main,,,,,,,0,0,0,"0000-00-00 00:00:00"
17433,"MARIA KAREN",ALVAREZ,L,,9399061047,mlalvarez@bpims.com,"SERVICE STAFF",,,"BPI/MS INSURANCE CORP.","Corporate Accounting",Main,,,,,,,0,0,0,"0000-00-00 00:00:00"
18924,"MARIA TERESITA",CASTRO,G,,9182118911,mgcastro@bpims.com,"SENIOR SALES ASSOCIATE",,,"BPI/MS INSURANCE CORP.","AGENCIES 2",Main,,,,,,,0,0,0,"0000-00-00 00:00:00"
21174,MARICOR,HERRERO,A,,9196957260,maherrero@bpims.com,"SERVICE STAFF",,,"BPI/MS INSURANCE CORP.","AGENCY SERVICES DEPARTMENT",Main,,,,,,,0,0,0,"0000-00-00 00:00:00"
23001,MARIEBEL,OCAMPO,C,,9293108298,mcocampo@bpims.com,"SERVICE STAFF",,,"BPI/MS INSURANCE CORP.",CLEC,Main,,,,,,,0,0,0,"0000-00-00 00:00:00"
22747,MARILOU,MORADA,M,,9175333271,mmmorada@bpims.com,"DEPARTMENT HEAD",,,"BPI/MS INSURANCE CORP.","BRANCHES HEAD",Main,,,,,,,0,0,0,"0000-00-00 00:00:00"
17134,"MARJON MAURICE",ACBAY,A,,9053327876,marjonacbay@yahoo.com,"SERVICE STAFF",,,"BPI/MS INSURANCE CORP.","AGENCY SERVICES DEPARTMENT",Main,,,,,,,0,0,0,"0000-00-00 00:00:00"
24877,MARJORIE,"STO. TOMAS",N,,9157172702,mbnavas@bpims.com,"SERVICE STAFF",,,"BPI/MS INSURANCE CORP.","NON-MOTOR CLAIMS",Main,,,,,,,0,0,0,"0000-00-00 00:00:00"
21040,MARK,GUATLO,C,,9165102563,mcguatlo@bpi.com.ph,"DEPARTMENT HEAD",,,"BPI/MS INSURANCE CORP.","MOTOR CLAIMS",Main,,,,,,,0,0,0,"0000-00-00 00:00:00"
25167,MARK,TINDUGAN,P,,9489853041,mptindugan@bpims.com,"SERVICE STAFF",,,"BPI/MS INSURANCE CORP.","NON-MOTOR CLAIMS",Main,,,,,,,0,0,0,"0000-00-00 00:00:00"
18278,"MARK FRANCIS",BERNARDO,L,,9174234769,mflbernardo@bpims.com,"SERVICE STAFF",,,"BPI/MS INSURANCE CORP.",CLEC,Main,,,,,,,0,0,0,"0000-00-00 00:00:00"
23029,MARLON,OLAN,M,,9175265502,mmolan@bpims.com,"SALES MANAGER",,,"BPI/MS INSURANCE CORP.","SALES SERVICES",Main,,,,,,,0,0,0,"0000-00-00 00:00:00"
24964,MARRIANNE,TACAS,L,,9155001635,mglumandas@bpi.com.ph,"SERVICE STAFF",,,"BPI/MS INSURANCE CORP.","NON-MOTOR CLAIMS",Main,,,,,,,0,0,0,"0000-00-00 00:00:00"
18279,"MARY ANN",BERNARDO,D,,9239387400,madbernardo@bpims.com.ph,"SERVICE STAFF",,,"BPI/MS INSURANCE CORP.","BPI DIVISION",Main,,,,,,,0,0,0,"0000-00-00 00:00:00"
24871,"MARY ANN","STA MARIA",S,,9185776163,msstamaria@bpims.com,"SUPPORT OFFICER",,,"BPI/MS INSURANCE CORP.","COMPLIANCE & RISK MANAGEME",Main,,,,,,,0,0,0,"0000-00-00 00:00:00"
18848,"MARY FLOR",CARREON,C,,9396365962,mfccarreon@bpi.com.ph,"SERVICE ASSOCIATE",,,"BPI/MS INSURANCE CORP.","BPI DIVISION",Main,,,,,,,0,0,0,"0000-00-00 00:00:00"
25575,"MARY GRACE",VILLALOBOS,M,,9167313074,mgmvillalobos@bpi.com.ph,"SERVICE STAFF",,,"BPI/MS INSURANCE CORP.",CLEC,Main,,,,,,,0,0,0,"0000-00-00 00:00:00"
23942,"MARY JANE",RELAMPAGOS,T,,9273258426,mjrelampagos_28@yahoo.com,"SERVICE STAFF",,,"BPI/MS INSURANCE CORP.","AGENCIES 2",Main,,,,,,,0,0,0,"0000-00-00 00:00:00"
22143,"MARY JOYCE",MALACAMAN,J,,9084670499,maryjoycejavier2004@yahoo.com,"OPERATIONS STAFF",,,"BPI/MS INSURANCE CORP.","LIPA BRANCH",Main,,,,,,,0,0,0,"0000-00-00 00:00:00"
23489,"MARY ROSE",PERALTA,M,,9178106522,mrmperalta@bpims.com,"SERVICE STAFF",,,"BPI/MS INSURANCE CORP.","AGENCIES 1",Main,,,,,,,0,0,0,"0000-00-00 00:00:00"
18248,MELCHOR,"BERGONIO, Jr.",C,,9283873848,mcbergoniojr@bpims.com,"SERVICE STAFF",,,"BPI/MS INSURANCE CORP.","SALES SERVICES",Main,,,,,,,0,0,0,"0000-00-00 00:00:00"
22848,MELINDA,NATIVIDAD,A,,9178901155,manatividad@bpims.com,"DEPARTMENT HEAD",,,"BPI/MS INSURANCE CORP.","BONDS HEAD",Main,,,,,,,0,0,0,"0000-00-00 00:00:00"
22812,MELISSA,NACUA,B,,9173280167,mbnacua@bpims.com,"SALES MANAGER",,,"BPI/MS INSURANCE CORP.","CEBU BRANCH",Main,,,,,,,0,0,0,"0000-00-00 00:00:00"
24415,MELISSA,SALVADOR,M,,9178145058,mmsalvador@bpims.com,"SENIOR SERVICE ASSOCIATE",,,"BPI/MS INSURANCE CORP.","Corporate Accounting",Main,,,,,,,0,0,0,"0000-00-00 00:00:00"
23845,MELODY,RAMOS,M,,9175132121,mmramos@bpims.com,"OPERATIONS ASSOCIATE",,,"BPI/MS INSURANCE CORP.",COLLECTION,Main,,,,,,,0,0,0,"0000-00-00 00:00:00"
23418,"MELODY ANN",PATANAO,E,,9436186544,maepatanao@bpi.com.ph,"SERVICE STAFF",,,"BPI/MS INSURANCE CORP.","MOTOR CLAIMS",Main,,,,,,,0,0,0,"0000-00-00 00:00:00"
23908,MERIAM,REBUYA,R,,9334007231,mrrebuya@bpims.com.ph,"SALES ASSOCIATE",,,"BPI/MS INSURANCE CORP.","BPI CORPORATE BANKING",Main,,,,,,,0,0,0,"0000-00-00 00:00:00"
22544,MERLINA,MENDOZA,P,,9178263754,mpmendoza@bpims.com,"DIVISION HEAD",,,"BPI/MS INSURANCE CORP.","GROUP HEAD",Main,"Unit 315 Citrine Building Siena Park Residences","West Service Road Sun Valley","Paranaque City",,Philippines,,0,0,0,"2015-07-30 11:44:38"
19819,MERYROSE,"DELA CRUZ",P,,9065721280,mpdelacruz@bpi.com.ph,"SALES ASSOCIATE",,,"BPI/MS INSURANCE CORP.","BPI DIVISION",Main,,,,,,,0,0,0,"0000-00-00 00:00:00"
24606,MICHAEL,SANTOS,B,,9066577589,mbsantos@bpi.com.ph,"SALES ASSOCIATE",,,"BPI/MS INSURANCE CORP.","BROKERS 2",Main,,,,,,,0,0,0,"0000-00-00 00:00:00"
24194,MICHELLE,ROMERO,B,,9179998985,mbromero@bpims.com,"JUNIOR UNDERWRITING SPECIALIST",,,"BPI/MS INSURANCE CORP.","MOTOR UNDERWRITING",Main,,,,,,,0,0,0,"0000-00-00 00:00:00"
23188,MIGUELITO,PAGADORA,E,,9176230815,mepagadora@bpims.com,"SUPPORT OFFICER",,,"BPI/MS INSURANCE CORP.","PRCSS RISK&BUS.CNTNUITY MG",Main,,,,,,,0,0,0,"2015-07-27 10:14:04"
18437,MILANIE,BUELO,B,,9158857756,mbbuelo@bpims.com,"INDIVIDUAL UNDERWRITING OFFICE",,,"BPI/MS INSURANCE CORP.","AGENCY SERVICES DEPARTMENT",Main,,,,,,,0,0,0,"0000-00-00 00:00:00"
19527,"MING FE",DAVID,C,,9263049483,dagupanstaff@bpims.com,"SENIOR SALES ASSOCIATE",,,"BPI/MS INSURANCE CORP.","DAGUPAN BRANCH",Main,,,,,,,0,0,0,"0000-00-00 00:00:00"
23657,MOISES,"PRE, Jr.",M,,9155756990,mmpre@bpims.com,"DEPARTMENT HEAD",,,"BPI/MS INSURANCE CORP.",REINSURANCE,Main,,,,,,,0,0,0,"0000-00-00 00:00:00"
24698,"MYRA RHORDALYN",SERASPE,V,,9326215036,mrvseraspe@bpims.com,"SALES STAFF",,,"BPI/MS INSURANCE CORP.","CEBU BRANCH",Main,,,,,,,0,0,0,"0000-00-00 00:00:00"
20542,NERISSA,FLORES,T,,9152103179,ntflores@bpims.com,"SERVICE STAFF",,,"BPI/MS INSURANCE CORP.","BPI DIVISION",Main,,,,,,,0,0,0,"0000-00-00 00:00:00"
20500,NESCELYN,FEUDO,S,,9291177899,nfsiscar@bpims.com,"SALES ASSOCIATE",,,"BPI/MS INSURANCE CORP.","AGENCIES 2",Main,,,,,,,0,0,0,"0000-00-00 00:00:00"
19255,NIMROD,CORREA,R,,9059743670,nrcorrea@bpims.com,"SALES STAFF",,,"BPI/MS INSURANCE CORP.","JAPANESE MARKETING",Main,,,,,,,0,0,0,"0000-00-00 00:00:00"
20103,NOEL,DUPO,F,,9183503891,nfdupo@bpims.com,"SALES OFFICER",,,"BPI/MS INSURANCE CORP.","DAGUPAN BRANCH",Main,,,,,,,0,0,0,"0000-00-00 00:00:00"
20820,NORMAN,GATMAITAN,C,,9279354113,normangatmaitan@bpi.com.ph,"SERVICE STAFF",,,"BPI/MS INSURANCE CORP.",CLEC,Main,,,,,,,0,0,0,"0000-00-00 00:00:00"
22449,"PAUL JORDAN",MATUSOC,A,,9169495862,pjamatusoc@bpi.com.ph,"JUNIOR UNDERWRITING SPECIALIST",,,"BPI/MS INSURANCE CORP.","FIRE UNDERWRITING",Main,,,,,,,0,0,0,"0000-00-00 00:00:00"
17786,PAULINE,ATIENZA,D,,9253031513,pdatienza@bpims.com,"SERVICE STAFF",,,"BPI/MS INSURANCE CORP.","BPI DIVISION",Main,,,,,,,0,0,0,"0000-00-00 00:00:00"
25619,RACHEL,VILLANUEVA,M,,9174239943,rmvillanueva@bpims.com,"SENIOR UNDERWRITING SPECIALIST",,,"BPI/MS INSURANCE CORP.","MOTOR UNDERWRITING",Main,,,,,,,0,0,0,"0000-00-00 00:00:00"
19351,"RACHEL JOYCE",CRUZ,R,,9393565378,rjoyce.cruz@yahoo.com,"SERVICE STAFF",,,"BPI/MS INSURANCE CORP.","MOTOR CLAIMS",Main,,,,,,,0,0,0,"0000-00-00 00:00:00"
18378,RACHELLE,BORJA,C,,9065004608,rcborja@bpims.com,"SENIOR SALES ASSOCIATE",,,"BPI/MS INSURANCE CORP.","AGENCIES 1",Main,,,,,,,0,0,0,"0000-00-00 00:00:00"
22791,RACHELLE,MUSNGI,M,,9055972258,rmmusngi@bpims.com,"SERVICE STAFF",,,"BPI/MS INSURANCE CORP.","PRCSS RISK&BUS.CNTNUITY MG",Main,,,,,,,0,0,0,"2015-07-24 09:30:49"
23097,RAISA,ORDONEZ,M,,9162535520,blossom_raiss112@yahoo.com,"SERVICE STAFF",,,"BPI/MS INSURANCE CORP.","IMUS BRANCH",Main,,,,,,,0,0,0,"0000-00-00 00:00:00"
23787,RAMIL,RAFIL,R,,9194883110,rafsyreco@yahoo.com,"SENIOR SALES ASSOCIATE",,,"BPI/MS INSURANCE CORP.","DAVAO BRANCH",Main,,,,,,,0,0,0,"0000-00-00 00:00:00"
24055,RANNIE,RICAFRENTE,U,,9175116922,ruricafrente@bpims.com,"OPERATIONS ASSOCIATE",,,"BPI/MS INSURANCE CORP.","BPI CORPORATE BANKING",Main,,,,,,,0,0,0,"0000-00-00 00:00:00"
17703,RAPHAEL,AREGLADO,D,,9286848835,rdareglado@bpims.com,"SERVICE STAFF",,,"BPI/MS INSURANCE CORP.","MOTOR CLAIMS",Main,,,,,,,0,0,0,"0000-00-00 00:00:00"
24419,"RAQUEL CONCEPCION",SALVADOR,S,,9194642041,rssalvador@bpims.com,"SENIOR SERVICE ASSOCIATE",,,"BPI/MS INSURANCE CORP.","BRANCHES HEAD",Main,,,,,,,0,0,0,"0000-00-00 00:00:00"
17594,RAZEL,ANTONIO,E,,9267234908,reantonio@bpims.com,"OPERATIONS ASSOCIATE",,,"BPI/MS INSURANCE CORP.","SALES SERVICES",Main,,,,,,,0,0,0,"0000-00-00 00:00:00"
19107,"REGINE NICOLE",CHUA,S,,9324512580,rnschua@bpims.com,"SERVICE STAFF",,,"BPI/MS INSURANCE CORP.","BROKERS 2",Main,,,,,,,0,0,0,"0000-00-00 00:00:00"
17211,REINA,AGCAOILI,G,,9158662172,rgagcaoili@bpi.com.ph,"SENIOR UNDERWRITING SPECIALIST",,,"BPI/MS INSURANCE CORP.","CASUALTY UNDERWRITING",Main,,,,,,,0,0,0,"0000-00-00 00:00:00"
25630,RENATO,VILLAR,M,,9152068425,renato_villar@yahoo.com,"SALES ASSOCIATE",,,"BPI/MS INSURANCE CORP.","IMUS BRANCH",Main,,,,,,,0,0,0,"0000-00-00 00:00:00"
22868,RENE,NAVARRO,D,,9292454439,rdnavarro@bpims.com,"SUPPORT OFFICER",,,"BPI/MS INSURANCE CORP.","PRODUCT DEVELOPMENT",Main,,,,,,,0,0,0,"0000-00-00 00:00:00"
21846,"RICARDO III",LOBUSTA,G,,9998314468,ricardolobusta@gmail.com,"SERVICE STAFF",,,"BPI/MS INSURANCE CORP.","BONDS DEPARTMENT",Main,,,,,,,0,0,0,"0000-00-00 00:00:00"
18304,RICHARD,BILGERA,E,,9278133051,rebilgera@bpims.com,"SERVICE STAFF",,,"BPI/MS INSURANCE CORP.",CLEC,Main,,,,,,,0,0,0,"0000-00-00 00:00:00"
23240,RICHARD,PALEC,G,,9434241450,xerxespalec@yahoo.com,"SENIOR SALES ASSOCIATE",,,"BPI/MS INSURANCE CORP.","CEBU BRANCH",Main,,,,,,,0,0,0,"0000-00-00 00:00:00"
17859,RICHELL,BACULINAO,V,,9462001069,rvbaculinao@bpims.com,"SERVICE STAFF",,,"BPI/MS INSURANCE CORP.","ILOILO BRANCH",Main,,,,,,,0,0,0,"0000-00-00 00:00:00"
19700,RICO,"DE LOS SANTOS",D,,9326465220,dlsrico@yahoo.com,"SERVICE STAFF",,,"BPI/MS INSURANCE CORP.","MOTOR CLAIMS",Main,,,,,,,0,0,0,"0000-00-00 00:00:00"
22249,RIZZA,MANGALINAO,F,,9186160459,rfmangalinao@bpi.com.ph,"SERVICE STAFF",,,"BPI/MS INSURANCE CORP.",CLEC,Main,,,,,,,0,0,0,"0000-00-00 00:00:00"
24471,ROANN,"SAN PEDRO",S,,9067146716,rssanpedro@bpims.com,OTP,,,"BPI/MS INSURANCE CORP.","NON-MOTOR CLAIMS",Main,,,,,,,0,0,0,"0000-00-00 00:00:00"
24929,ROCIALYN,SUYAT,F,,9159178933,rfsuyat@bpi.com.ph,"SERVICE STAFF",,,"BPI/MS INSURANCE CORP.","SPECIALIZED ACCOUNTING",Main,,,,,,,0,0,0,"0000-00-00 00:00:00"
23403,RODERICK,PASCUAL,B,,9175293040,rbpascual@bpims.com,"SENIOR UNDERWRITING SPECIALIST",,,"BPI/MS INSURANCE CORP.","FIRE UNDERWRITING",Main,,,,,,,0,0,0,"0000-00-00 00:00:00"
18081,ROLANDO,BASA,D,,9205056831,basatwins@yahoo.com,"SALES ASSOCIATE",,,"BPI/MS INSURANCE CORP.","CAGAYAN BRANCH",Main,,,,,,,0,0,0,"0000-00-00 00:00:00"
25450,ROLLY,VARRON,B,,9185806906,rbvarron@bpims.com,"SERVICE STAFF",,,"BPI/MS INSURANCE CORP.","NON-MOTOR CLAIMS",Main,,,,,,,0,0,0,"0000-00-00 00:00:00"
24036,ROMAN,REYES,R,,9234088891,rrreyes@bpi.com.ph,"SERVICE STAFF",,,"BPI/MS INSURANCE CORP.","NON-MOTOR CLAIMS",Main,,,,,,,0,0,0,"0000-00-00 00:00:00"
17392,RONA,ALMAZAN,M,,9086383627,almazanrona@yahoo.com,"SERVICE ASSOCIATE",,,"BPI/MS INSURANCE CORP.","LIPA BRANCH",Main,,,,,,,0,0,0,"0000-00-00 00:00:00"
21142,RONA,HERMOGENES,D,,9189790311,rdhermogenes@bpi.com.ph,"SALES MANAGER",,,"BPI/MS INSURANCE CORP.","SPECIAL PROJECTS",Main,,,,,,,0,0,0,"2015-07-23 12:31:49"
22463,RONAWYN,MAYO,D,,9155695204,rdmayo@bpims.com,"UNIT HEAD",,,"BPI/MS INSURANCE CORP.","BUDGET / CONTROL & ANALYSI",Main,,,,,,,0,0,0,"0000-00-00 00:00:00"
21958,ROSAVI,LUCINADA,A,,9321616809,ralucinada@bpims.com,"OPERATIONS STAFF",,,"BPI/MS INSURANCE CORP.","SALES SERVICES",Main,,,,,,,0,0,0,"0000-00-00 00:00:00"
20378,ROSELLE,FABROA,R,,9052970400,rrfabroa@bpims.com,"SENIOR SALES ASSOCIATE",,,"BPI/MS INSURANCE CORP.","AGENCIES 1",Main,,,,,,,0,0,0,"0000-00-00 00:00:00"
20068,ROWEL,DUBLICO,D,,9479623582,coy_dude21@yahoo.com,"SERVICE STAFF",,,"BPI/MS INSURANCE CORP.","DAVAO BRANCH",Main,,,,,,,0,0,0,"0000-00-00 00:00:00"
18779,ROXANE,CAPISTRANO,E,,9369245101,recapistrano@bpims.com,"SERVICE STAFF",,,"BPI/MS INSURANCE CORP.","BROKERS 3",Main,,,,,,,0,0,0,"0000-00-00 00:00:00"
23256,"RUBEE ANN",PALO,T,,9193354937,joeljing21@yahoo.com,"SALES ASSOCIATE",,,"BPI/MS INSURANCE CORP.","LIPA BRANCH",Main,,,,,,,0,0,0,"0000-00-00 00:00:00"
25777,"RUTH FATIMA",YLASCO,F,,9277808032,rfylasco@yahoo.com,"SENIOR OPERATIONS ASSOCIATE",,,"BPI/MS INSURANCE CORP.",COLLECTION,Main,,,,,,,0,0,0,"0000-00-00 00:00:00"
20914,RYAN,GODALA,N,,9235571819,rngodala@bpims.com,"JUNIOR UNDERWRITING SPECIALIST",,,"BPI/MS INSURANCE CORP.","MOTOR UNDERWRITING",Main,,,,,,,0,0,0,"0000-00-00 00:00:00"
24667,RYAN,SEBALLA,M,,9166115875,rmseballa@bpims.com,"SALES OFFICER",,,"BPI/MS INSURANCE CORP.","QUEZON CITY BRANCH",Main,,,,,,,0,0,0,"0000-00-00 00:00:00"
17416,"SHEENA VIE",ALTAREJOS,C,,9433336678,svcaltarejos@bpims.com,"SERVICE STAFF",,,"BPI/MS INSURANCE CORP.","BROKERS 3",Main,,,,,,,0,0,0,"0000-00-00 00:00:00"
17924,SHERIL,BALIAN,B,,9057028616,xiehmar_28@yahoo.com,"SERVICE STAFF",,,"BPI/MS INSURANCE CORP.",COLLECTION,Main,,,,,,,0,0,0,"0000-00-00 00:00:00"
18472,SHERYLL,BUHAWE,L,,9207924244,stllorada@bpims.com,"SERVICE STAFF",,,"BPI/MS INSURANCE CORP.","BONDS DEPARTMENT",Main,,,,,,,0,0,0,"0000-00-00 00:00:00"
24457,SILKY,"SAN DIEGO",S,,9228803714,sssandiego@bpims.com,"OPERATIONS ASSOCIATE",,,"BPI/MS INSURANCE CORP.","BPI DIVISION",Main,,,,,,,0,0,0,"0000-00-00 00:00:00"
23168,SUNSHINE,PACIS,F,,9219877766,sfpacis@bpims.com,"SERVICE STAFF",,,"BPI/MS INSURANCE CORP.","BPI DIVISION",Main,,,,,,,0,0,0,"0000-00-00 00:00:00"
24130,"TIMOTHY JED",ROCAMORA,E,,9196741048,tjerocamora@bpims.com,"SERVICE STAFF",,,"BPI/MS INSURANCE CORP.","AGENCY SERVICES DEPARTMENT",Main,,,,,,,0,0,0,"0000-00-00 00:00:00"
24438,"VALERIE ANN",SAMOZA,S,,9162946277,vassamoza@bpims.com,"SERVICE STAFF",,,"BPI/MS INSURANCE CORP.","NON-MOTOR CLAIMS",Main,,,,,,,0,0,0,"0000-00-00 00:00:00"
21468,VICTORIA,KINTANAR,J,,9173217423,vjkintanar@bpims.com,"SALES STAFF",,,"BPI/MS INSURANCE CORP.","CEBU BRANCH",Main,,,,,,,0,0,0,"0000-00-00 00:00:00"
25113,"VINCENT LOUIE",TAYLO,R,,9103506405,vrtaylo@bpims.com,"SALES STAFF",,,"BPI/MS INSURANCE CORP.","BROKERS 2",Main,,,,,,,0,0,0,"0000-00-00 00:00:00"
18366,WILLIAM,"BONTO, Jr.",F,,9186966848,wfbontojr@bpi.com.ph,"SALES STAFF",,,"BPI/MS INSURANCE CORP.","BPI DIVISION",Main,,,,,,,0,0,0,"0000-00-00 00:00:00"
20910,"WILLIAM CHRISTOPHER",GO,S,,9174385557,christopher_stig@yahoo.com,"SERVICE STAFF",,,"BPI/MS INSURANCE CORP.","SALES SERVICES",Main,,,,,,,0,0,0,"0000-00-00 00:00:00"
18784,"ZANALE JEAN",CAPULONG,M,,9184400008,zjmcapulong@bpims.com,"SERVICE STAFF",,,"BPI/MS INSURANCE CORP.","AGENCIES 2",Main,,,,,,,0,0,0,"0000-00-00 00:00:00"
23591,ZEDDRIK,PINGOL,R,,9059331253,zrpingol@bpims.com,"SERVICE STAFF",,,"BPI/MS INSURANCE CORP.","BPI CORPORATE BANKING",Main,,,,,,,0,0,0,"0000-00-00 00:00:00"
19394,ZENAIDA,CUERDO,M,,9395090822,zmcuerdo@bpims.com,"SALES ASSOCIATE",,,"BPI/MS INSURANCE CORP.","AGENCIES 2",Main,,,,,,,0,0,0,"0000-00-00 00:00:00"
22154,"ZIAN ALEXIS",MALICSI,M,,9069135545,zian_malicsi@yahoo.com,"SERVICE STAFF",,,"BPI/MS INSURANCE CORP.","PRODUCT DEVELOPMENT",Main,,,,,,,0,0,0,"0000-00-00 00:00:00"
