id,first_name,last_name,middle_initial,gender,mobile_no,email,position,employee_no,blood_type,company,department,site,address_street,address_line_2,address_city,address_state,address_country,address_zip_code,is_supervisor,is_rescuer,supervisor_id,date_registered
26721,Agnes,Sayao,d,,9178398881,sayao.ar@sonomaserv.com,Manager,,,SONOMA,"Financial Mgt",Main,,,,,,,0,0,0,"0000-00-00 00:00:00"
26718,Angelique,Rubio,A,,9174523446,rubio.aa@sonomaserv.com,"Assistant Accountant",,,SONOMA,"Financial Mgt",Main,,,,,,,0,0,0,"0000-00-00 00:00:00"
26716,Benjamin,Ortiz,E,,9276535770,ortiz.be@sonomaserv.com,"Bank Liaison",,,SONOMA,"Treasury & Systems",Main,,,,,,,0,0,0,"0000-00-00 00:00:00"
26717,Bernard,Paez,D,,9178398887,bernard_paez@yahoo.com,"Purchasing & Liaison Asst",,,SONOMA,"Technical & Proj Mgt",Main,,,,,,,0,0,0,"0000-00-00 00:00:00"
26710,"Eileen May",Jocson,V,,9175828083,jocson.emv@sonomaserv.com,"Treasury Supervisor",,,SONOMA,"Treasury & Invt.",Main,"t bautista","block 35 lot 9 ","fort bonifacio",taguig,philippines,,0,0,0,"2015-08-05 12:42:36"
26719,Erickson,Rumbines,C,,9178535206,rumbines.ec@sonomaserv.com,"Technical Asst",,,SONOMA,"Technical & Proj Mgt",Main,,,,,,,0,0,0,"0000-00-00 00:00:00"
26712,Estrella,Mariano,E,,9175231532,mariano.ee@sonomaserv.com,"General Manager",,,SONOMA,"Office of the GM",Main,,,,,,,0,0,0,"2015-08-04 11:14:18"
26709,Glorilyn,Ijalo,U,,9225885719,ijalo.gu@sonomaserv.com,"Records Control Asst",,,SONOMA,"Treasury & Invt.",Main,,,,,,,0,0,0,"2015-08-05 13:17:13"
26706,"John Ronan Tristan",Esplana,Q,,9175942324,esplana.jrtq@sonomaserv.com,"Assistant Accountant",,,SONOMA,"Financial Mgt",Main,,,,,,,0,0,0,"0000-00-00 00:00:00"
26701,Julius,Blanco,N,,9175828031,blanco.jn@sonomaserv.com,"Asst Dept Manager",,,SONOMA,"Treasury & Systems",Main,,,,,,,0,0,0,"0000-00-00 00:00:00"
26720,"Katrina Angelica",Santos,M,,9055064125,santos.kam@sonomaserv.com,"Acctg Asst.",,,SONOMA,"Financial Mgt",Main,,,,,,,0,0,0,"2015-08-05 18:06:03"
26708,Krystal,Gamit,E,,9173226985,gamit.ke@sonomaserv.com,"Senior Accountant",,,SONOMA,"Financial Mgt",Main,,,,,,,0,0,0,"2015-08-04 12:43:01"
26722,"Ma. Carla",Tapispisan,A,,9178607518,tapispisan.ca@sonomaserv.com,"Spec. Services & HR Asst",,,SONOMA,"Special Services & HR",Main,,,,,,,0,0,0,"0000-00-00 00:00:00"
26704,"Ma. Victoria","Del Mundo",M,,9178398883,delmundo.mvm@sonomaserv.com,Manager,,,SONOMA,"Special Services & HR",Main,,,,,,,0,0,0,"0000-00-00 00:00:00"
26711,"Maria Socorro",Ligon,A,,9178398886,ligon.msa@sonomaserv.com,"Asst Dept Manager",,,SONOMA,"Special Services & HR",Main,,,,,,,0,0,0,"0000-00-00 00:00:00"
26714,Marilyn,Ocampo,S,,9178550950,ocampo.ms@sonomaserv.com,"Senior Cashier",,,SONOMA,"Treasury & Systems",Main,"Blk 35 Lot ",,,,,,0,0,0,"2015-08-05 12:54:56"
26715,Marivic,Onia,S,,9175259782,onia.ms@sonomaserv.com,"Senior Accountant",,,SONOMA,"Financial Mgt",Main,,,,,,,0,0,0,"0000-00-00 00:00:00"
26699,Myra,Aranel,O,,9155869820,aranel.mo@sonomaserv.com,"Junior Accountant",,,SONOMA,"Financial Mgt",Main,,,,,,,0,0,0,"0000-00-00 00:00:00"
26703,"Rhena Paulette",Canieta,C,,9273089362,canieta.rpc@sonomaserv.com,"Acctg Supervisor",,,SONOMA,"Financial Mgt",Main,,,,,,,0,0,0,"2015-08-04 15:36:29"
26705,Ricky,Degracia,V,,9178398885,degracia.rv@sonomaserv.com,Manager,,,SONOMA,"Technical & Proj Mgt",Main,,,,,,,0,0,0,"0000-00-00 00:00:00"
26698,Rizalino,Adaya,M,,9351205817,adaya.rm@sonomaserv.com,"Acctg Asst.",,,SONOMA,"Financial Mgt",Main,,,,,,,0,0,0,"0000-00-00 00:00:00"
26707,Roselle,Flores,D,,9269472572,flores.rd@sonomaserv.com,"Acctg Asst.",,,SONOMA,"Financial Mgt",Main,,,,,,,0,0,0,"2015-08-05 08:02:35"
26713,"Roselle Sharon",Mendoza,R,,9178398882,mendoza.rsr@sonomaserv.com,Manager,,,SONOMA,"Treasury & Systems",Main,"B35 L9&10 T.Bautista Street","AFPOVAI Phase 2, Fort Bonifacio",Taguig,Manila,Philippines,1630,0,0,0,"2015-08-04 15:36:23"
26700,Vanessa,Besas,M,,9178567482,besas.vm@sonomaserv.com,"Asst Dept Manager",,,SONOMA,"Financial Mgt",Main,"T. Bautista St. AFPOVAI Ph2","Western Bicutan","Taguig City","Metro Manila",Philippines,,0,0,0,"2015-08-03 11:28:05"
26702,Vanessa,Calisura,B,,9772062116,calisura.mvb@sonomaserv.com,"Asst Records Mgt",,,SONOMA,"Treasury & Systems",Main,,,,,,,0,0,0,"0000-00-00 00:00:00"
