id,first_name,last_name,middle_initial,gender,mobile_no,email,position,employee_no,blood_type,company,department,site,address_street,address_line_2,address_city,address_state,address_country,address_zip_code,is_supervisor,is_rescuer,supervisor_id,date_registered
25891,Cha,Pineda,S.,F,9159234675,cpineda@yondu.com,Developer,22-00440,A/B+,"AGC 2nd Team",IT,BGC,"168 Osmeña Street","Brgy I","Cabuyao City",Laguna,Philippines,4025,1,1,0,"2015-10-30 14:46:26"
28377,Ken,Bahia,C,,9265350995,kbahia@yondu.com,Dev,1234,B+,"AGC 2nd Team",IT,BGC,,,Mandaluyong,,PH,,1,1,0,"2015-11-03 22:51:23"
28383,"Miguel Nathan",Tolibas,M,M,9063894114,mtolibas@yondu.com,"Business Analyst",1234,A+,"AGC 2nd Team",IT,BGC,,,,,,,1,1,0,"2015-11-04 06:32:11"
