id,first_name,last_name,middle_initial,gender,mobile_no,email,position,employee_no,blood_type,company,department,site,address_street,address_line_2,address_city,address_state,address_country,address_zip_code,is_supervisor,is_rescuer,supervisor_id,date_registered
25906,Annabel,Yu,P,,9175599390,yu.ap@ayalaaviation.com.ph,"Chief Finance Officer",,,Aviation,"Finance and Admin",Main,,,,,,,0,0,0,"0000-00-00 00:00:00"
25895,Christopher,Dagli,L,,9178635920,dagli.cl@ayalaaviation.com.ph,"Crew Chief",,,Aviation,Maintenance,Main,,,,,,,0,0,0,"0000-00-00 00:00:00"
25897,Dennis,Enriquez,O,,9178635921,enriquez.do@ayalaaviation.com.ph,"Flight Dispatcher",,,Aviation,"Flight Operations",Main,,,,,,,0,0,0,"0000-00-00 00:00:00"
25892,Elizabeth,Balanag,B,,9179707147,balanag.eb@ayalaaviation.com.ph,"Finance and HR Assistant",,,Aviation,"FINANCE AND HR",Main,,,,,,,0,0,0,"0000-00-00 00:00:00"
25899,Engracio,"Fabre III",L,,9178475068,fabre.el@ayalaaviation.com.ph,Mechanic,,,Aviation,Maintenance,Main,,,,,,,0,0,0,"0000-00-00 00:00:00"
25902,Jaime,Peralta,O,,9178635907,peralta.jo@ayalaaviation.com.ph,"QST Manager/Pilot",,,Aviation,"Quality, Safety & Training",Main,,,,,,,0,0,0,"2015-11-04 13:51:28"
25898,Joselito,Espino,F,,9152421824,espino.jf@ayalaaviation.com.ph,Mechanic,,,Aviation,Maintenance,Main,,,,,,,0,0,0,"0000-00-00 00:00:00"
25901,Kathleen,Pascua,G,,9178754104,gener.kb@ayalaaviation.com.ph,"Marketing Assistant",,,Aviation,Marketing,Main,,,,,,,0,0,0,"0000-00-00 00:00:00"
25900,Nancy,Ferraz,F,,9178016354,ferraz.nf@ayalaaviation.com.ph,"CRMD Specialist",,,Aviation,"Customer Relations and Marketing",Main,,,,,,,0,0,0,"0000-00-00 00:00:00"
25903,Noel,Rebancos,B,,9178635916,rebancos.nb@ayalaaviation.com.ph,"Purchasing and Admin Asst.",,,Aviation,"General Services",Main,,,,,,,0,0,0,"0000-00-00 00:00:00"
25893,Roger,Bornillo,C,,9178016350,bornillo.rc@ayalaaviation.com.ph,"Maintenance Manager",,,Aviation,Maintenance,Main,,,,,,,0,0,0,"0000-00-00 00:00:00"
25894,Rolando,Cokiangco,N,,9178635917,cokiangco.bn@ayalaaviation.com.ph,"Quality Assurance Inspector",,,Aviation,"Quality, Safety & Training",Main,,,,,,,0,0,0,"0000-00-00 00:00:00"
25904,Romulo,Seva,S,,9178594064,seva.bs@ayalaaviation.com.ph,"Flight Operations Manager/Pilot",,,Aviation,"Flight Operations",Main,,,,,,,0,0,0,"0000-00-00 00:00:00"
25896,"Rowena Lourdes",Ebreo,S,,9151744747,ebreo.rls@ayalaaviation.com.ph,Secretary,,,Aviation,"Office Of The President",Main,,,,,,,0,0,0,"0000-00-00 00:00:00"
25905,Sylvia,Taburnal,D,,9178635925,taburnal.sd@ayalaaviation.com.ph,"Finance and HR Supervisor",,,Aviation,"FINANCE AND HR",Main,,,,,,,0,0,0,"0000-00-00 00:00:00"
