id,first_name,last_name,middle_initial,gender,mobile_no,email,position,employee_no,blood_type,company,department,address_street,address_line_2,address_city,address_state,address_country,address_zip_code,is_supervisor,is_rescuer,supervisor_id
,Fred,Ayala,NA,,9178418283,fred.ayala@liveit.ph,CEO,,,LiveIt Investments Ltd.,Executive Office,,,,,,,,,
,Peter,Maquera,NA,,9175459389,maquera.pd@liveit.ph,General Manager,,,LiveIt Investments Ltd.,Executive Office,,,,,,,,,
,Leny,Salumbre,NA,,9175657714,salumbre.es@liveit.ph,Director for Investments,,,LiveIt Investments Ltd.,Executive Office,,,,,,,,,
,Lani,Santillan,NA,,9177944990,santillan.lb@liveit.ph,Chief Finance Offier,,,LiveIt Investments Ltd.,Finance HR and Admin,,,,,,,,,
,Mae,Go,NA,,9178239836,go.mae@liveit.ph,Internal Audit Manager,,,LiveIt Investments Ltd.,Internal Audit,,,,,,,,,
,Ruby,Banez,NA,,9175728716,banez.rs@liveit.ph,Executive Assistant to the CEO,,,LiveIt Investments Ltd.,Executive Office,,,,,,,,,
,Catherine,Lim,NA,,9178140696,lim.cv@liveit.ph,IT Audit Supervisor,,,LiveIt Investments Ltd.,Internal Audit,,,,,,,,,
,Francis,Arzaga,NA,,9178147671,arzaga.fj@liveit.ph,Finance and Admin Supervisor,,,LiveIt Investments Ltd.,Finance HR and Admin,,,,,,,,,
,Kriselle,Sebastian,NA,,9178139473,sebastian.ks@liveit.ph,Financial Analyst,,,LiveIt Investments Ltd.,Finance HR and Admin,,,,,,,,,
,Mae,Luberas,NA,,9178212001,luberas.mae@liveit.ph,Finance Associate,,,LiveIt Investments Ltd.,Finance HR and Admin,,,,,,,,,
