id,first_name,last_name,middle_initial,gender,mobile_no,email,position,employee_no,blood_type,company,department,address_street,address_line_2,address_city,address_state,address_country,address_zip_code,is_supervisor,is_rescuer,supervisor_id
,Joan,Penaflorida,NA,,9175458243,joan@yondu.com,General Manager,,,Yondu Inc.,Office of the General Manager,,,,,,,,,
,Gail,Campo,NA,,9175439809,gcampo@yondu.com,Head,,,Yondu Inc.,Office of the General Manager,,,,,,,,,
,Carlo,Lasala,NA,,9178315191,clasala@yondu.com ,Head,,,Yondu Inc.,Office of the General Manager,,,,,,,,,
,Hernan,Mayhay,NA,,9175339204,clasala@yondu.com ,Business Development Director,,,Yondu Inc.,TOP,,,,,,,,,
,Katherine Ann,Yutoc,NA,,9175370775,kyutoc@yondu.com,Business Development Officer,,,Yondu Inc.,TOP,,,,,,,,,
,Lenbert,Del Pilar,NA,,9175247180,ldelpilar@yondu.com,Business Development Officer,,,Yondu Inc.,TOP,,,,,,,,,
,Cristy,Castro,NA,,9173263163,ccastro@yondu.com ,Resource Manager,,,Yondu Inc.,TOP,,,,,,,,,
,Francis,Mendoza,NA,,9173293163,fmendoza@yondu.com ,Business Development Director,,,Yondu Inc.,TOP,,,,,,,,,
,Jennie,Tarrobago,NA,,9175710209,jtarrobago@yondu.com,Business Development Director,,,Yondu Inc.,TOP,,,,,,,,,
