  id,first_name,last_name,middle_initial,gender,mobile_no,email,position,employee_no,blood_type,company,department,address_street,address_line_2,address_city,address_state,address_country,address_zip_code,is_supervisor,is_rescuer,supervisor_id
7721,Ali Gramme,Binaday,A,M,9178814285,binaday.ali@philenergy.com.ph,Business Development Associate,,0,"Philippine Integrated Energy Solutions, Inc.",Business Development,,,,,Philippines,,0,0,7727
7734,Andrew,Simon,C,M,9178532182,simon.andrew@philenergy.com.ph,Junior Mechanical Design Enginee,,0,"Philippine Integrated Energy Solutions, Inc.",Design,,,,,Philippines,,0,0,7730
7720,Anthony,Belmonte,C,M,9178478198,belmonte.tony@philenergy.com.ph,Construction Management Associat,,0,"Philippine Integrated Energy Solutions, Inc.",Construction Management,,,,,Philippines,,0,0,7732
7732,Arnold,Rivera,C,M,9178676256,rivera.arnold@philenergy.com.ph,Senior Operations Manager,,0,"Philippine Integrated Energy Solutions, Inc.",Operations,,,,,Philippines,,1,0,0
7735,Eduard,Ybarbia,V,M,9175127814,ybarbia.eduard@philenergy.com.ph,Business Development Manager,,0,"Philippine Integrated Energy Solutions, Inc.",Business Development,,,,,Philippines,,1,0,7724
7726,Jamaica,Dimaculangan,P,M,9175519535,dimaculangan.jamaica@philenergy.com.ph,Senior Finance Associate,,0,"Philippine Integrated Energy Solutions, Inc.",Finance,,,,,Philippines,,0,0,0
7718,Jan Michael,Ambito,D,M,9178814414,ambito.janmichael@philenergy.com.ph,Cost Engineer,,0,"Philippine Integrated Energy Solutions, Inc.",Construction Management,,,,,Philippines,,0,0,7733
7722,Joel,Cabio,C,M,9178895701,cabio.joel@philenergy.com.ph,Junior Mechanical Design Enginee,,0,"Philippine Integrated Energy Solutions, Inc.",Design,,,,,Philippines,,0,0,7730
7727,John Howard,Garcia,A,M,9175337712,garcia.jerard@philenergy.com.ph,Business Development Manager,,0,"Philippine Integrated Energy Solutions, Inc.",Business Development,,,,,Philippines,,1,0,0
7719,John Michael,Atienza,R,M,9178748004,atienza.johnmichael@philenergy.com.ph,Junior Electrical Design Enginee,,0,"Philippine Integrated Energy Solutions, Inc.",Design,,,,,Philippines,,0,0,7728
7724,Jonathan,David,C,M,9178067511,david.jon@philenergy.com.ph,Business Development Director,,0,"Philippine Integrated Energy Solutions, Inc.",Business Development,,,,,Philippines,,1,0,0
7728,Jose Gordon,Gomez,M,M,9173026379,gomez.don@philenergy.com.ph,Senior Electrical Design Enginee,,0,"Philippine Integrated Energy Solutions, Inc.",Design,,,,,Philippines,,1,0,0
7729,Ma. Bernadette,Gonzales,T,M,9178086466,gonzales.bernadette@philenergy.com.ph,Lead AutoCAD Operator,,0,"Philippine Integrated Energy Solutions, Inc.",Design,,,,,Philippines,,0,0,7730
7723,Mark Christian,Ceribo,L,M,9178913531,ceribo.mark@philenergy.com.ph,Facilities Administrator,,0,"Philippine Integrated Energy Solutions, Inc.",Operations,,,,,Philippines,,0,0,7732
7725,Roberto Carlo,Dela Rosa,M,M,9178862388,delarosa.carlo@philenergy.com.ph,Project Control Associate Manage,,0,"Philippine Integrated Energy Solutions, Inc.",Finance,,,,,Philippines,,0,0,0
7733,Rolando,Silapan,R,M,9175464135,silapan.bhogs@philenergy.com.ph,Construction Management Associat,,0,"Philippine Integrated Energy Solutions, Inc.",Construction Management,,,,,Philippines,,0,0,7732
7731,Shiela Marie,Morilla,G,M,9178394546,morilla.shiela@philenergy.com.ph,HR & Admin Associate,,0,"Philippine Integrated Energy Solutions, Inc.",HR & Admin,,,,,Philippines,,0,0,0
7730,Wilfredo,Madronio,N,M,9178814376,madronio.wilfredo@philenergy.com.ph,Senior Mechanical Design Enginee,,0,"Philippine Integrated Energy Solutions, Inc.",Design,,,,,Philippines,,1,0,0
