id,first_name,last_name,middle_initial,gender,mobile_no,email,position,employee_no,blood_type,company,department,address_street,address_line_2,address_city,address_state,address_country,address_zip_code,is_supervisor,is_rescuer,supervisor_id
,Patricia,Manhit,Y,,9175883721,patricia.manhit@ayalarewardscircle.com,COO,,,ARC,ARC,,,,,,,,,
,Ramon Donato,Valenzuela,P,,9175237921,rad.valenzuela@ayalarewardscircle.com,Campaigns & Analytics Manager,,,ARC,ARC,,,,,,,,,
,Susan Carmela,Narciso,E,,9175882414,sush.narciso@ayalarewardscircle.com,Marketing & Analytics Manager,,,ARC,ARC,,,,,,,,,
,Venracio,Marquez,T,,9178284075,vinnie.marquez@ayalarewardscircle.com,Subsidiary Alignment Manager,,,ARC,ARC,,,,,,,,,
,Nicole,Marquez-Lim,E,,9178316348,nicole.marquez-lim@ayalarewardscircle.com,Assistant Marketing & Analytics Manager,,,ARC,ARC,,,,,,,,,
,Nina Paula,Santos,L,,9175837659,nina.santos@ayalarewardscircle.com,Assistant Subsidiary Alignment Manager,,,ARC,ARC,,,,,,,,,
,Francis Dominic,Tupue,M,,9159946973,francis.tupue@ayalarewardscircle.com,Operations Specialist,,,ARC,ARC,,,,,,,,,
,Alexandra Joyce,Bunag,A,,9175837715,Alex.bunag@ayalarewardscircle.com,Operations Specialist,,,ARC,ARC,,,,,,,,,
,Aubrey Vess Melkysa,Corpus,L,,9178229867,Aubrey.corpus@ayalarewardscircle.com,Operations Specialist,,,ARC,ARC,,,,,,,,,
,Ma. Fatima Krista,Bautista,M,,9178244154,tanya.bautista@ayalarewardscircle.com,Admin. Officer,,,ARC,ARC,,,,,,,,,
,Ephraim,Caasi,A,,9158195715,ephraim.caasi@ayalarewardscircle.com,Contractual,,,ARC,ARC,,,,,,,,,
,Jimuel,Nitcha,S,,9058934663,jsnitcha@reyestacandong.com,Contractual,,,ARC,ARC,,,,,,,,,
