id,department_name,description
,Reservations,
,Sales & Marketing,
,Loss Prevention,
,Events,
,At Your Service,
,Finance,
,Engineering,
,Housekeeping,
,Food & Beverage Service,
,EDP,
,Executive Office,
,Fitness Center,
,Human Resources,
,Food & Beverage Kitchen,
,Laundry,
,Bell Service,
,Purchasing,
