  id,first_name,last_name,middle_initial,gender,mobile_no,email,position,employee_no,blood_type,company,department,site,address_street,address_line_2,address_city,address_state,address_country,address_zip_code,is_supervisor,is_rescuer,supervisor_id,date_registered
151,Jose Manolo,Abad,E,,9178501216,abad.jme@ayalainfra.com,Senior Manager,,,AC Energy and Infra Group,Strategic Management & Communications,Makati,,,,,,,0,0,0,11/4/2015 13:51
176,Leah Amor,Acuna,B,,9178052468,acuna.lab@acenergy.com.ph,Associate,,,AC Energy and Infra Group,Human Resources And Administrative Services,Makati,,,,,,,0,0,0,0000-00-00 00:00:00
73,Fatima,Agbayani,P,,9175649367,agbayani.fp@ayala.com.ph,Chief Finance Officer,,,AC Energy and Infra Group,Finance & Accounting,Makati,,,,,,,0,0,0,0000-00-00 00:00:00
,Edgar Allan,Alcantara,M,,9178262710,alcantara.eam@acenergy.com.ph,Associate,,,AC Energy and Infra Group,Finance & Accounting,Makati,,,,,,,,,,
,Mark Angelo,Almero,B,,9178497461,almero.mab@ayalainfra.com,Senior Staff,,,AC Energy and Infra Group,Internal Audit,Makati,,,,,,,,,,
302,Vicente Francis,Arana,L,,9175317560,arana.vl@acenergy.com.ph,Chief Finance Officer,,,AC Energy and Infra Group,Finance & Accounting,Taguig,,,,,,,0,0,0,0000-00-00 00:00:00
104,Janet,Bautista,A,,9175633060,bautista.ja@ayalainfra.com,Senior Manager,,,AC Energy and Infra Group,Infrastructure Operations,Makati,,,,,,,0,0,0,7/29/2015 13:01
,Joie,Bayot,S,,9175796169,bayot.js@acenergy.com.ph,Associate,,,AC Energy and Infra Group,Human Resources And Administrative Services,Makati,,,,,,,,,,
63,Eileen,Bulaong,R,,9175485036,bulaong.er@acenergy.com.ph,Senior Staff,,,AC Energy and Infra Group,Finance & Accounting,Makati,,,,,,,0,0,0,7/31/2015 16:33
257,Ramon,Cabazor,D,,9175505464,cabazor.rd@acenergy.com.ph,Technical Manager,,,AC Energy and Infra Group,Energy Operations,Pasig,,,,,,,0,0,0,0000-00-00 00:00:00
152,Joseph,Canlas,C,,9178155034,canlas.jc@ayalainfra.com,Manager,,,AC Energy and Infra Group,Infrastructure Operations,Muntinlupa,,,,,,,0,0,0,0000-00-00 00:00:00
189,Ma. Amelia,Cayaba,S,,9178557473,cayaba.mas@ayala.com.ph,Executive Assistant,,,AC Energy and Infra Group,Office Of The President,Makati,,,,,,,0,0,0,7/24/2015 9:24
242,Patrice,Clausse,R,,9175536371,clausse.pr@ayala.com.ph,Chief Operating Officer,,,AC Energy and Infra Group,Energy Operations,Makati,,,,,,,0,0,0,0000-00-00 00:00:00
225,Melito,Cruz,A,,9178132690,cruz.ma@ayalainfra.com,Senior Manager,,,AC Energy and Infra Group,Infrastructure Operations,Makati,,,,,,,0,0,0,0000-00-00 00:00:00
291,Shulah,Dacmay,B,,9157637451,dacmay.sb@ayalainfra.com,Associate,,,AC Energy and Infra Group,Finance & Accounting,Makati,,,,,,,0,0,0,0000-00-00 00:00:00
116,Jayme Grace,Dela Cruz,C,,9178482376,chua.jgy@acenergy.com.ph,Senior Manager,,,AC Energy and Infra Group,Energy Operations,Makati,,,,,,,0,0,0,7/21/2015 17:02
264,Richardson,Delos Santos,C,,9176234901,delossantos.rc@acenergy.com.ph,Manager,,B+,AC Energy and Infra Group,Internal Audit,Makati,Lawton Avenue,413 Hermosa Bldg. Bonifacio Heights Residences,Taguig City,Metro Manila,Philippines,,0,0,0,11/9/2015 11:18
196,Marco Arnold,Duay,D,,9175659747,duay.mad@ayala.com.ph,Manager,,,AC Energy and Infra Group,Finance & Accounting,Makati,,,,,,,0,0,0,0000-00-00 00:00:00
195,Marc Daniel,Dy,K,,9178635477,dy.mdk@acenergy.com.ph,Manager,,,AC Energy and Infra Group,Energy Operations,Makati,,,,,,,0,0,0,0000-00-00 00:00:00
140,John Eric,Francia,T,,9175266314,francia.jet@ayala.com.ph,President & Ceo,,,AC Energy and Infra Group,Office Of The President,Makati,,,,,,,0,0,0,0000-00-00 00:00:00
97,J. Edmond,Garcia,C,,9175339611,garcia.je@acenergy.com.ph,Chief Finance Officer,,,AC Energy and Infra Group,Finance & Accounting,Pasig,,,,,,,0,0,0,0000-00-00 00:00:00
,Henry Jr.,Gomez,T,,9178372821,gomez.ht@acenergy.com.ph,Associate,,,AC Energy and Infra Group,Internal Audit,Makati,,,,,,,,,,
93,Ignacio Francisco,Gonzales,K,,9178502107,gonzalez.ik@acenergy.com.ph,Associate,,,AC Energy and Infra Group,Strategic Management & Communications,Makati,,,,,,,0,0,0,7/22/2015 17:38
274,Ronald Luis,Goseco,S,,9175222532,goseco.rs@ayala.com.ph,Chief Finance Officer,,,AC Energy and Infra Group,Finance & Accounting,Makati,,,,,,,0,0,0,0000-00-00 00:00:00
6,Aldwin Aris,Gregorio,C,,9175814457,gregorio.aac@ayalainfra.com,Head,,O,AC Energy and Infra Group,Human Resources And Administrative Services,Makati,Purple Circle,Goodwill 2,Paranaque,Metro Manila,Philippines,,0,0,0,7/28/2015 15:19
265,Riolita,Inocencio,D,,9175000746,inocencio.rc@ayalainfra.com,Senior Manager,,,AC Energy and Infra Group,Legal & Regulatory Affairs,Makati,,,,,,,0,0,0,7/31/2015 10:38
,Joyce Dominique,Jiao,J,,9178049026,jiao.jdj@acenergy.com.ph,Commercial Risk Officer,,,AC Energy and Infra Group,Risk,Makati,,,,,,,,,,
239,Noel Eli,Kintanar,B,,9178415755,kintanar.neb@ayalainfra.com,Chief Operating Officer,,,AC Energy and Infra Group,Infrastructure Operations,Makati,,,,,,,0,0,0,0000-00-00 00:00:00
55,Dodjie,Lagazo,NA,,9175770899,lagazo.dd@acenergy.com.ph,Head,,,AC Energy and Infra Group,Legal & Regulatory Affairs,Makati,,,,,,,0,0,0,0000-00-00 00:00:00
71,Erwin,Locsin,P,,9175360542,locsin.ep@ayala.com.ph,Vice President,,,AC Energy and Infra Group,Infrastructure Operations,Makati,,,,,,,0,0,0,0000-00-00 00:00:00
95,Irene,Maranan,S,,9175298339,maranan.is@ayalainfra.com,Senior Manager,,,AC Energy and Infra Group,Strategic Management & Communications,Makati,,,,,,,0,0,0,7/29/2015 9:31
,Richelle,Marders,,,9175488006,marders.rmm@acenergy.com.ph,Manager,,,AC Energy and Infra Group,Legal & Regulatory Affairs,Makati,,,,,,,,,,
,Mitchel Cloyd ,Masaudling,P,,9178127044,masaudling.mcp@ayalaincfra.com,Manager,,,AC Energy and Infra Group,Strategic Management & Communications,Makati,,,,,,,,,,
77,Gabino Ramon,Mejia,G,,9178670517,mejia.grg@acenergy.com.ph,Vice President,,,AC Energy and Infra Group,Energy Operations,Pasig,,,,,,,0,0,0,0000-00-00 00:00:00
224,Maybelle Blaine,Ocampo Tan,C,,9175143484,tan.bo@acenergy.com.ph,Associate,,,AC Energy and Infra Group,Strategic Management & Communications,Makati,,,,,,,0,0,0,7/28/2015 15:36
249,Princess Marie,Tayag,A,,9175898804,tayag.pma@acenergy.com.ph,Senior Manager,,,AC Energy and Infra Group,Finance & Accounting,Makati,,,,,,,0,0,0,0000-00-00 00:00:00
240,Norma,Torres,P,,9178994103,torres.np@ayala.com.ph,Head,,,AC Energy and Infra Group,Strategic Management & Communications,Makati,,,,,,,0,0,0,0000-00-00 00:00:00
305,Wilma,Zapata,P,,9178441260,zapata.wp@ayalainfra.com,Senior Manager,,,AC Energy and Infra Group,Finance & Accounting,Makati,,,,,,,0,0,0,0000-00-00 00:00:00
100,Jaime Urquijo,Zobel De Ayala,NA,,9175269679,urquijo.jz@ayala.com.ph,Manager,,,AC Energy and Infra Group,Infrastructure Operations,Makati,,,,,,,0,0,0,0000-00-00 00:00:00
