  id,first_name,last_name,middle_initial,gender,mobile_no,email,position,employee_no,blood_type,company,department,site,city/municipality,address_street,address_line_2,address_city,address_state,address_country,address_zip_code,is_supervisor,is_rescuer,supervisor_id,date_registered
,Anabelle,Lumapas,P,F,9178488106,lumapas.anabelle@ayalaland.com.ph,Marketing & Sales Office,,,"Ayala Land Sales, Inc",,Cebu,"CEBU CITY, Region VII - Central Visayas",,,,,,,0,0,235,0000-00-00 00:00:00
,Bemille ,Galang,S,F,9277383288,galang.bem@ayalaland.com.ph,Project Sales Associate,,,"Ayala Land Sales, Inc",Project Development,Main,"CITY OF MAKATI, NCR - National Capital Region",,,,,,,0,0,0,0000-00-00 00:00:00
,Kirsten Abrielle ,Saguinsin,C,F,9398981504 (non-globe),saguinsin.kirsten@ayalaland.com.ph,Junior Graphic Artist,,,"Ayala Land Sales, Inc",,Main,"CITY OF MAKATI, NCR - National Capital Region",,,,,,,0,0,0,0000-00-00 00:00:00
,Lizette,Bagsic,L,F,9175253321,bagsic.lizette@ayalaland.com.ph,Human Resources Associate,,,"Ayala Land Sales, Inc",,Main,"CITY OF MAKATI, NCR - National Capital Region",,,,,,,0,0,135,0000-00-00 00:00:00
