  id,first_name,last_name,middle_initial,gender,mobile_no,email,position,employee_no,blood_type,company,department,site,city/municipality,address_street,address_line_2,address_city,address_state,address_country,address_zip_code,is_supervisor,is_rescuer,supervisor_id,date_registered
11,Analie,Encarnacion,E,F,9159099810,rafael.analie@ayalaland.com.ph,Sales Administrative Associate,,A+,"Ayala Land Sales, Inc",Sales Admin,Main,"CITY OF MAKATI, NCR - National Capital Region",,,,,,,0,0,235,0000-00-00 00:00:00
22,Archieval,Palisoc,P,M,9178244614,palisoc.archieval@ayalaland.com.ph,Marketing Associate,,A+,"Ayala Land Sales, Inc",Marketing,Main,"CITY OF MAKATI, NCR - National Capital Region",,,,,,,0,0,76,0000-00-00 00:00:00
41,Danna,Mollo,M,F,9273323168,mollo.danna@ayalaland.com.ph,Senior Sales Administrative Asso,,A+,"Ayala Land Sales, Inc",Sales Admin,Main,"CITY OF MAKATI, NCR - National Capital Region",,,,,,,0,0,235,0000-00-00 00:00:00
49,Denyss Nicole,Agpawa,A,F,9175983464,agpawa.denyss@ayalaland.com.ph,Marketing Associate,,A+,"Ayala Land Sales, Inc",Marketing,Main,"CITY OF MAKATI, NCR - National Capital Region",,,,,,,0,0,76,0000-00-00 00:00:00
67,Emerita,Padilla,P,F,9053478373,padilla.bheng@ayalaland.com.ph,Human Resources Associate,,A+,"Ayala Land Sales, Inc",Human Resources,Main,"CITY OF MAKATI, NCR - National Capital Region",,,,,,,0,0,135,0000-00-00 00:00:00
72,Ever,Termulo,T,M,9279106410,termulo.ever@ayalaland.com.ph,Accounting Associate,,A+,"Ayala Land Sales, Inc",,Main,"CITY OF MAKATI, NCR - National Capital Region",,,,,,,0,0,207,0000-00-00 00:00:00
74,Flerida,Atayde,A,F,9176225138,atayde.ida@ayalaland.com.ph,Corporate Sales Manager,,A+,"Ayala Land Sales, Inc",Corporate Sales,Main,"CITY OF MAKATI, NCR - National Capital Region",,,,,,,1,0,0,0000-00-00 00:00:00
76,Frederick,Cruz,C,M,9178600312,cruz.frederick@ayalaland.com.ph,Marketing Associate Manager,,A+,"Ayala Land Sales, Inc",Marketing,Main,"CITY OF MAKATI, NCR - National Capital Region",,,,,,,1,0,207,0000-00-00 00:00:00
79,Geraldine,Sergio,S,F,9178793992,sergio.geraldine@ayalaland.com.ph,Sales Administrative Associate,,A+,"Ayala Land Sales, Inc",Sales Admin,Main,"CITY OF MAKATI, NCR - National Capital Region",,,,,,,0,0,235,0000-00-00 00:00:00
82,Gina Luz,Hidlao,H,F,9278076577,hidlao.ginaluz@ayalaland.com.ph,Customer Relations Associate,,A+,"Ayala Land Sales, Inc",Customer Relations,Main,"CITY OF MAKATI, NCR - National Capital Region",,,,,,,0,0,0,0000-00-00 00:00:00
88,Grace Marie Kathrine,Mendoza,M,F,9175038954,mendoza.grace@ayalaland.com.ph,Accounting Associate,,A+,"Ayala Land Sales, Inc",,Main,"CITY OF MAKATI, NCR - National Capital Region",,,,,,,0,0,207,0000-00-00 00:00:00
96,Irene,Pugoy,P,F,9063662611,orallo.irene@ayalaland.com.ph,Sales Administrative Associate,,A+,"Ayala Land Sales, Inc",Sales Admin,Main,"CITY OF MAKATI, NCR - National Capital Region",,,,,,,0,0,235,0000-00-00 00:00:00
105,Janice,Salas,S,F,9055633013,salas.janice@ayalaland.com.ph,Sales Administrative Associate,,A+,"Ayala Land Sales, Inc",Sales Admin,Main,"CITY OF MAKATI, NCR - National Capital Region",,,,,,,0,0,235,0000-00-00 00:00:00
134,Joanna Marie,Ledesma,L,F,9258742265,ledesma.joanna@ayalaland.com.ph,Cashier,,A+,"Ayala Land Sales, Inc",Treasury,Main,"CITY OF MAKATI, NCR - National Capital Region",,,,,,,0,0,0,0000-00-00 00:00:00
135,Jocelyn,Pedeglorio,P,F,9175877134,conanan.jolly@ayalaland.com.ph,HR & Administrative Manager,,A+,"Ayala Land Sales, Inc",HR & Admin,Main,"CITY OF MAKATI, NCR - National Capital Region",,,,,,,1,0,207,0000-00-00 00:00:00
137,Johanna,Pula,P,F,9173024585,llanes.johann@ayalalandvismin.com.ph,Sales Administrative Associate,,A+,"Ayala Land Sales, Inc",Sales Admin,Main,"CITY OF MAKATI, NCR - National Capital Region",,,,,,,0,0,0,0000-00-00 00:00:00
143,John Patrick,Amacio,A,M,9369250922,amacio.patrick@ayalalandvismin.com.ph,Marketing and PR Associate,,A+,"Ayala Land Sales, Inc",Marketing,Main,"CITY OF MAKATI, NCR - National Capital Region",,,,,,,0,0,298,0000-00-00 00:00:00
150,Jose Gabriel,Montilla,M,M,9178597624,montilla.poch@ayalaland.com.ph,Project Sales Associate,,A+,"Ayala Land Sales, Inc",Project Development,Main,"CITY OF MAKATI, NCR - National Capital Region",,,,,,,0,0,0,0000-00-00 00:00:00
160,Juan Paolo,Dimaguila,D,M,9175047014,dimaguila.paolo@ayalaland.com.ph,Corporate Sales Officer,,A+,"Ayala Land Sales, Inc",Corporate Sales,Main,"CITY OF MAKATI, NCR - National Capital Region",,,,,,,0,0,74,0000-00-00 00:00:00
165,Karen Grace,Velano,V,F,9175119179,cabayao.karen@ayalaland.com.ph,Customer Relations Associate,,A+,"Ayala Land Sales, Inc",Customer Relations,Main,"CITY OF MAKATI, NCR - National Capital Region",,,,,,,0,0,0,0000-00-00 00:00:00
169,Kristoffer David,Cruz,C,M,9163919001,cruz.david@ayalaland.com.ph,Sales Administrative Associate,,A+,"Ayala Land Sales, Inc",Sales Admin,Main,"CITY OF MAKATI, NCR - National Capital Region",,,,,,,0,0,235,0000-00-00 00:00:00
173,Lalaine,Pioquinto,P,F,9178499267,escalada.lalaine@ayalaland.com.ph,Accounting Associate,,A+,"Ayala Land Sales, Inc",Human Resources,Main,"CITY OF MAKATI, NCR - National Capital Region",,,,,,,0,0,207,0000-00-00 00:00:00
188,Ma. Abigail,Regala,R,F,9272678239,regala.abigail@ayalaland.com.ph,Sales Administrative Associate,,A+,"Ayala Land Sales, Inc",Sales Admin,Main,"CITY OF MAKATI, NCR - National Capital Region",,,,,,,0,0,235,0000-00-00 00:00:00
192,Ma. Margarita,Resurreccion,R,F,9175115525,resurreccion.guita@ayalaland.com.ph,Managing Director,,A+,"Ayala Land Sales, Inc",Office of the Head,Main,"CITY OF MAKATI, NCR - National Capital Region",,,,,,,1,0,0,0000-00-00 00:00:00
206,Marie Arlene,Arcilla,A,F,9058565686,arcilla.arlene@ayalaland.com.ph,Sales Recruitment Associate Mana,,A+,"Ayala Land Sales, Inc",Sales Recruitment,Main,"CITY OF MAKATI, NCR - National Capital Region",,,,,,,0,0,0,0000-00-00 00:00:00
207,Marie Eleanor,Bejar,B,F,9178244618,bejar.girlie@ayalaland.com.ph,Finance & Administrative Manager,,A+,"Ayala Land Sales, Inc",Finance & Admin,Main,"CITY OF MAKATI, NCR - National Capital Region",,,,,,,1,0,0,0000-00-00 00:00:00
211,Marijoy,Uy,U,F,9175143911,uy.joy@ayalaland.com.ph,Office Administrative Associate,,A+,"Ayala Land Sales, Inc",Office Admin,Main,"CITY OF MAKATI, NCR - National Capital Region",,,,,,,0,0,0,0000-00-00 00:00:00
215,Marla,Harder,H,F,9173031196,harder.marla@ayalalandvismin.com.ph,Sales Administrative Associate,,A+,"Ayala Land Sales, Inc",Sales Admin,Bacolod,"BACOLOD CITY, Region VI -  Western Visayas",,,,,,,0,0,298,0000-00-00 00:00:00
231,Michael,Mendoza,M,M,9175952270,mendoza.michael@ayalaland.com.ph,Customer and Project Manager,,A+,"Ayala Land Sales, Inc",Customer Relations,Main,"CITY OF MAKATI, NCR - National Capital Region",,,,,,,0,0,0,0000-00-00 00:00:00
235,Nelia,Paguia,P,F,9178274090,paguia.nelia@ayalaland.com.ph,Sales Administrative Manager,,A+,"Ayala Land Sales, Inc",Sales Admin,Main,"CITY OF MAKATI, NCR - National Capital Region",,,,,,,1,0,207,0000-00-00 00:00:00
243,Paula Carla,Limbang,L,F,9175054361,jupiter.sec@ayalaland.com.ph,Sales Administrative Associate,,A+,"Ayala Land Sales, Inc",Sales Admin,Main,"CITY OF MAKATI, NCR - National Capital Region",,,,,,,0,0,235,0000-00-00 00:00:00
244,Paula Joanna,Lubiano,L,F,9175010051,lubiano.peejay@ayalaland.com.ph,Corporate Sales Officer,,A+,"Ayala Land Sales, Inc",Corporate Sales,Main,"CITY OF MAKATI, NCR - National Capital Region",,,,,,,0,0,74,0000-00-00 00:00:00
246,Philip Marc,Talan,T,M,9178554315,talan.philip@ayalaland.com.ph,Senior Accounting Associate,,A+,"Ayala Land Sales, Inc",,Main,"CITY OF MAKATI, NCR - National Capital Region",,,,,,,0,0,207,0000-00-00 00:00:00
248,Prescy,Estoesta,E,F,9178422202,estoesta.precy@ayalaland.com.ph,Sales Administrative Associate,,A+,"Ayala Land Sales, Inc",Sales Admin,Main,"CITY OF MAKATI, NCR - National Capital Region",,,,,,,0,0,0,0000-00-00 00:00:00
252,Raejie,Juance,J,M,9173001411,juance.raejie@ayalalandvismin.com.ph,Liaison Associate,,A+,"Ayala Land Sales, Inc",ALI Vismin,Bacolod,"BACOLOD CITY, Region VI -  Western Visayas",,,,,,,0,0,298,0000-00-00 00:00:00
260,Renita,Fernandez,F,F,9178540647,fernandez.nette@ayalaland.com.ph,Executive Secretary,,A+,"Ayala Land Sales, Inc",Office of the Head,Main,"CITY OF MAKATI, NCR - National Capital Region",,,,,,,0,0,192,0000-00-00 00:00:00
282,Sandy,Nazarita,N,F,9178485920,sadoguio.sandy@ayalaland.com.ph,Sales Admininstrative Associate,,A+,"Ayala Land Sales, Inc",Sales Admin,Cebu,"CEBU CITY, Region VII - Central Visayas",,,,,,,0,0,235,0000-00-00 00:00:00
288,Shay Ann,Diaz,D,F,9173006638,diaz.shay@ayalalandvismin.com.ph,Office and Customer Relations As,,A+,"Ayala Land Sales, Inc",Customer Relations,Bacolod,"BACOLOD CITY, Region VI -  Western Visayas",,,,,,,0,0,298,0000-00-00 00:00:00
290,Sheena Armie,Miranda,M,F,9178710630,miranda.sheena@ayalaland.com.ph,Sales Administrative Associate,,A+,"Ayala Land Sales, Inc",Sales Admin,Main,"CITY OF MAKATI, NCR - National Capital Region",,,,,,,0,0,235,0000-00-00 00:00:00
294,Sue Ann,Rubin,R,F,9173113334,epitacio.sue@ayalalandvismin.com.ph,Finance Associate,,A+,"Ayala Land Sales, Inc",,Bacolod,"BACOLOD CITY, Region VI -  Western Visayas",,,,,,,0,0,298,0000-00-00 00:00:00
298,Teresa Asuncion,Borromeo,B,F,9178800644,borromeo.therese@ayalalandvismin.com.ph,Branch Head-Negros,,A+,"Ayala Land Sales, Inc",ALI Vismin,Bacolod,"BACOLOD CITY, Region VI -  Western Visayas",,,,,,,1,0,0,0000-00-00 00:00:00
306,Yuri,Barone,B,M,9178218230,barone.yuri@ayalaland.com.ph,Sales Training Development Assoc,,A+,"Ayala Land Sales, Inc",Sales Training,Main,"CITY OF MAKATI, NCR - National Capital Region",,,,,,,0,0,0,0000-00-00 00:00:00
