  id,first_name,last_name,middle_initial,gender,mobile_no,email,position,employee_no,blood_type,company,department,site,address_street,address_line_2,address_city,address_state,address_country,address_zip_code,is_supervisor,is_rescuer,supervisor_id,date_registered
,Aniceto,Bisnar,V,M,9175359961,bisnar.jun@ayalaland.com.ph,President,,0,"AYALA LAND, INC.",Office of the President,,,,,,Philippines,,,,,
,April Rae Hope,Laspinas,D,M,9428568786,laspinas.april@ayalacentercebu.com,CBG Finance Assistant,,0,"CEBU HOLDINGS, INC.",CBG Finance,Main,,,,,Philippines,,0,0,7309,0000-00-00 00:00:00
,Enrique,Manuel Jr.,B,M,9178415686,manuel.rico@ayalaland.com.ph,CFO & VP,,0,AYALAND LAND INC.,Finance,,,,,,Philippines,,,,,
,Hrothgar,Canalita,Z,M,9063642377,,Company Driver,,0,"CEBU HOLDINGS, INC.",Office of the President,Main,,,,,Philippines,,0,0,,0000-00-00 00:00:00
,Ivan Francis,Evangelista,D,M,9177153462,evangelista.ivan@cebuholdings.com,Business Development Supervisor,,0,"CEBU HOLDINGS, INC.",Business Development Group,Main,,,,,Philippines,,0,0,7258,0000-00-00 00:00:00
,Izabelle,Alagon,A,M,9176776748,alagon.ivy@cebuholdngs.com,Accounting Manager,,0,"CEBU HOLDINGS, INC.",Accounting,Main,,,,,Philippines,,1,0,7268,
,Ma. Clavel,Tongco,G,M,9176259805,tongco.clavel@cebuholdings.com,"VP, CHI Commercial Business Group",,0,AYALA LAND INC.,Commercial Business Group,,,,,,Philippines,,,,,
,Miguel Jr.,Abas,G,M,9333012300,abas.miguel@cebuholdings.com,Internal Auditor,,0,"CEBU HOLDINGS, INC.",Audit,Main,,,,,Philippines,,0,0,7331,0000-00-00 00:00:00
,Nerissa,Josef-Mediano,N,M,9175966432,josef.iris@cebuholdings.com,VP Business Devt -Central Visaya Reg,,0,AYALA LAND INC.,Business Development Group,,,,,,Philippines,,1,0,,
