  id,first_name,last_name,middle_initial,gender,mobile_no,email,position,employee_no,blood_type,company,department,site,address_street,address_line_2,address_city,address_state,address_country,address_zip_code,is_supervisor,is_rescuer,supervisor_id,date_registered
6510,Vannessa Loren,Alcayaga,E,M,9178793375,alcayaga.vanessa@amaialand.com,Sales Accounts Management Manage,,0,AMAIA LAND CORP,Sales,Main,,,,,Philippines,,0,0,0,0000-00-00 00:00:00
6511,Joanaluz,Alvarez,A,M,9173242233,alvarez.joanluz@amaialand.com,Sales Accounts Management Associ,,0,AMAIA LAND CORP,Sales,Main,,,,,Philippines,,0,0,0,0000-00-00 00:00:00
6512,Emilyn,Alviar,D,M,9175264671,alviar.emilyn@amaialand.com,Project Sales Officer,,0,AMAIA LAND CORP,Sales,Main,,,,,Philippines,,0,0,0,0000-00-00 00:00:00
6513,Francis Lawrence,Andres,F,M,9173128406,andres.francis@amaialand.com,Marketing Sr. Associate,,0,AMAIA LAND CORP,Mktng,Main,,,,,Philippines,,0,0,0,0000-00-00 00:00:00
6514,Rodalyn,Arbuis,A,M,9178519156,arbuis.rodalyn@amaialand.com,Project Development Associate,,0,AMAIA LAND CORP,PSMG,Main,,,,,Philippines,,0,0,0,0000-00-00 00:00:00
6515,Joseph,Arceño,C,M,9175996572,arceno.joseph@amaialand.com,Liaison Sr. Associate,,0,AMAIA LAND CORP,CRU,Main,,,,,Philippines,,0,0,0,0000-00-00 00:00:00
6516,Jelica Anne,Asido,T,M,9173255773,asido.jelica@amaialand.com,Customer Communications Sr. Asso,,0,AMAIA LAND CORP,CCG,Main,,,,,Philippines,,0,0,0,0000-00-00 00:00:00
6517,Arren,Atienza,E,M,9178258750,atienza.arren@amaialand.com,Customer Service Associate Manag,,0,AMAIA LAND CORP,CRU,Main,,,,,Philippines,,0,0,0,0000-00-00 00:00:00
6518,Cherishly,Badiola,E,M,9173242381,badiola.cherishly@amaialand.com,Project Development Associate,,0,AMAIA LAND CORP,PSMG,Main,,,,,Philippines,,0,0,0,0000-00-00 00:00:00
6519,Mary Ann,Bailon,G,M,9175051031,bailon.maryann@amaialand.com,Sales Operation Officer,,0,AMAIA LAND CORP,Sales,Main,,,,,Philippines,,0,0,0,0000-00-00 00:00:00
6520,Edmun,Balesteros,L,M,9178155864,ballesteros.edmun@amaialand.com,Sales Account Management Sr. Ass,,0,AMAIA LAND CORP,Sales,Main,,,,,Philippines,,0,0,0,0000-00-00 00:00:00
6521,Manuel,Baltazar,R,M,9175590030,baltazar.manuel@amaialand.com,Project Architect Manager,,0,AMAIA LAND CORP,IDG,Main,,,,,Philippines,,0,0,0,0000-00-00 00:00:00
6522,Mary Grace,Baluyan,T,M,9178069332,baluyan.marygrace@amaialand.com,Project Development Associate Ma,,0,AMAIA LAND CORP,PSMG,Main,,,,,Philippines,,0,0,0,0000-00-00 00:00:00
6523,Julius,Baricaua,D,M,9175213841,baricaua.julius@amaialand.com,Project Development Manager,,0,AMAIA LAND CORP,PSMG,Main,,,,,Philippines,,0,0,0,0000-00-00 00:00:00
6524,Milalyn,Barnido,D,M,9178114834,barnido.milalyn@amaialand.com,Broker Manager,,0,AMAIA LAND CORP,Sales,Main,,,,,Philippines,,0,0,0,0000-00-00 00:00:00
6525,Mark Isael,Basilio,P,M,9178013514,basilio.isael@amaialand.com,Marketing Sr. Associate,,0,AMAIA LAND CORP,Mktng,Main,,,,,Philippines,,0,0,0,0000-00-00 00:00:00
6526,Michelle,Bautista,G,M,9175922806,bautista.michelle@amaialand.com,Marketing Associate,,0,AMAIA LAND CORP,Mktng,Main,,,,,Philippines,,0,0,0,0000-00-00 00:00:00
6527,Sean Carlo,Bayogos,Y,M,9178242363,bayogos.sean@amaialand.com,Project Architect Associate Mana,,0,AMAIA LAND CORP,IDG,Main,,,,,Philippines,,0,0,0,0000-00-00 00:00:00
6528,Daniellene Grace,Benig,A,M,9175276156,benig.daniellene@amaialand.com,Project Development Sr. Associat,,0,AMAIA LAND CORP,PSMG,Main,,,,,Philippines,,0,0,0,0000-00-00 00:00:00
6529,Marjorie Elaine,Berdos,B,M,9178594686,berdos.marjorie@amaialand.com,Marketing Associate,,0,AMAIA LAND CORP,Mktng,Main,,,,,Philippines,,0,0,0,0000-00-00 00:00:00
6530,Eralyn,Bernasor,D,M,9175941380,bernasor.eralyn@amaialand.com,Recruitment Officer,,0,AMAIA LAND CORP,Sales,Main,,,,,Philippines,,0,0,0,0000-00-00 00:00:00
6531,Romelyn Anne,Butial,V,M,9175745002,butial.romelyn@amaialand.com,Sales Admin Associate,,0,AMAIA LAND CORP,Sales,Main,,,,,Philippines,,0,0,0,0000-00-00 00:00:00
6532,Leonardo,Cabadin,A,M,9175732321,cabadin.jon@amaialand.com,Compliance Sr. Associate,,0,AMAIA LAND CORP,CRU,Main,,,,,Philippines,,0,0,0,0000-00-00 00:00:00
6533,Elmer,Cabus,M,M,9175994317,cabus.elmer@amaialand.com,Sales Accounts Management Associ,,0,AMAIA LAND CORP,Sales,Main,,,,,Philippines,,0,0,0,0000-00-00 00:00:00
6534,Danilo,Cagas,T,M,9175761689,cagas.danilo@amaialand.com,Compliance Associate,,0,AMAIA LAND CORP,PSMG,Main,,,,,Philippines,,0,0,0,0000-00-00 00:00:00
6578,Mary Grace,Guinto,C,M,9175904781,calingasan.grace@amaialand.com,Project Development Manager,,0,AMAIA LAND CORP,PSMG,Main,,,,,Philippines,,0,0,0,0000-00-00 00:00:00
6535,Keene Antolm Benedique,Calipara,V,M,9175951896,calipara.keene@amaialand.com,Project Development Manager,,0,AMAIA LAND CORP,PSMG,Main,,,,,Philippines,,0,0,0,0000-00-00 00:00:00
6536,Eriza,Calor,G,M,9175922804,calora.eriza@amaialand.com,Sales Accounts Management Sr. As,,0,AMAIA LAND CORP,Sales,Main,,,,,Philippines,,0,0,0,0000-00-00 00:00:00
6537,Antonio,Carag,A,M,9178234928,carag.antonio@amaialand.com,Facilities Manager,,0,AMAIA LAND CORP,PSMG,Main,,,,,Philippines,,0,0,0,0000-00-00 00:00:00
6538,Diana Joyce,Carait,B,M,9178519147,carait.diana@amaialand.com,Title Delivery Sr. Associate,,0,AMAIA LAND CORP,CCG,Main,,,,,Philippines,,0,0,0,0000-00-00 00:00:00
6539,Jessica,Carpio,L,M,9178609610,carpio.jessica@amaialand.com,Project Development Associate,,0,AMAIA LAND CORP,PSMG,Main,,,,,Philippines,,0,0,0,0000-00-00 00:00:00
6540,Ma. Luisa,Carpio,G,M,9178068973,carpio.luisa@amailand.com,Customer Care Manager,,0,AMAIA LAND CORP,CRU,Main,,,,,Philippines,,0,0,0,0000-00-00 00:00:00
6541,Maria Jenina,Cas,R,M,9178735758,cas.jenina@amaialand.com,Administrative Assistant,,0,AMAIA LAND CORP,PSMG,Main,,,,,Philippines,,0,0,0,0000-00-00 00:00:00
6542,Maria Jemelyn,Casabar,R,M,9175375922,casabar.jemelyn@amaialand.com,Project Development Associate Ma,,0,AMAIA LAND CORP,PSMG,Main,,,,,Philippines,,0,0,0,0000-00-00 00:00:00
6543,Gene Paul,Castillo,P,M,9178619247,castillo.paul@amaialand.com,Systems & Development Manger,,0,AMAIA LAND CORP,PSMG,Main,,,,,Philippines,,0,0,0,0000-00-00 00:00:00
6544,Cherryl Anne,Castro,C,M,9178931649,castro.cherryl@amaialand.com,Project Development Associate Ma,,0,AMAIA LAND CORP,PSMG,Main,,,,,Philippines,,0,0,0,0000-00-00 00:00:00
6545,Maria Allaine,Celon,O,M,9175735168,celon.maria@amaialand.com,Broker Coordinator,,0,AMAIA LAND CORP,Sales,Main,,,,,Philippines,,0,0,0,0000-00-00 00:00:00
6546,Shena,Ciocon,Y,M,9175994316,ciocon.shena@amaialand.com,Accounts Management Associate,,0,AMAIA LAND CORP,CRU,Main,,,,,Philippines,,0,0,0,0000-00-00 00:00:00
6547,Princess Daiseree,Comendador,B,M,9175316761,comendador.princess@amaialand.com,Project Development Sr. Associat,,0,AMAIA LAND CORP,PSMG,Main,,,,,Philippines,,0,0,0,0000-00-00 00:00:00
6548,Joy,Constantino,F,M,9175761704,constantino.joy@amaialand.com,Project Sales Officer,,0,AMAIA LAND CORP,Sales,Main,,,,,Philippines,,0,0,0,0000-00-00 00:00:00
6549,Carl Joseph,Crisostomo,D,M,9178735731,crisostomo.joseph@amaialand.com,Project Development Associate,,0,AMAIA LAND CORP,PSMG,Main,,,,,Philippines,,0,0,0,0000-00-00 00:00:00
6550,Leslie Lizzie,Cruz-Sarao,C,M,9178083910,cruz.leslie@amaialand.com,C&A Manager,,0,AMAIA LAND CORP,Finance,Main,,,,,Philippines,,0,0,0,0000-00-00 00:00:00
6551,Armin,Custodio,C,M,9175533770,custodio.armin@amaialand.com,Customer Service Associate,,0,AMAIA LAND CORP,CRU,Main,,,,,Philippines,,0,0,0,0000-00-00 00:00:00
6558,Meloisa,Enriquez,D,M,9178147498,dagohoy.meloisa@amaialand.com,HR Associate,,0,AMAIA LAND CORP,Human Resource,Main,,,,,Philippines,,0,0,0,0000-00-00 00:00:00
6552,Niki Anne,Dammay,I,M,9175375931,dammay.niki@amaialand.com,Broker Coordinator,,0,AMAIA LAND CORP,Sales,Main,,,,,Philippines,,0,0,0,0000-00-00 00:00:00
6618,Zenaida,Punla,D,M,9178106960,david.zen@amaialand.com,Sales Operations Associate Manag,,0,AMAIA LAND CORP,Sales,Main,,,,,Philippines,,0,0,0,0000-00-00 00:00:00
6555,Arianne Mae,Delos Reyes,E,M,9178609465,delosreyes.arianne@amaialand.com,Sr. Project Architect,,0,AMAIA LAND CORP,IDG,Main,,,,,Philippines,,0,0,0,0000-00-00 00:00:00
6553,Mary Cressida,De Ocampo,R,M,9175391663,deocampo.cress@amaialand.com,Broker Coordinator,,0,AMAIA LAND CORP,Sales,Main,,,,,Philippines,,0,0,0,0000-00-00 00:00:00
6554,Jimmy,De Torres,D,M,9175859251,detorres.jimmy@amaialand.com,Sales Documentation Associate Ma,,0,AMAIA LAND CORP,Sales,Main,,,,,Philippines,,0,0,0,0000-00-00 00:00:00
6556,Jean Paula,Diputado,T,M,9175660637,diputado.paula@amaialand.com,Executive Secretary,,0,AMAIA LAND CORP,OP,Main,,,,,Philippines,,0,0,0,0000-00-00 00:00:00
6557,Jaica,Dita,N,M,9178258652,dita.jaica@amaialand.com,Project Development Associate,,0,AMAIA LAND CORP,PSMG,Main,,,,,Philippines,,0,0,0,0000-00-00 00:00:00
6559,Jeanne Christine,Espin,T,M,9175095831,espin.jeanne@amaialand.com,Jr. Project Sales Officer,,0,AMAIA LAND CORP,Sales,Main,,,,,Philippines,,0,0,0,0000-00-00 00:00:00
6560,Princess Rowena,Espino,S,M,9176378074,espino.princess@amaialand.com,Broker Coordinator,,0,AMAIA LAND CORP,Sales,Main,,,,,Philippines,,0,0,0,0000-00-00 00:00:00
6561,Jasmine,Espiritu,T,M,9178237155,espiritu.jasmine@amaialand.com,Broker Manager,,0,AMAIA LAND CORP,Sales,Main,,,,,Philippines,,0,0,0,0000-00-00 00:00:00
6562,Joselyn,Evangelista,M,M,9175060499,evangelista.joselyn@amaialand.com,Accounts Management Associate,,0,AMAIA LAND CORP,CRU,Main,,,,,Philippines,,0,0,0,0000-00-00 00:00:00
6563,Wilborn,Famatigan,M,M,9175975033,famatigan.wilborn@amaialand.com,CRU Head,,0,AMAIA LAND CORP,CRU,Main,,,,,Philippines,,0,0,0,0000-00-00 00:00:00
6564,Manuela,Farin,H,M,9178491403,farin.manuela@amaialand.com,Broker Manager,,0,AMAIA LAND CORP,Sales,Main,,,,,Philippines,,0,0,0,0000-00-00 00:00:00
6565,Rachell Ann,Flores,C,M,9175328605,flores.rachell@amaialand.com,Administrative Assistant,,0,AMAIA LAND CORP,IDG,Main,,,,,Philippines,,0,0,0,0000-00-00 00:00:00
6566,Everlyn,Fortes,F,M,9175384315,fortes.everlyn@amaialand.com,Sales Recruitment Associate,,0,AMAIA LAND CORP,Sales,Main,,,,,Philippines,,0,0,0,0000-00-00 00:00:00
6567,Maria Clara,Francisco,B,M,9175867295,francisco.clara@amaialand.com,Sales Accounts Management Associ,,0,AMAIA LAND CORP,Sales,Main,,,,,Philippines,,0,0,0,0000-00-00 00:00:00
6568,Maricar,Gabriel,R,M,9175287330,gabriel.maricar@amaialand.com,Associate Manager,,0,AMAIA LAND CORP,CCG,Main,,,,,Philippines,,0,0,0,0000-00-00 00:00:00
6569,Emmanuel,Gabuan,B,M,9175298092,gabuan.emmanuel@amaialand.com,Project Development Associate Ma,,0,AMAIA LAND CORP,PSMG,Main,,,,,Philippines,,0,0,0,0000-00-00 00:00:00
6570,Nenen,Gapate,C,M,9178405521,gapate.nenen@ayalaland.com.ph,Sales Support Officer,,0,AMAIA LAND CORP,Sales,Main,,,,,Philippines,,0,0,0,0000-00-00 00:00:00
6572,Mark Anthony,Garcia,M,M,9175107477,garcia.anthony@amaialand.com,Customer Service Associate,,0,AMAIA LAND CORP,CRU,Main,,,,,Philippines,,0,0,0,0000-00-00 00:00:00
6571,Leizel Mae,Garcia,B,M,9178687660,garcia.leizel@amaialand.com,Sales Recruitment Associate,,0,AMAIA LAND CORP,Sales,Main,,,,,Philippines,,0,0,0,0000-00-00 00:00:00
6573,Robert Rich,Garcia,D,M,9175761280,garcia.robert@amaialand.com,Compliance Associate,,0,AMAIA LAND CORP,PSMG,Main,,,,,Philippines,,0,0,0,0000-00-00 00:00:00
6574,Rammil Nestor,Gardon,L,M,9176326358,gardon.rammil@amaialand.com,Recruitment Associate Manager,,0,AMAIA LAND CORP,Sales,Main,,,,,Philippines,,0,0,0,0000-00-00 00:00:00
6575,Yen,Gerero,B,M,9175244544,gerero.yen@amaialand.com,Purchasing Associate,,0,AMAIA LAND CORP,Finance,Main,,,,,Philippines,,0,0,0,0000-00-00 00:00:00
6576,Robert,Gil,V,M,9178556456,gil.robert@amaialand.com,Sales Operations Head,,0,AMAIA LAND CORP,Sales,Main,,,,,Philippines,,0,0,0,0000-00-00 00:00:00
6577,Arden,Giron,S,M,9175201213,giron.arden@amaialand.com,Sr. Accounting Associate,,0,AMAIA LAND CORP,PSMG,Main,,,,,Philippines,,0,0,0,0000-00-00 00:00:00
6579,Cheryl,Higino,D,M,9175758772,higino.ching@amaialand.com,Sales Operations Head,,0,AMAIA LAND CORP,Sales,Main,,,,,Philippines,,0,0,0,0000-00-00 00:00:00
6580,Vladimir,Ilagan,I,M,9175641451,ilagan.vladimir@amaialand.com,Compliance Associate,,0,AMAIA LAND CORP,PSMG,Main,,,,,Philippines,,0,0,0,0000-00-00 00:00:00
6581,Benjamin Alberto,Imperial,C,M,9178084917,imperial.albert@amaialand.com,HR Sr. Associate,,0,AMAIA LAND CORP,Human Resource,Main,,,,,Philippines,,0,0,0,0000-00-00 00:00:00
6582,Imelda,Inacay,L,M,9175941381,inacay.imelda@amaialand.com,Customer Care Associate Manager,,0,AMAIA LAND CORP,CCG,Main,,,,,Philippines,,0,0,0,0000-00-00 00:00:00
6583,Enrico Miguel,Isip,V,M,9178735755,isip.enrico@amaialand.com,Project Architect,,0,AMAIA LAND CORP,IDG,Main,,,,,Philippines,,0,0,0,0000-00-00 00:00:00
6584,Dana Nadine,Kison,Z,M,9175092044,kison.dana@amaialand.com,Project Development Associate,,0,AMAIA LAND CORP,PSMG,Main,,,,,Philippines,,0,0,0,0000-00-00 00:00:00
6585,Krisha,Lara,V,M,9175093476,lara.krisha@amaialand.com,Sr. Accounts Management Associat,,0,AMAIA LAND CORP,CRU,Main,,,,,Philippines,,0,0,0,0000-00-00 00:00:00
6586,Jennifer,Leonor,A,M,9175836220,leonor.jennifer@amaialand.com,Project Development Associate Ma,,0,AMAIA LAND CORP,PSMG,Main,,,,,Philippines,,0,0,0,0000-00-00 00:00:00
6587,Hazel,Liquido,L,M,9175622909,liquido.hazel@amaialand.com,HR Sr. Associate,,0,AMAIA LAND CORP,Human Resource,Main,,,,,Philippines,,0,0,0,0000-00-00 00:00:00
6588,Jevra,Ludovice,A,M,9178127211,ludovice.jevra@amaialand.com,Sales Recruitment Assistant0,,0,AMAIA LAND CORP,Sales,Main,,,,,Philippines,,0,0,0,0000-00-00 00:00:00
6589,Noelita,Luna,M,M,9175996579,luna.noelita@amaialand.com,Accounts Management Associate Ma,,0,AMAIA LAND CORP,CRU,Main,,,,,Philippines,,0,0,0,0000-00-00 00:00:00
6590,Tricia Ella,Macawile,F,M,9175731123,macawile.tricia@amaialand.com,Customer Care Manager,,0,AMAIA LAND CORP,CCG,Main,,,,,Philippines,,0,0,0,0000-00-00 00:00:00
6591,Manuel Santiago,Madrelejos,R,M,9175662820,madrelejos.manuel@amaialand.com,Facilities Management Associate,,0,AMAIA LAND CORP,PSMG,Main,,,,,Philippines,,0,0,0,0000-00-00 00:00:00
6592,Kathy Rose,Mamaril,M,M,9173299180,mamaril.kathy@amaialand.com,Broker Manager,,0,AMAIA LAND CORP,Sales,Main,,,,,Philippines,,0,0,0,0000-00-00 00:00:00
6593,Kathy,Manalastas,J,M,9175941206,manalastas.kathy@amaialand.com,HR Sr. Associate,,0,AMAIA LAND CORP,Human Resource,Main,,,,,Philippines,,0,0,0,0000-00-00 00:00:00
6594,Christian Ignatius,Manalo,I,M,9175732304,manalo.christian@amaialand.com,Compliance Associate,,0,AMAIA LAND CORP,PSMG,Main,,,,,Philippines,,0,0,0,0000-00-00 00:00:00
6595,Kristel Joy,Manalo,T,M,9175951875,manalo.kristel@amaialand.com,Project Development Manager,,0,AMAIA LAND CORP,PSMG,Main,,,,,Philippines,,0,0,0,0000-00-00 00:00:00
6596,Marjorie,Manarin,T,M,9175695911,manarin.marjorie@amaialand.com,Sales Support Officer,,0,AMAIA LAND CORP,Sales,Main,,,,,Philippines,,0,0,0,0000-00-00 00:00:00
6597,Jemelly,Manongsong,G,M,9178271566,manongsong.jemelly@amaialand.com,Project Sales Officer,,0,AMAIA LAND CORP,Sales,Main,,,,,Philippines,,0,0,0,0000-00-00 00:00:00
6598,Rommel,Maronilla,D,M,9178672823,maronilla.rommel@amaialand.com,Purchasing Manager,,0,AMAIA LAND CORP,Finance,Main,,,,,Philippines,,0,0,0,0000-00-00 00:00:00
6599,Michael,Martinez,C,M,9178762101,martinez.michael@amaialand.com,Project Development Associate,,0,AMAIA LAND CORP,PSMG,Main,,,,,Philippines,,0,0,0,0000-00-00 00:00:00
6600,Raizel,Matibag,S,M,9178609792,matibag.raizel@amaialand.com,Project Development Manager,,0,AMAIA LAND CORP,PSMG,Main,,,,,Philippines,,0,0,0,0000-00-00 00:00:00
6601,Mizraim,Maximo,T,M,9175907302,maximo.mizraim@amaialand.com,Marketing Sr. Associate,,0,AMAIA LAND CORP,Mktng,Main,,,,,Philippines,,0,0,0,0000-00-00 00:00:00
6602,Wil Anne,Mendoza,G,M,9178127286,mendoza.wilanne@amaialand.com,Sales Recruitment Assistant,,0,AMAIA LAND CORP,Sales,Main,,,,,Philippines,,0,0,0,0000-00-00 00:00:00
6603,Ronaldo,Miranda,C,M,9175690164,miranda.ronaldo@amaialand.com,Broker Coordinator,,0,AMAIA LAND CORP,Sales,Main,,,,,Philippines,,0,0,0,0000-00-00 00:00:00
6604,Catherine,Mirasol,C,M,9175447740,mirasol.catherine@amaialand.com,Documentation Specialist,,0,AMAIA LAND CORP,CRU,Main,,,,,Philippines,,0,0,0,0000-00-00 00:00:00
6605,Cindy,Moscaya,G,M,9175277548,moscaya.cindy@amaialand.com,Collection Sr. Associate,,0,AMAIA LAND CORP,CRU,Main,,,,,Philippines,,0,0,0,0000-00-00 00:00:00
6606,Loreene,Natividad,S,M,9175907303,natividad.loreene@amaialand.com,Geo Marketing Manager,,0,AMAIA LAND CORP,Mktng,Main,,,,,Philippines,,0,0,0,0000-00-00 00:00:00
6607,Roy,Oliva,S,M,9178098567,oliva.roy@amaialand.com,Sales Admin Manager,,0,AMAIA LAND CORP,CRU,Main,,,,,Philippines,,0,0,0,0000-00-00 00:00:00
6608,Parissa Venecia,Ordonez,V,M,9175276554,ordonez.parissa@amaialand.com,HR Training Sr. Associate,,0,AMAIA LAND CORP,Human Resource,Main,,,,,Philippines,,0,0,0,0000-00-00 00:00:00
6609,Ma. Carmen,Orienza,C,M,9178095564,orienza.carmen@amaialand.com,Broker Coordinator,,0,AMAIA LAND CORP,Sales,Main,,,,,Philippines,,0,0,0,0000-00-00 00:00:00
6610,Recaredo,Pablo,G,M,9175717326,pablo.red@amaialand.com,Sr. Training Associate,,0,AMAIA LAND CORP,Sales,Main,,,,,Philippines,,0,0,0,0000-00-00 00:00:00
6611,Milfa,Pagsisihan,O,M,9175028921,pagsisihan.milfa@amaialand.com,Sales Opertaions Head,,0,AMAIA LAND CORP,Sales,Main,,,,,Philippines,,0,0,0,0000-00-00 00:00:00
6612,Fritzie,Panes,M,M,9175446728,panes.fritzie@amaialand.com,Project Sales Officer,,0,AMAIA LAND CORP,Sales,Main,,,,,Philippines,,0,0,0,7/22/2015 20:06
6613,Nicole Anne,Pangilingan,G,M,9175414252,pangilinan.nicole@amaialand.com,Broker Coordinator,,0,AMAIA LAND CORP,Sales,Main,,,,,Philippines,,0,0,0,0000-00-00 00:00:00
6614,Ariane,Pantaleon,L,M,9175879230,pantaleon.azrel@amaialand.com,Project Architect Sr. Associate,,0,AMAIA LAND CORP,IDG,Main,,,,,Philippines,,0,0,0,0000-00-00 00:00:00
6615,Jenny Lynn,Paus,F,M,9175761183,paus.jenny@amaialand.com,Communications Associate Manager,,0,AMAIA LAND CORP,CRU,Main,,,,,Philippines,,0,0,0,0000-00-00 00:00:00
6616,Jane,Penson,T,M,9175384314,penson.jane@amaialand.com,Sales Training Associate Manager,,0,AMAIA LAND CORP,Sales,Main,,,,,Philippines,,0,0,0,0000-00-00 00:00:00
6617,Eunice Elaine Marie,Prado,S,M,9178421695,prado.eunice@amaialand.com,HR Manager - Talent Management,,0,AMAIA LAND CORP,Human Resource,Main,,,,,Philippines,,0,0,0,0000-00-00 00:00:00
6619,Joanna Marie,Punzalan,D,M,9178117869,punzalan.joanna@amaialand.com,Sales Operations Officer,,0,AMAIA LAND CORP,Sales,Main,,,,,Philippines,,0,0,0,0000-00-00 00:00:00
6620,Joel,Punzalan,C,M,9175463451,punzalan.joel@amaialand.com,Geographical Head,,0,AMAIA LAND CORP,PSMG,Main,,,,,Philippines,,0,0,0,0000-00-00 00:00:00
6621,Klarisse Jamila,Quevada,T,M,9178735732,quevada.klarisse@amaialand.com,Project Development Associate,,0,AMAIA LAND CORP,PSMG,Main,,,,,Philippines,,0,0,0,0000-00-00 00:00:00
6622,Rowena,Ramalla,A,M,9178762120,ramalla.wena@amaialand.com,Finance Associate Manager,,0,AMAIA LAND CORP,Finance,Main,,,,,Philippines,,0,0,0,0000-00-00 00:00:00
6623,Ayla Francesca,Reyes,T,M,9178258581,reyes.ayla@amaialand.com,Project Development Sr. Associat,,0,AMAIA LAND CORP,PSMG,Main,,,,,Philippines,,0,0,0,0000-00-00 00:00:00
6624,Rodney,Reyes,E,M,9175580594,reyes.rodney@amaialand.com,Geographical Head,,0,AMAIA LAND CORP,PSMG,Main,,,,,Philippines,,0,0,0,0000-00-00 00:00:00
6625,Regine,Riguera,D,M,9178258679,riguera.regine@amaialand.com,Project Development Sr. Associat,,0,AMAIA LAND CORP,PSMG,Main,,,,,Philippines,,0,0,0,0000-00-00 00:00:00
6626,Katherine,Rosales,D,M,9178915092,rosales.katherine@amaialand.com,Admin Associate Manager,,0,AMAIA LAND CORP,PSMG,Main,,,,,Philippines,,0,0,0,0000-00-00 00:00:00
6627,Teodora,Salengua,M,M,9175446001,salengua.doris@amaialand.com,Customer Care Manager,,0,AMAIA LAND CORP,CCG,Main,,,,,Philippines,,0,0,0,0000-00-00 00:00:00
6628,Ma. Lorena,Sales,B,M,9178739247,sales.loren@amaialand.com,Sales Head,,0,AMAIA LAND CORP,Sales,Main,,,,,Philippines,,0,0,0,0000-00-00 00:00:00
6629,Cybill Claire,Samillano,S,M,9175420941,samillano.cybill@amaialand.com,Project Development Manager,,0,AMAIA LAND CORP,PSMG,Main,,,,,Philippines,,0,0,0,0000-00-00 00:00:00
6630,Arthur,Samonte,C,M,9175994324,samonte.cocoy@amaialand.com,Broker Manager,,0,AMAIA LAND CORP,Sales,Main,,,,,Philippines,,0,0,0,0000-00-00 00:00:00
6631,Sixto,Sengson,G,M,9175941390,sengson.sixto@amaialand.com,Sales Operations Head,,0,AMAIA LAND CORP,Sales,Main,,,,,Philippines,,0,0,0,0000-00-00 00:00:00
6632,Miyaki,Sequerra,M,M,9178098116,sequerra.miyaki@amaialand.com,Marketing Sr. Associate,,0,AMAIA LAND CORP,Mktng,Main,,,,,Philippines,,0,0,0,0000-00-00 00:00:00
6633,Irene,Shen,R,M,9175834914,shen.irene@amaialand.com.ph,Compensation and Benefits Assoc ,,0,AMAIA LAND CORP,Human Resource,Main,,,,,Philippines,,0,0,0,0000-00-00 00:00:00
6634,Michelle Angelique,Simon,B,M,9178594702,simon.michelle@amaialand.com,Graphic Artist,,0,AMAIA LAND CORP,Mktng,Main,,,,,Philippines,,0,0,0,0000-00-00 00:00:00
6635,Jen,Sornito,E,M,9175730869,sornito.jenny@amaialand.com,ATSG Coordinator,,0,AMAIA LAND CORP,Sales,Main,,,,,Philippines,,0,0,0,0000-00-00 00:00:00
6636,Cielo,Suquib,O,M,9175268931,suquib.cielo@amaialand.com,Project Development Associate,,0,AMAIA LAND CORP,PSMG,Main,,,,,Philippines,,0,0,0,0000-00-00 00:00:00
6637,Bae Kharimah,Tawano,B,M,9175994326,tawano.kendi@amaialand.com,Project Development Manager,,0,AMAIA LAND CORP,PSMG,Main,,,,,Philippines,,0,0,0,0000-00-00 00:00:00
6638,Jocelyn,Tolentino,O,M,9175177549,tolentino.joy@amaialand.com,Booking Team Associate Manager,,0,AMAIA LAND CORP,Sales,Main,,,,,Philippines,,0,0,0,0000-00-00 00:00:00
6639,Elaine,Tornito,L,M,9175922814,tornito.elaine@amaialand.com,Administrative Assistant,,0,AMAIA LAND CORP,Finance,Main,,,,,Philippines,,0,0,0,0000-00-00 00:00:00
6640,Thomas Joseph,Tuazon,C,M,9175941379,tuazon.tj@amaialand.com,Marketing Sr. Associate,,0,AMAIA LAND CORP,Mktng,Main,,,,,Philippines,,0,0,0,0000-00-00 00:00:00
6641,Rachel Joy,Tubayan,R,M,9175758768,tubayan.rachel@amaialand.com,Project Development Manager,,0,AMAIA LAND CORP,PSMG,Main,,,,,Philippines,,0,0,0,0000-00-00 00:00:00
6642,Cecile,Tuplano,T,M,9178735716,tuplano.cecile@amaialand.com,Project Development Sr. Associat,,0,AMAIA LAND CORP,PSMG,Main,,,,,Philippines,,0,0,0,0000-00-00 00:00:00
6643,Carmelina,Uy,V,M,9178114182,uy.carmelina@amaialand.com,Customer Care Officer,,0,AMAIA LAND CORP,CCG,Main,,,,,Philippines,,0,0,0,0000-00-00 00:00:00
6644,Amelia Teresa,Valencia,C,M,9175065305,valencia.meh@amaialand.com,Project Development Manager,,0,AMAIA LAND CORP,PSMG,Main,,,,,Philippines,,0,0,0,0000-00-00 00:00:00
6645,Miguel Josemaria,Valeroso,C,M,9178002850,valeroso.miguel@amaialand.com,Project Development Associate,,0,AMAIA LAND CORP,PSMG,Main,,,,,Philippines,,0,0,0,0000-00-00 00:00:00
6646,Louie Anthony,Valles,L,M,9175065387,valles.louieanthony@amaialand.com,Geographical Head,,0,AMAIA LAND CORP,PSMG,Main,,,,,Philippines,,0,0,0,0000-00-00 00:00:00
6647,Mary Ann,Vargas,T,M,9175941393,vargas.maryann@amaialand.com,Accounts Management Associate,,0,AMAIA LAND CORP,Sales,Main,,,,,Philippines,,0,0,0,0000-00-00 00:00:00
6648,Maria Valerie,Velecina,B,M,9178619251,velecina.valerie@amaialand.com,Project Development Associate Ma,,0,AMAIA LAND CORP,PSMG,Main,,,,,Philippines,,0,0,0,0000-00-00 00:00:00
6649,Frederick,Victoria,C,M,9178095568,victoria.frederick@amaialand.com,Geo Marketing Associate Manager,,0,AMAIA LAND CORP,Mktng,Main,,,,,Philippines,,0,0,0,0000-00-00 00:00:00
6650,Marites,Villacorta,E,M,9178242318,villacorta.marites@amaialand.com,Administrative Assistant,,0,AMAIA LAND CORP,PSMG,Main,,,,,Philippines,,0,0,0,0000-00-00 00:00:00
6651,Aiza,Villas,D,M,9175951892,villas.aiza@amaialand.com,Sales Operations Officer,,0,AMAIA LAND CORP,Sales,Main,,,,,Philippines,,0,0,0,0000-00-00 00:00:00
6652,Lorenzo Bernardo,Villegas,A,M,9178762074,villegas.lorenzo@amaialand.com,Project Development Associate,,0,AMAIA LAND CORP,PSMG,Main,,,,,Philippines,,0,0,0,0000-00-00 00:00:00
6653,Aurea,Viray,S,M,9175633964,viray.aurea@amaialand.com,Sales Operations Head,,0,AMAIA LAND CORP,Sales,Main,,,,,Philippines,,0,0,0,0000-00-00 00:00:00
6654,Nancy,Viray,S,M,9175951844,viray.chay@amaialand.com,Sr. Project Sales Officer,,0,AMAIA LAND CORP,Sales,Main,,,,,Philippines,,0,0,0,0000-00-00 00:00:00
6655,Eden,Wong,M,M,9178651813,wong.eden@amaialand.com,Sales Support Officer,,0,AMAIA LAND CORP,Sales,Main,,,,,Philippines,,0,0,0,0000-00-00 00:00:00
6656,Kristine Ray,Zapanta,O,M,9178609389,zapanta.tin@amaialand.com,Project Development Associate,,0,AMAIA LAND CORP,PSMG,Main,,,,,Philippines,,0,0,0,0000-00-00 00:00:00
6657,Jeanne Nherese,Zotomayor,H,M,9175761371,zotomayor.jeanne@amaialand.com,Project Development Associate,,0,AMAIA LAND CORP,PSMG,Main,,,,,Philippines,,0,0,0,0000-00-00 00:00:00
